%YAML 1.1
%TAG !u! tag:unity3d.com,2011:
--- !u!1045 &1
EditorBuildSettings:
  m_ObjectHideFlags: 0
  serializedVersion: 2
  m_Scenes:
  - enabled: 1
    path: Assets/Scenes/1.Faded/SamuraiLogo.unity
    guid: d88ead5509c0c33438db4161b12c642b
  - enabled: 1
    path: Assets/Scenes/1.Faded/StartUp.unity
    guid: 3be494c319d38654ba312384e0b2fcc0
  - enabled: 1
    path: Assets/Scenes/2.Menu-Intro/Menu.unity
    guid: 9fc0d4010bbf28b4594072e72b8655ab
  - enabled: 1
    path: Assets/Scenes/2.Menu-Intro/Intro.unity
    guid: cfe4fca0c0f5d954ea598087025e64e0
  - enabled: 1
    path: Assets/Scenes/3.Anleitung/Anleitung.unity
    guid: 1fff989592dde42a5b196a41559377c3
  - enabled: 1
    path: Assets/Scenes/4.Spiel/PlayerScene.unity
    guid: 1e653be3ef546bb4f82a93b19b5d067d
  - enabled: 1
    path: Assets/Scenes/4.Spiel/Haus.unity
    guid: cbade04662c394c07b3aa4101b5dc841
  - enabled: 1
    path: Assets/Scenes/4.Spiel/Wiese.unity
    guid: ad211f30fa4774105bd39777d45233e0
  - enabled: 1
    path: Assets/Scenes/4.Spiel/Wald.unity
    guid: b714f2e6d2c8f4090aaab66294bf3bdc
  - enabled: 1
    path: Assets/Scenes/5.Enden/Accept.unity
    guid: 3ab7114f799e4475f9b63c6cfb4e47fd
  - enabled: 1
    path: Assets/Scenes/5.Enden/Refuse.unity
    guid: c6653672810f24955bc318955a7b5b5f
  - enabled: 1
    path: Assets/Scenes/2.Menu-Intro/Credits.unity
    guid: a27633f00f56e47cea181c582f147451
  m_configObjects: {}
