# File produced by Open Asset Import Library (http://www.assimp.sf.net)
# (assimp v3.1.206520482)

mtllib ChairSingle.mtl

# 280 vertex positions
v 0.946359 0.000488877 0.270355
v 0.901374 0.000488877 0.270355
v 0.901374 -0.0457693 0.270355
v 0.946359 -0.0457693 0.270355
v 0.946359 0.559314 -0.334456
v 0.901374 0.559314 -0.343661
v 0.901374 0.567562 -0.282478
v 0.946359 0.567562 -0.275477
v 0.946359 -0.0457693 -0.270355
v 0.901374 -0.0457693 -0.270355
v 0.901374 0.0265688 -0.270355
v 0.946359 0.0265688 -0.270355
v 0.946359 -0.0457693 -0.209544
v 0.901374 -0.0457693 -0.209544
v 0.946359 0.0265688 -0.209544
v 0.405648 0.0265688 -0.270355
v 0.405648 -0.0457693 -0.270355
v 0.405648 -0.0457693 -0.209544
v 0.405648 0.0265688 -0.209544
v 0.901374 0.0265688 -0.209544
v 0.405648 0.000488877 0.270355
v 0.405648 -0.0457693 0.270355
v 0.946359 0.435878 -0.239692
v 0.946359 0.495665 -0.255479
v 0.901374 0.495665 -0.264654
v 0.901374 0.435878 -0.244629
v 0.946359 0.419217 -0.303609
v 0.946359 0.487417 -0.321161
v 0.901374 0.419217 -0.312814
v 0.901374 0.487417 -0.330366
v 0.405648 0.487417 -0.313536
v 0.405648 0.419217 -0.295984
v 0.405648 0.435878 -0.237499
v 0.405648 0.495665 -0.253287
v 0.946359 0.0918489 -0.204606
v 0.901374 0.0918489 -0.209544
v 0.946359 0.0918489 -0.27085
v 0.901374 0.0918489 -0.280055
v 0.405648 0.0918489 -0.263225
v 0.405648 0.0918489 -0.202414
v 0.877989 -0.0457693 0.270355
v 0.827606 -0.0457693 0.270355
v 0.827606 -0.0457693 -0.209544
v 0.877989 -0.0457693 -0.209544
v 0.827606 -0.0457693 -0.270355
v 0.877989 -0.0457693 -0.270355
v 0.827606 0.0265688 -0.270355
v 0.877989 0.0265688 -0.270355
v 0.827606 0.0918489 -0.280055
v 0.877989 0.0918489 -0.282934
v 0.827606 0.419217 -0.320786
v 0.827606 0.487417 -0.338338
v 0.877989 0.487417 -0.333245
v 0.877989 0.419217 -0.315693
v 0.877989 0.559314 -0.347079
v 0.827606 0.559314 -0.352665
v 0.827606 0.567562 -0.291383
v 0.877989 0.567562 -0.28629
v 0.877989 0.435878 -0.257208
v 0.877989 0.495665 -0.272995
v 0.827606 0.495665 -0.278088
v 0.827606 0.435878 -0.262301
v 0.877989 0.0918489 -0.222122
v 0.827606 0.0918489 -0.219243
v 0.827606 0.0265688 -0.209544
v 0.877989 0.0265688 -0.209544
v 0.827606 0.000488877 0.270355
v 0.877989 0.000488877 0.270355
v 0.800251 -0.0457693 0.270355
v 0.800251 -0.0457693 -0.209544
v 0.800251 -0.0457693 -0.270355
v 0.800251 0.0265688 -0.270355
v 0.800251 0.0918489 -0.283261
v 0.800251 0.559314 -0.355359
v 0.800251 0.567562 -0.294589
v 0.800251 0.0918489 -0.222449
v 0.800251 0.0265688 -0.209544
v 0.800251 0.000488877 0.270355
v 0.741803 -0.0457693 0.270355
v 0.741803 -0.0457693 -0.209544
v 0.741803 -0.0457693 -0.270355
v 0.741803 0.0265688 -0.270355
v 0.741803 0.0918489 -0.280055
v 0.741803 0.419217 -0.330072
v 0.741803 0.487417 -0.347624
v 0.800251 0.487417 -0.341544
v 0.800251 0.419217 -0.323992
v 0.741803 0.559314 -0.359892
v 0.741803 0.567562 -0.299621
v 0.800251 0.435878 -0.265507
v 0.800251 0.495665 -0.281294
v 0.741803 0.495665 -0.287374
v 0.741803 0.435878 -0.271587
v 0.741803 0.0918489 -0.219243
v 0.741803 0.0265688 -0.209544
v 0.741803 0.000488877 0.270355
v 0.71854 -0.0457693 0.270355
v 0.71854 -0.0457693 -0.209544
v 0.71854 -0.0457693 -0.270355
v 0.71854 0.0265688 -0.270355
v 0.71854 0.0918489 -0.280055
v 0.71854 0.559314 -0.360919
v 0.71854 0.567562 -0.300669
v 0.71854 0.0918489 -0.219243
v 0.71854 0.0265688 -0.209544
v 0.71854 0.000488877 0.270355
v 0.656426 -0.0457693 0.270355
v 0.656426 -0.0457693 -0.209544
v 0.656426 -0.0457693 -0.270355
v 0.656426 0.0265688 -0.270355
v 0.656426 0.0918489 -0.280055
v 0.656426 0.419217 -0.330072
v 0.656426 0.487417 -0.347624
v 0.71854 0.487417 -0.347624
v 0.71854 0.419217 -0.330072
v 0.656426 0.559314 -0.360919
v 0.656426 0.567562 -0.300669
v 0.71854 0.435878 -0.271587
v 0.71854 0.495665 -0.287374
v 0.656426 0.495665 -0.287374
v 0.656426 0.435878 -0.271587
v 0.656426 0.0918489 -0.219243
v 0.656426 0.0265688 -0.209544
v 0.656426 0.000488877 0.270355
v 0.631927 -0.0457693 0.270355
v 0.631927 -0.0457693 -0.209544
v 0.631927 -0.0457693 -0.270355
v 0.631927 0.0265688 -0.270355
v 0.631927 0.0918489 -0.280055
v 0.631927 0.559314 -0.360919
v 0.631927 0.567562 -0.300669
v 0.631927 0.0918489 -0.219243
v 0.631927 0.0265688 -0.209544
v 0.631927 0.000488877 0.270355
v 0.565487 -0.0457693 0.270355
v 0.565487 -0.0457693 -0.209544
v 0.565487 -0.0457693 -0.270355
v 0.565487 0.0265688 -0.270355
v 0.565487 0.0918489 -0.285231
v 0.565487 0.419217 -0.325962
v 0.565487 0.487417 -0.343514
v 0.631927 0.487417 -0.347624
v 0.631927 0.419217 -0.330072
v 0.565487 0.559314 -0.356809
v 0.565487 0.567562 -0.296559
v 0.631927 0.435878 -0.271587
v 0.631927 0.495665 -0.287374
v 0.565487 0.495665 -0.283264
v 0.565487 0.435878 -0.267477
v 0.565487 0.0918489 -0.224419
v 0.565487 0.0265688 -0.209544
v 0.565487 0.000488877 0.270355
v 0.540908 -0.0457693 0.270355
v 0.540908 -0.0457693 -0.209544
v 0.540908 -0.0457693 -0.270355
v 0.540908 0.0265688 -0.270355
v 0.540908 0.0918489 -0.280055
v 0.540908 0.559314 -0.354138
v 0.540908 0.567562 -0.294379
v 0.540908 0.0918489 -0.219243
v 0.540908 0.0265688 -0.209544
v 0.540908 0.000488877 0.270355
v 0.478195 -0.0457693 0.270355
v 0.478196 -0.0457693 -0.209544
v 0.478195 -0.0457693 -0.270355
v 0.478195 0.0265688 -0.270355
v 0.478196 0.0918489 -0.280055
v 0.478196 0.419217 -0.312814
v 0.478196 0.487417 -0.330366
v 0.540908 0.487417 -0.338338
v 0.540908 0.419217 -0.320786
v 0.478195 0.559314 -0.345194
v 0.478195 0.567562 -0.28608
v 0.540908 0.435878 -0.262301
v 0.540908 0.495665 -0.278088
v 0.478195 0.495665 -0.270116
v 0.478195 0.435878 -0.254329
v 0.478195 0.0918489 -0.219243
v 0.478195 0.0265688 -0.209544
v 0.478195 0.000488877 0.270355
v 0.452474 -0.0457693 0.270355
v 0.452474 -0.0457693 -0.209544
v 0.452474 -0.0457693 -0.270355
v 0.452474 0.0265688 -0.270355
v 0.452474 0.0918489 -0.277031
v 0.452474 0.559314 -0.339577
v 0.452474 0.567562 -0.279786
v 0.452474 0.0918489 -0.21622
v 0.452474 0.0265688 -0.209544
v 0.452474 0.000488877 0.270355
v 0.452474 0.487417 -0.327342
v 0.452474 0.419217 -0.30979
v 0.405648 0.567562 -0.266582
v 0.405648 0.559314 -0.326832
v 0.452474 0.435878 -0.251305
v 0.452474 0.495665 -0.267093
v 0.405648 0.349485 -0.222485
v 0.452474 0.349485 -0.236291
v 0.540908 0.349485 -0.247287
v 0.478195 0.349485 -0.239315
v 0.631927 0.349485 -0.256572
v 0.565487 0.349485 -0.252462
v 0.71854 0.349485 -0.256572
v 0.656426 0.349485 -0.256572
v 0.800251 0.349485 -0.250493
v 0.741803 0.349485 -0.256572
v 0.877989 0.349485 -0.242194
v 0.827606 0.349485 -0.247287
v 0.946359 0.349485 -0.224678
v 0.901374 0.349485 -0.229615
v 0.946359 0.337016 -0.289629
v 0.901374 0.337016 -0.298835
v 0.827606 0.337016 -0.306806
v 0.877989 0.337016 -0.301713
v 0.741803 0.337016 -0.316092
v 0.800251 0.337016 -0.310012
v 0.656426 0.337016 -0.316092
v 0.71854 0.337016 -0.316092
v 0.565487 0.337016 -0.311982
v 0.631927 0.337016 -0.316092
v 0.478196 0.337016 -0.298835
v 0.540908 0.337016 -0.306806
v 0.405648 0.337016 -0.282005
v 0.452474 0.337016 -0.295811
v 0.405648 0.252378 -0.210093
v 0.452474 0.252378 -0.223899
v 0.540908 0.252378 -0.234895
v 0.478195 0.252378 -0.226923
v 0.631927 0.252378 -0.24418
v 0.565487 0.252378 -0.24007
v 0.71854 0.252378 -0.24418
v 0.656426 0.252378 -0.24418
v 0.800251 0.252378 -0.238101
v 0.741803 0.252378 -0.24418
v 0.877989 0.252378 -0.229802
v 0.827606 0.252378 -0.234895
v 0.946359 0.252378 -0.212286
v 0.901374 0.252378 -0.217223
v 0.946359 0.24357 -0.277888
v 0.901374 0.24357 -0.287093
v 0.827606 0.24357 -0.295065
v 0.877989 0.24357 -0.289972
v 0.741803 0.24357 -0.304351
v 0.800251 0.24357 -0.298271
v 0.656426 0.24357 -0.304351
v 0.71854 0.24357 -0.304351
v 0.565487 0.24357 -0.300241
v 0.631927 0.24357 -0.304351
v 0.478196 0.24357 -0.287093
v 0.540908 0.24357 -0.295065
v 0.405648 0.24357 -0.270263
v 0.452474 0.24357 -0.284069
v 0.405648 0.167247 -0.204426
v 0.452474 0.167247 -0.218232
v 0.540908 0.167247 -0.229227
v 0.478195 0.167247 -0.221256
v 0.631927 0.167247 -0.238513
v 0.565487 0.167247 -0.234403
v 0.71854 0.167247 -0.238513
v 0.656426 0.167247 -0.238513
v 0.800251 0.167247 -0.232433
v 0.741803 0.167247 -0.238513
v 0.877989 0.167247 -0.224134
v 0.827606 0.167247 -0.229227
v 0.946359 0.167247 -0.206618
v 0.901374 0.167247 -0.211556
v 0.946359 0.16214 -0.272647
v 0.901374 0.16214 -0.281852
v 0.827606 0.16214 -0.289824
v 0.877989 0.16214 -0.284731
v 0.741803 0.16214 -0.29911
v 0.800251 0.16214 -0.29303
v 0.656426 0.16214 -0.29911
v 0.71854 0.16214 -0.29911
v 0.565487 0.16214 -0.295
v 0.631927 0.16214 -0.29911
v 0.478196 0.16214 -0.281852
v 0.540908 0.16214 -0.289824
v 0.405648 0.16214 -0.265022
v 0.452474 0.16214 -0.278828

# 596 UV coordinates
vt 0.281679 0.546142 0
vt 0.281679 0.567064 0
vt 0.260165 0.567064 0
vt 0.260165 0.546142 0
vt 0.320219 0.546142 0
vt 0.324501 0.567064 0
vt 0.296045 0.567064 0
vt 0.292789 0.546142 0
vt 0.826782 0.283406 0
vt 0.805861 0.283406 0
vt 0.805861 0.249763 0
vt 0.826782 0.249763 0
vt 0.253296 0.574425 0
vt 0.232374 0.574425 0
vt 0.232374 0.546142 0
vt 0.253296 0.546142 0
vt 0.253296 0.0356353 0
vt 0.225013 0.0356353 0
vt 0.225013 0.00199203 0
vt 0.253296 0.00199203 0
vt 0.316699 0.0356353 0
vt 0.316699 0.00199203 0
vt 0.344981 0.00199203 0
vt 0.344981 0.0356353 0
vt 0.561699 0.555077 0
vt 0.561699 0.575999 0
vt 0.338505 0.575999 0
vt 0.338505 0.555077 0
vt 0.00181982 0.023506 0
vt 0.00181982 0.00199203 0
vt 0.253296 0.797618 0
vt 0.232374 0.797618 0
vt 0.568175 0.023506 0
vt 0.568175 0.00199203 0
vt 0.436968 0.481252 0
vt 0.436968 0.509058 0
vt 0.416046 0.509058 0
vt 0.416046 0.481252 0
vt 0.246377 0.253804 0
vt 0.239034 0.225998 0
vt 0.268761 0.21825 0
vt 0.276924 0.249968 0
vt 0.826782 0.0354301 0
vt 0.826782 0.0671488 0
vt 0.805861 0.0671488 0
vt 0.805861 0.0354301 0
vt 0.296616 0.249968 0
vt 0.304779 0.21825 0
vt 0.33198 0.225998 0
vt 0.324637 0.253804 0
vt 0.436968 0.32125 0
vt 0.416046 0.32125 0
vt 0.416046 0.290889 0
vt 0.436968 0.290889 0
vt 0.222717 0.065996 0
vt 0.253525 0.065996 0
vt 0.826782 0.219402 0
vt 0.805861 0.219402 0
vt 0.320015 0.065996 0
vt 0.348297 0.065996 0
vt 0.221498 0.797618 0
vt 0.198065 0.797618 0
vt 0.198065 0.574425 0
vt 0.221498 0.574425 0
vt 0.198065 0.546142 0
vt 0.221498 0.546142 0
vt 0.794985 0.283406 0
vt 0.771552 0.283406 0
vt 0.771552 0.249763 0
vt 0.794985 0.249763 0
vt 0.771552 0.219402 0
vt 0.794985 0.219402 0
vt 0.771552 0.0671488 0
vt 0.771552 0.0354301 0
vt 0.794985 0.0354301 0
vt 0.794985 0.0671488 0
vt 0.32609 0.57794 0
vt 0.328688 0.601373 0
vt 0.300187 0.601373 0
vt 0.297818 0.57794 0
vt 0.40517 0.481252 0
vt 0.40517 0.509058 0
vt 0.381738 0.509058 0
vt 0.381738 0.481252 0
vt 0.40517 0.32125 0
vt 0.381738 0.32125 0
vt 0.381738 0.290889 0
vt 0.40517 0.290889 0
vt 0.561699 0.586875 0
vt 0.561699 0.610308 0
vt 0.338505 0.610308 0
vt 0.338505 0.586875 0
vt 0.281679 0.57794 0
vt 0.281679 0.601372 0
vt 0.260165 0.601372 0
vt 0.260165 0.57794 0
vt 0.185343 0.797618 0
vt 0.185343 0.574425 0
vt 0.185343 0.546142 0
vt 0.75883 0.283406 0
vt 0.75883 0.249763 0
vt 0.75883 0.219402 0
vt 0.329941 0.614095 0
vt 0.301678 0.614095 0
vt 0.369015 0.32125 0
vt 0.369015 0.290889 0
vt 0.561699 0.62303 0
vt 0.338505 0.62303 0
vt 0.281679 0.614095 0
vt 0.260165 0.614095 0
vt 0.15816 0.797618 0
vt 0.15816 0.574425 0
vt 0.15816 0.546142 0
vt 0.731647 0.283406 0
vt 0.731647 0.249763 0
vt 0.731647 0.219402 0
vt 0.731647 0.0671488 0
vt 0.731647 0.0354301 0
vt 0.75883 0.0354301 0
vt 0.75883 0.0671488 0
vt 0.332049 0.641278 0
vt 0.304018 0.641278 0
vt 0.369015 0.481252 0
vt 0.369015 0.509058 0
vt 0.341833 0.509058 0
vt 0.341833 0.481252 0
vt 0.341833 0.32125 0
vt 0.341833 0.290889 0
vt 0.561699 0.650213 0
vt 0.338505 0.650213 0
vt 0.281679 0.641278 0
vt 0.260165 0.641278 0
vt 0.14734 0.797618 0
vt 0.14734 0.574425 0
vt 0.14734 0.546142 0
vt 0.720827 0.283406 0
vt 0.720827 0.249763 0
vt 0.720827 0.219402 0
vt 0.332527 0.652097 0
vt 0.304506 0.652097 0
vt 0.331013 0.32125 0
vt 0.331013 0.290889 0
vt 0.561699 0.661033 0
vt 0.338505 0.661033 0
vt 0.281679 0.652097 0
vt 0.260165 0.652097 0
vt 0.118453 0.797618 0
vt 0.118453 0.574425 0
vt 0.118453 0.546142 0
vt 0.69194 0.283406 0
vt 0.69194 0.249763 0
vt 0.69194 0.219402 0
vt 0.69194 0.0671488 0
vt 0.69194 0.0354301 0
vt 0.720827 0.0354301 0
vt 0.720827 0.0671488 0
vt 0.332527 0.680985 0
vt 0.304506 0.680985 0
vt 0.331013 0.481252 0
vt 0.331013 0.509058 0
vt 0.302125 0.509058 0
vt 0.302125 0.481252 0
vt 0.302125 0.32125 0
vt 0.302125 0.290889 0
vt 0.561699 0.68992 0
vt 0.338505 0.68992 0
vt 0.281679 0.680985 0
vt 0.260165 0.680985 0
vt 0.107058 0.797618 0
vt 0.107058 0.574425 0
vt 0.107058 0.546142 0
vt 0.680545 0.283406 0
vt 0.680545 0.249763 0
vt 0.680545 0.219402 0
vt 0.332527 0.69238 0
vt 0.304506 0.69238 0
vt 0.290731 0.32125 0
vt 0.290731 0.290889 0
vt 0.561699 0.701315 0
vt 0.338505 0.701315 0
vt 0.281679 0.692379 0
vt 0.260165 0.692379 0
vt 0.076158 0.797618 0
vt 0.076158 0.574425 0
vt 0.076158 0.546142 0
vt 0.649645 0.283406 0
vt 0.649645 0.249763 0
vt 0.649645 0.219402 0
vt 0.649645 0.0671488 0
vt 0.649645 0.0354301 0
vt 0.680545 0.0354301 0
vt 0.680545 0.0671488 0
vt 0.330615 0.72328 0
vt 0.302594 0.72328 0
vt 0.290731 0.481252 0
vt 0.290731 0.509058 0
vt 0.25983 0.509058 0
vt 0.25983 0.481252 0
vt 0.25983 0.32125 0
vt 0.25983 0.290889 0
vt 0.561699 0.732215 0
vt 0.338505 0.732215 0
vt 0.281679 0.72328 0
vt 0.260165 0.72328 0
vt 0.064727 0.797618 0
vt 0.064727 0.574425 0
vt 0.064727 0.546142 0
vt 0.638214 0.283406 0
vt 0.638214 0.249763 0
vt 0.638214 0.219402 0
vt 0.329373 0.734711 0
vt 0.30158 0.734711 0
vt 0.2484 0.32125 0
vt 0.2484 0.290889 0
vt 0.561699 0.743646 0
vt 0.338505 0.743646 0
vt 0.281679 0.734711 0
vt 0.260165 0.734711 0
vt 0.0355603 0.797618 0
vt 0.0355604 0.574425 0
vt 0.0355603 0.546142 0
vt 0.609047 0.283406 0
vt 0.609047 0.249763 0
vt 0.609047 0.219402 0
vt 0.609047 0.0671488 0
vt 0.609047 0.0354301 0
vt 0.638214 0.0354301 0
vt 0.638214 0.0671488 0
vt 0.325214 0.763878 0
vt 0.29772 0.763878 0
vt 0.2484 0.481252 0
vt 0.2484 0.509058 0
vt 0.219233 0.509058 0
vt 0.219233 0.481252 0
vt 0.219233 0.32125 0
vt 0.219233 0.290889 0
vt 0.561699 0.772813 0
vt 0.338505 0.772813 0
vt 0.281679 0.763878 0
vt 0.260165 0.763878 0
vt 0.0235979 0.797618 0
vt 0.0235979 0.574425 0
vt 0.0235979 0.546142 0
vt 0.597085 0.283406 0
vt 0.597085 0.249763 0
vt 0.597085 0.219402 0
vt 0.322601 0.77584 0
vt 0.294793 0.77584 0
vt 0.20727 0.32125 0
vt 0.20727 0.290889 0
vt 0.561699 0.784775 0
vt 0.338505 0.784775 0
vt 0.281679 0.77584 0
vt 0.260165 0.77584 0
vt 0.00181982 0.797618 0
vt 0.00181982 0.574425 0
vt 0.00181982 0.546142 0
vt 0.575307 0.249763 0
vt 0.575307 0.283406 0
vt 0.575307 0.219402 0
vt 0.575307 0.0671488 0
vt 0.575307 0.0354301 0
vt 0.597085 0.0354301 0
vt 0.597085 0.0671488 0
vt 0.288652 0.797618 0
vt 0.316673 0.797618 0
vt 0.185492 0.509058 0
vt 0.185492 0.481252 0
vt 0.20727 0.481252 0
vt 0.20727 0.509058 0
vt 0.185492 0.290889 0
vt 0.185492 0.32125 0
vt 0.338505 0.806553 0
vt 0.561699 0.806553 0
vt 0.281679 0.797618 0
vt 0.260165 0.797618 0
vt 0.290433 0.283406 0
vt 0.318454 0.287242 0
vt 0.575307 0.00199203 0
vt 0.597085 0.00199203 0
vt 0.609047 0.00199203 0
vt 0.638214 0.00199203 0
vt 0.649645 0.00199203 0
vt 0.680545 0.00199203 0
vt 0.69194 0.00199203 0
vt 0.720827 0.00199203 0
vt 0.731647 0.00199203 0
vt 0.75883 0.00199203 0
vt 0.771552 0.00199203 0
vt 0.794985 0.00199203 0
vt 0.805861 0.00199203 0
vt 0.826782 0.00199203 0
vt 0.255678 0.287242 0
vt 0.283108 0.283406 0
vt 0.436968 0.542496 0
vt 0.416046 0.542496 0
vt 0.40517 0.542496 0
vt 0.381738 0.542496 0
vt 0.369015 0.542496 0
vt 0.341833 0.542496 0
vt 0.331013 0.542496 0
vt 0.302125 0.542496 0
vt 0.290731 0.542496 0
vt 0.25983 0.542496 0
vt 0.2484 0.542496 0
vt 0.219233 0.542496 0
vt 0.20727 0.542496 0
vt 0.185492 0.542496 0
vt 0.185492 0.441072 0
vt 0.20727 0.441072 0
vt 0.2484 0.441072 0
vt 0.219233 0.441072 0
vt 0.290731 0.441072 0
vt 0.25983 0.441072 0
vt 0.331013 0.441072 0
vt 0.302125 0.441072 0
vt 0.369015 0.441072 0
vt 0.341833 0.441072 0
vt 0.40517 0.441072 0
vt 0.381738 0.441072 0
vt 0.436968 0.441072 0
vt 0.416046 0.441072 0
vt 0.232052 0.185818 0
vt 0.26226 0.180019 0
vt 0.826782 0.105379 0
vt 0.805861 0.105379 0
vt 0.771552 0.105379 0
vt 0.794985 0.105379 0
vt 0.731647 0.105379 0
vt 0.75883 0.105379 0
vt 0.69194 0.105379 0
vt 0.720827 0.105379 0
vt 0.649645 0.105379 0
vt 0.680545 0.105379 0
vt 0.609047 0.105379 0
vt 0.638214 0.105379 0
vt 0.575307 0.105379 0
vt 0.597085 0.105379 0
vt 0.311281 0.180019 0
vt 0.338963 0.185818 0
vt 0.185492 0.395909 0
vt 0.20727 0.395909 0
vt 0.2484 0.395909 0
vt 0.219233 0.395909 0
vt 0.290731 0.395909 0
vt 0.25983 0.395909 0
vt 0.331013 0.395909 0
vt 0.302125 0.395909 0
vt 0.369015 0.395909 0
vt 0.341833 0.395909 0
vt 0.40517 0.395909 0
vt 0.381738 0.395909 0
vt 0.436968 0.395909 0
vt 0.416046 0.395909 0
vt 0.226288 0.140655 0
vt 0.256799 0.136559 0
vt 0.826782 0.148839 0
vt 0.805861 0.148839 0
vt 0.771552 0.148839 0
vt 0.794985 0.148839 0
vt 0.731647 0.148839 0
vt 0.75883 0.148839 0
vt 0.69194 0.148839 0
vt 0.720827 0.148839 0
vt 0.649645 0.148839 0
vt 0.680545 0.148839 0
vt 0.609047 0.148839 0
vt 0.638214 0.148839 0
vt 0.575307 0.148839 0
vt 0.597085 0.148839 0
vt 0.316742 0.136559 0
vt 0.344726 0.140655 0
vt 0.185492 0.356316 0
vt 0.20727 0.356316 0
vt 0.2484 0.356316 0
vt 0.219233 0.356316 0
vt 0.290731 0.356316 0
vt 0.25983 0.356316 0
vt 0.331013 0.356316 0
vt 0.302125 0.356316 0
vt 0.369015 0.356316 0
vt 0.341833 0.356316 0
vt 0.40517 0.356316 0
vt 0.381738 0.356316 0
vt 0.436968 0.356316 0
vt 0.416046 0.356316 0
vt 0.223652 0.101063 0
vt 0.254361 0.0986871 0
vt 0.826782 0.186711 0
vt 0.805861 0.186711 0
vt 0.771552 0.186711 0
vt 0.794985 0.186711 0
vt 0.731647 0.186711 0
vt 0.75883 0.186711 0
vt 0.69194 0.186711 0
vt 0.720827 0.186711 0
vt 0.649645 0.186711 0
vt 0.680545 0.186711 0
vt 0.609047 0.186711 0
vt 0.638214 0.186711 0
vt 0.575307 0.186711 0
vt 0.597085 0.186711 0
vt 0.319179 0.0986871 0
vt 0.347362 0.101063 0
vt 0.596672 0.555077 0
vt 0.624955 0.555077 0
vt 0.629498 0.587769 0
vt 0.601316 0.590144 0
vt 0.631936 0.625641 0
vt 0.603951 0.629737 0
vt 0.637396 0.669101 0
vt 0.609715 0.6749 0
vt 0.643898 0.707331 0
vt 0.616698 0.71508 0
vt 0.652061 0.73905 0
vt 0.62404 0.742886 0
vt 0.30376 0.829286 0
vt 0.30376 0.801264 0
vt 0.316482 0.802755 0
vt 0.316482 0.830777 0
vt 0.68701 0.742886 0
vt 0.658988 0.73905 0
vt 0.667152 0.707331 0
vt 0.694352 0.71508 0
vt 0.673653 0.669101 0
vt 0.701335 0.6749 0
vt 0.679114 0.625641 0
vt 0.707098 0.629737 0
vt 0.681551 0.587769 0
vt 0.709734 0.590144 0
vt 0.686095 0.555077 0
vt 0.714377 0.555077 0
vt 0.352377 0.8102 0
vt 0.352377 0.838482 0
vt 0.339655 0.839973 0
vt 0.339655 0.811691 0
vt 0.721305 0.551241 0
vt 0.749587 0.551241 0
vt 0.750423 0.583933 0
vt 0.722241 0.586308 0
vt 0.75286 0.621805 0
vt 0.724876 0.625901 0
vt 0.758321 0.665265 0
vt 0.73064 0.671064 0
vt 0.764823 0.703495 0
vt 0.737622 0.711244 0
vt 0.772986 0.735214 0
vt 0.744965 0.73905 0
vt 0.392054 0.838221 0
vt 0.392054 0.8102 0
vt 0.402929 0.811538 0
vt 0.402929 0.8421 0
vt 0.810622 0.73905 0
vt 0.78006 0.735214 0
vt 0.788223 0.703495 0
vt 0.819935 0.711244 0
vt 0.794725 0.665265 0
vt 0.826918 0.671064 0
vt 0.800186 0.621805 0
vt 0.832681 0.625901 0
vt 0.802623 0.583933 0
vt 0.835317 0.586308 0
vt 0.803459 0.551241 0
vt 0.836252 0.551241 0
vt 0.41941 0.8102 0
vt 0.41941 0.842993 0
vt 0.408534 0.844332 0
vt 0.408534 0.81605 0
vt 0.842376 0.551241 0
vt 0.870659 0.551241 0
vt 0.879521 0.583933 0
vt 0.851338 0.586308 0
vt 0.881958 0.621805 0
vt 0.853974 0.625901 0
vt 0.887419 0.665265 0
vt 0.859737 0.671064 0
vt 0.89392 0.703495 0
vt 0.86672 0.711244 0
vt 0.902084 0.735214 0
vt 0.874062 0.73905 0
vt 0.236344 0.829286 0
vt 0.236344 0.801264 0
vt 0.247164 0.801264 0
vt 0.247164 0.829286 0
vt 0.880042 0.930505 0
vt 0.852021 0.926669 0
vt 0.860184 0.89495 0
vt 0.887385 0.902698 0
vt 0.866686 0.85672 0
vt 0.894368 0.862518 0
vt 0.872147 0.813259 0
vt 0.900131 0.817356 0
vt 0.874584 0.775387 0
vt 0.902767 0.777763 0
vt 0.883446 0.742696 0
vt 0.911729 0.742696 0
vt 0.280588 0.801264 0
vt 0.280588 0.829547 0
vt 0.269768 0.829547 0
vt 0.269768 0.801264 0
vt 0.786709 0.742696 0
vt 0.814991 0.742696 0
vt 0.823853 0.775387 0
vt 0.795671 0.777763 0
vt 0.826291 0.813259 0
vt 0.798307 0.817356 0
vt 0.831751 0.85672 0
vt 0.80407 0.862518 0
vt 0.838253 0.89495 0
vt 0.811053 0.902698 0
vt 0.846416 0.926669 0
vt 0.818395 0.930505 0
vt 0.219345 0.829286 0
vt 0.219345 0.801264 0
vt 0.230739 0.801264 0
vt 0.230739 0.829286 0
vt 0.749418 0.930505 0
vt 0.721396 0.926669 0
vt 0.72956 0.89495 0
vt 0.75676 0.902698 0
vt 0.736061 0.85672 0
vt 0.763743 0.862518 0
vt 0.741522 0.813259 0
vt 0.769506 0.817356 0
vt 0.743959 0.775387 0
vt 0.772142 0.777763 0
vt 0.752821 0.742696 0
vt 0.781104 0.742696 0
vt 0.264163 0.801264 0
vt 0.264163 0.829547 0
vt 0.252769 0.829547 0
vt 0.252769 0.801264 0
vt 0.660403 0.746532 0
vt 0.688685 0.746532 0
vt 0.693228 0.779223 0
vt 0.665046 0.781599 0
vt 0.695666 0.817095 0
vt 0.667682 0.821192 0
vt 0.701127 0.860556 0
vt 0.673445 0.866355 0
vt 0.707628 0.898786 0
vt 0.680428 0.906534 0
vt 0.715791 0.930505 0
vt 0.68777 0.934341 0
vt 0.357982 0.840628 0
vt 0.357982 0.812607 0
vt 0.369413 0.8102 0
vt 0.369413 0.838221 0
vt 0.62743 0.934341 0
vt 0.599409 0.930505 0
vt 0.607572 0.898786 0
vt 0.634772 0.906534 0
vt 0.614074 0.860556 0
vt 0.641755 0.866355 0
vt 0.619534 0.817095 0
vt 0.647519 0.821192 0
vt 0.621972 0.779223 0
vt 0.650154 0.781599 0
vt 0.626515 0.746532 0
vt 0.654798 0.746532 0
vt 0.386449 0.812607 0
vt 0.386449 0.840889 0
vt 0.375018 0.838482 0
vt 0.375018 0.8102 0
vt 0.542123 0.8102 0
vt 0.570405 0.8102 0
vt 0.571241 0.842891 0
vt 0.543058 0.845266 0
vt 0.573678 0.880763 0
vt 0.545694 0.884859 0
vt 0.579139 0.924223 0
vt 0.551457 0.930022 0
vt 0.585641 0.962453 0
vt 0.55844 0.970202 0
vt 0.593804 0.994172 0
vt 0.565783 0.998008 0
vt 0.286192 0.830692 0
vt 0.286193 0.802671 0
vt 0.298155 0.801264 0
vt 0.298155 0.829286 0
vt 0.512857 0.998008 0
vt 0.484836 0.994172 0
vt 0.492999 0.962453 0
vt 0.5202 0.970202 0
vt 0.499501 0.924223 0
vt 0.527183 0.930022 0
vt 0.504962 0.880763 0
vt 0.532946 0.884859 0
vt 0.507399 0.842891 0
vt 0.535582 0.845266 0
vt 0.508235 0.8102 0
vt 0.536518 0.8102 0
vt 0.33405 0.802671 0
vt 0.33405 0.830953 0
vt 0.322087 0.829547 0
vt 0.322087 0.801264 0

# 376 vertex normals
vn 0 0 1
vn 0.024492 0.990411 -0.135966
vn 0.0229903 0.990554 -0.135184
vn 0.023353 0.990519 -0.135373
vn 0.024492 0.990411 -0.135966
vn 0 0 -1
vn 0.0418269 -0.0519376 -0.997774
vn 0.0484431 -0.0369681 -0.998142
vn 0 -1 0
vn 1 -3.57979e-07 0
vn 1 -8.83081e-08 0
vn 1 0 0
vn -1 8.77333e-08 0
vn -1 0 0
vn -1 2.2587e-08 0
vn 0 0.998527 0.0542644
vn 0 0.998527 0.0542645
vn -0.124587 0.217157 0.968153
vn -0.160617 0.266296 0.950415
vn -0.17961 0.252583 0.950759
vn -0.125225 0.218918 0.967674
vn 1 -4.01955e-07 0
vn 1 -6.20579e-07 0
vn 1 -5.99897e-07 0
vn 1 -2.9864e-07 0
vn 0.195927 -0.211773 -0.957478
vn 0.196418 -0.20013 -0.959879
vn 0.19633 -0.202251 -0.959452
vn 0.18272 -0.204647 -0.96163
vn -1 -8.52956e-08 0
vn -1 -1.22119e-07 0
vn -1 -1.26865e-07 0
vn -1 -9.53077e-08 0
vn -0.0840426 -0.00318069 0.996457
vn -0.119298 0.0159987 0.992729
vn -0.127056 0.00800208 0.991863
vn -0.0547597 -0.0377354 0.997786
vn 1 -6.36484e-07 0
vn 1 -6.36988e-07 0
vn 0.153222 -0.0502424 -0.986914
vn 0.135117 -0.074067 -0.988057
vn -1 -9.18956e-10 0
vn -1 -1.07819e-08 0
vn 0.000994988 -0.0810916 -0.996706
vn -1.34123e-08 -0.0806774 -0.99674
vn 0.0101834 -0.133879 -0.990945
vn 0.00919661 -0.1318 -0.991234
vn 0.0984398 -0.20473 -0.973856
vn 0.101589 -0.212785 -0.971804
vn 0.106454 -0.212641 -0.971314
vn 0.0984624 -0.203652 -0.97408
vn 0.0160339 0.990861 -0.133933
vn 0.0142871 0.99089 -0.133914
vn 0.0142715 0.99089 -0.133913
vn 0.0164937 0.990852 -0.133939
vn -0.0984422 0.204625 0.973878
vn -0.129893 0.213376 0.968297
vn -0.101915 0.20658 0.973107
vn -0.0984187 0.205736 0.973646
vn -0.044004 0.116446 0.992222
vn -0.0105219 0.131264 0.991292
vn -0.00207386 0.169047 0.985606
vn -0.0649069 0.145211 0.987269
vn 0 0.998527 0.0542645
vn 0 -1 -4.63212e-09
vn 0 -1 -2.5896e-14
vn 0 -1 3.65549e-08
vn -1.15299e-07 -0.0818547 -0.996644
vn 0.0102271 -0.183561 -0.982955
vn 0.0120565 0.990813 -0.134702
vn 0.0122331 0.990818 -0.134645
vn -0.0106528 0.179422 0.983714
vn 1.33505e-09 0.170602 0.98534
vn 0 0.998527 0.0542645
vn 0 -1 -4.86404e-09
vn 0 -1 3.27621e-16
vn 0 -1 3.8385e-08
vn -0.00927662 -0.0785669 -0.996866
vn -0.000532139 -0.179971 -0.983672
vn 0.101273 -0.204687 -0.973574
vn 0.0822839 -0.205795 -0.97513
vn 0.096721 -0.208637 -0.973199
vn 0.101297 -0.203578 -0.973804
vn 0.00954899 0.990772 -0.135203
vn 0.00971054 0.990773 -0.135184
vn -0.101276 0.20455 0.973603
vn -0.100173 0.205224 0.973575
vn -0.0832808 0.204211 0.975378
vn -0.101252 0.205693 0.973364
vn -0.000225342 0.175889 0.98441
vn 0.0193488 0.163871 0.986292
vn 0 0.998527 0.0542645
vn 0 -0.0703076 -0.997525
vn 0 -0.198372 -0.980127
vn 0.00161416 0.990759 -0.135627
vn 0.00168153 0.990759 -0.135626
vn 0 0.193695 0.981062
vn 0 0.146971 0.989141
vn 0 -0.0703076 -0.997525
vn 0 -0.197964 -0.980209
vn 0 -0.205189 -0.978722
vn 0 -0.209494 -0.97781
vn 0.00347926 -0.208651 -0.977984
vn 0 0.990759 -0.135633
vn 0 0.206182 0.978514
vn -0.00373924 0.208805 0.97795
vn 0 0.209714 0.977763
vn 0 0.193336 0.981133
vn 0 0.146971 0.989141
vn 0 0.998527 0.0542645
vn 0.0134501 -0.0839162 -0.996382
vn 0.0192367 -0.186206 -0.982322
vn -0.00606351 0.990741 -0.135631
vn -0.00619231 0.99074 -0.135631
vn -0.0189 0.181911 0.983133
vn -0.0280082 0.174745 0.984215
vn -2.77599e-08 -0.0889332 -0.996038
vn 0.00379433 -0.192072 -0.981374
vn -0.060437 -0.204482 -0.977003
vn -0.0757606 -0.211958 -0.974338
vn -0.0507866 -0.209282 -0.976536
vn -0.0604284 -0.205146 -0.976864
vn -0.00964365 0.990695 -0.135763
vn -0.00984451 0.99069 -0.135784
vn 0.0604152 0.206147 0.976654
vn 0.0502777 0.209506 0.976514
vn 0.0749096 0.212905 0.974197
vn 0.0604241 0.205463 0.976798
vn -0.00392503 0.187509 0.982255
vn 2.51043e-09 0.184979 0.982742
vn 0 0.998527 0.0542645
vn -0.0140216 -0.0755528 -0.997043
vn -0.0442291 -0.125031 -0.991166
vn -0.0171641 0.990418 -0.137029
vn -0.0174942 0.990402 -0.137106
vn 0.044817 0.122514 0.991454
vn 0.0292632 0.157679 0.987057
vn 0 0.998527 0.0542645
vn -0.00809123 -0.0671325 -0.997711
vn -0.0369008 -0.115185 -0.992658
vn -0.123476 -0.202944 -0.971374
vn -0.132925 -0.219192 -0.966585
vn -0.131249 -0.221265 -0.966341
vn -0.12344 -0.204292 -0.971096
vn -0.022065 0.990268 -0.137411
vn -0.0232833 0.990241 -0.137404
vn 0.123413 0.2053 0.970887
vn 0.127611 0.227582 0.965361
vn 0.13341 0.226426 0.964849
vn 0.12345 0.20391 0.971175
vn 0.0377096 0.112967 0.992883
vn 0.0169245 0.140422 0.989947
vn 0 0.998527 0.0542645
vn -0.0549272 -0.0199941 -0.99829
vn -0.186174 -0.0351418 -0.981888
vn -0.0351851 0.990001 -0.1366
vn -0.0360311 0.989997 -0.136413
vn 0.189088 0.0353008 0.981325
vn 0.115118 0.0419041 0.992468
vn -0.0697577 0.00164667 -0.997563
vn -0.218947 -0.0114064 -0.97567
vn -0.277332 -0.19567 -0.940638
vn -0.271955 -0.204916 -0.940239
vn -0.248742 -0.198196 -0.948075
vn -0.277165 -0.198608 -0.940072
vn -0.0376948 0.989985 -0.136045
vn -0.0376948 0.989985 -0.136045
vn 0.273757 0.20682 0.939299
vn 0.27728 0.196586 0.940462
vn 0.277107 0.199615 0.939875
vn 0.251773 0.201536 0.946569
vn 0.14584 -0.0034427 0.989302
vn 0.221327 0.0124818 0.97512
vn -0.268863 -0.168372 -0.948348
vn -0.230903 -0.173708 -0.957345
vn -0.139833 -0.1998 -0.969808
vn -0.137656 -0.203491 -0.969352
vn -0.0860249 -0.18555 -0.978862
vn -0.0443112 -0.181659 -0.982363
vn 0 -0.181837 -0.983329
vn 0.00589241 -0.17999 -0.983651
vn 0.0697438 -0.177061 -0.981726
vn 0.0941116 -0.181952 -0.978793
vn 0.104086 -0.191103 -0.976036
vn 0.112062 -0.188888 -0.975584
vn 0.174299 -0.180286 -0.968048
vn 0.197263 -0.178264 -0.964007
vn 1 3.30373e-07 0
vn -0.171307 0.25062 0.952808
vn -0.198005 0.23467 0.951695
vn -0.146025 0.189063 0.971047
vn -0.104489 0.180843 0.977946
vn -0.0998899 0.176191 0.979275
vn -0.0728607 0.17443 0.98197
vn -0.00601354 0.179953 0.983657
vn 0 0.181838 0.983329
vn 0.0443112 0.181659 0.982363
vn 0.0834662 0.186458 0.978911
vn 0.131182 0.21205 0.968414
vn 0.139476 0.210262 0.967645
vn 0.237694 0.179056 0.954694
vn 0.273023 0.171094 0.94667
vn 0.279964 0.141233 0.949565
vn 0.279918 0.142381 0.949407
vn 0.124733 0.146824 0.981267
vn 0.124743 0.146296 0.981344
vn 0.0610654 0.147569 0.987165
vn 0.0610678 0.147308 0.987204
vn 0 0.147714 0.98903
vn -0.102344 0.146721 0.983869
vn -0.102337 0.147156 0.983805
vn -0.099481 0.14677 0.984155
vn -0.0994747 0.147193 0.984093
vn -0.107927 0.146622 0.983287
vn -0.10792 0.14708 0.98322
vn 1 5.54612e-08 0
vn 1 7.20914e-08 0
vn 0.198453 -0.141615 -0.969826
vn 0.19843 -0.142399 -0.969715
vn 0.0995166 -0.144369 -0.984507
vn 0.0995224 -0.14397 -0.984565
vn 0.10238 -0.144333 -0.984219
vn 0.102386 -0.143923 -0.984278
vn 0 -0.144889 -0.989448
vn -0.0610938 -0.144496 -0.987618
vn -0.0610916 -0.144742 -0.987582
vn -0.124794 -0.143507 -0.98175
vn -0.124785 -0.144006 -0.981678
vn -0.280072 -0.138548 -0.949929
vn -0.280028 -0.139633 -0.949782
vn -1 -6.91114e-08 0
vn -1 -6.94131e-08 0
vn 0.281543 0.0941229 0.954921
vn 0.281517 0.0951224 0.95483
vn 0.125492 0.0980646 0.987236
vn 0.125497 0.0976042 0.987281
vn 0.0614408 0.0985416 0.993234
vn 0.0614422 0.0983148 0.993257
vn 0 0.0986148 0.995126
vn -0.102967 0.0979008 0.989855
vn -0.102963 0.0982795 0.989818
vn -0.100087 0.097935 0.990147
vn -0.100083 0.0983032 0.990111
vn -0.108583 0.0978315 0.989262
vn -0.108579 0.0982307 0.989223
vn 1 3.22455e-07 0
vn 1 3.20442e-07 0
vn 0.199579 -0.0943543 -0.975328
vn 0.199565 -0.095065 -0.975262
vn 0.100102 -0.0963508 -0.990301
vn 0.100106 -0.0959889 -0.990336
vn 0.102982 -0.0963273 -0.990008
vn 0.102986 -0.0959551 -0.990044
vn 0 -0.0966557 -0.995318
vn -0.0614543 -0.0963614 -0.993447
vn -0.0614529 -0.0965843 -0.993426
vn -0.125521 -0.0956643 -0.987468
vn -0.125516 -0.0961168 -0.987425
vn -0.281593 -0.0922505 -0.955089
vn -0.281567 -0.0932327 -0.955001
vn -1 -1.06366e-07 0
vn -1 -1.03687e-07 0
vn 0.282504 0.0456776 0.958178
vn 0.2825 0.045996 0.958164
vn 0.0968011 0.0720856 0.99269
vn 0.0964364 0.0721629 0.99272
vn 0.0290109 0.124985 0.991734
vn 0.0286611 0.125611 0.991665
vn 0 0.153501 0.988148
vn -0.065783 0.125552 0.989904
vn -0.0664509 0.124501 0.989992
vn -0.0635115 0.0723496 0.995355
vn -0.0638761 0.0722882 0.995336
vn -0.108984 0.0474354 0.992911
vn -0.108983 0.0475627 0.992905
vn 1 -1.02512e-07 0
vn 1 -1.19062e-07 0
vn 0.200268 -0.0452924 -0.978694
vn 0.200266 -0.0455083 -0.978684
vn 0.0643823 -0.0722617 -0.995306
vn 0.0640172 -0.0723459 -0.995323
vn 0.0669411 -0.127436 -0.989585
vn 0.0662524 -0.128629 -0.989477
vn 0 -0.15812 -0.98742
vn 0 -0.15812 -0.98742
vn -0.0290901 -0.128675 -0.99126
vn -0.0294504 -0.127965 -0.991341
vn -0.0968409 -0.0721602 -0.992681
vn -0.0972063 -0.0720545 -0.992653
vn -0.282521 -0.044302 -0.958238
vn -0.282517 -0.0446003 -0.958225
vn -1 -1.66151e-07 0
vn -1 -1.6536e-07 0
vn 1 6.86221e-07 1.12472e-05
vn 1 6.86221e-07 1.12472e-05
vn 1 6.02316e-07 1.06068e-05
vn 1 6.02317e-07 1.06068e-05
vn 1 1.04688e-06 9.97432e-06
vn 1 1.76577e-06 9.19592e-06
vn 1 1.76577e-06 9.19592e-06
vn 1 6.09323e-06 3.43486e-06
vn -0.0158938 -0.990634 0.135617
vn -0.0158938 -0.990634 0.135617
vn -1 -7.61654e-07 0
vn -1 -7.61654e-07 0
vn -1 -5.88591e-07 -5.13049e-07
vn -1 5.23439e-07 -1.24679e-06
vn -1 -6.02316e-07 -1.25403e-06
vn -1 -6.86221e-07 -1.24969e-06
vn -1 -6.86221e-07 -1.24969e-06
vn 0 1 1.44522e-07
vn 0 1 1.44522e-07
vn 0 1 1.44522e-07
vn 1 0 1.25544e-06
vn 1 0 1.25544e-06
vn 1 1.20463e-06 1.25403e-06
vn 1 1.20463e-06 1.25403e-06
vn 1 -1.04688e-06 1.24679e-06
vn 1 1.17718e-06 5.13049e-07
vn 1 -1.52331e-06 0
vn 1 -1.52331e-06 0
vn -0.0311383 -0.991052 0.129791
vn -0.0311383 -0.991052 0.129791
vn -0.0311383 -0.991052 0.129791
vn -0.0311383 -0.991052 0.129791
vn -1 -1.03899e-06 0
vn -1 -1.03899e-06 0
vn 0 1 0
vn 1 5.88591e-07 0
vn 0 -0.990759 0.135634
vn -1 6.82581e-07 0
vn 1 6.82581e-07 6.2153e-07
vn 1 6.82581e-07 6.2153e-07
vn 1 6.82581e-07 6.2153e-07
vn 1 0 2.87315e-07
vn 1 -5.23439e-07 0
vn 1 -5.23439e-07 0
vn 0 -0.990759 0.135634
vn -1 -6.82581e-07 0
vn 0.0285508 -0.990355 0.135579
vn 0.0285508 -0.990355 0.135579
vn 0.0285508 -0.990355 0.135579
vn 0.0285508 -0.990355 0.135579
vn -1 -7.61654e-07 -1.21853e-06
vn -1 -7.61654e-07 -1.21853e-06
vn -1 0 -1.24041e-06
vn -1 0 -1.24041e-06
vn -1 0 -1.52369e-06
vn -1 -6.02316e-07 -1.88104e-06
vn -1 -6.02316e-07 -1.88104e-06
vn -1 0 -1.87453e-06
vn 0 1 -1.39517e-08
vn 0 1 -1.39517e-08
vn 0 1 -1.39517e-08
vn 1 0 6.27718e-07
vn 1 0 6.27718e-07
vn 1 0 6.27014e-07
vn 1 0 6.23395e-07
vn 1 0 3.6368e-07
vn 1 0 3.6368e-07
vn 1 0 2.45346e-07
vn 1 0 2.45346e-07
vn 0.0159433 -0.990633 0.135617
vn 0.0159433 -0.990633 0.135617
vn 0.0159433 -0.990633 0.135617
vn -1 -7.61654e-07 -1.21853e-06
vn -1 -7.61654e-07 -1.21853e-06
vn -1 0 -1.24041e-06
vn -1 0 -1.24041e-06
vn -1 0 -1.24679e-06
vn -1 0 -1.24679e-06
vn -1 -6.02316e-07 -1.25403e-06
vn -1 0 -1.86115e-06
vn 0 1 -5.8423e-08
vn 0 1 -5.8423e-08
vn 0 1 -5.8423e-08

# Mesh 'polySurface5_polySurface5' with 580 faces
g polySurface5_polySurface5
usemtl Chair
f 1/1/1 2/2/1 3/3/1
f 3/3/1 4/4/1 1/1/1
f 5/5/2 6/6/3 7/7/4
f 7/7/4 8/8/5 5/5/2
f 9/9/6 10/10/6 11/11/7
f 11/11/7 12/12/8 9/9/6
f 13/13/9 14/14/9 10/15/9
f 10/15/9 9/16/9 13/13/9
f 12/17/10 15/18/11 13/19/12
f 13/19/12 9/20/12 12/17/10
f 16/21/13 17/22/14 18/23/14
f 18/23/14 19/24/15 16/21/13
f 15/25/16 20/26/17 2/27/17
f 2/27/17 1/28/16 15/25/16
f 1/29/12 4/30/12 13/19/12
f 13/19/12 15/18/11 1/29/12
f 4/31/9 3/32/9 14/14/9
f 14/14/9 13/13/9 4/31/9
f 21/33/14 19/24/15 18/23/14
f 18/23/14 22/34/14 21/33/14
f 23/35/18 24/36/19 25/37/20
f 25/37/20 26/38/21 23/35/18
f 24/39/22 23/40/23 27/41/24
f 27/41/24 28/42/25 24/39/22
f 28/43/26 27/44/27 29/45/28
f 29/45/28 30/46/29 28/43/26
f 31/47/30 32/48/31 33/49/32
f 33/49/32 34/50/33 31/47/30
f 35/51/34 36/52/35 20/53/36
f 20/53/36 15/54/37 35/51/34
f 35/55/38 15/18/11 12/17/10
f 12/17/10 37/56/39 35/55/38
f 37/57/40 12/12/8 11/11/7
f 11/11/7 38/58/41 37/57/40
f 39/59/42 16/21/13 19/24/15
f 19/24/15 40/60/43 39/59/42
f 41/61/9 42/62/9 43/63/9
f 43/63/9 44/64/9 41/61/9
f 44/64/9 43/63/9 45/65/9
f 45/65/9 46/66/9 44/64/9
f 46/67/6 45/68/6 47/69/44
f 47/69/44 48/70/45 46/67/6
f 49/71/46 50/72/47 48/70/45
f 48/70/45 47/69/44 49/71/46
f 51/73/48 52/74/49 53/75/50
f 53/75/50 54/76/51 51/73/48
f 55/77/52 56/78/53 57/79/54
f 57/79/54 58/80/55 55/77/52
f 59/81/56 60/82/57 61/83/58
f 61/83/58 62/84/59 59/81/56
f 63/85/60 64/86/61 65/87/62
f 65/87/62 66/88/63 63/85/60
f 66/89/17 65/90/64 67/91/64
f 67/91/64 68/92/17 66/89/17
f 68/93/1 67/94/1 42/95/1
f 42/95/1 41/96/1 68/93/1
f 3/32/9 41/61/9 44/64/9
f 44/64/9 14/14/9 3/32/9
f 2/2/1 68/93/1 41/96/1
f 41/96/1 3/3/1 2/2/1
f 20/26/17 66/89/17 68/92/17
f 68/92/17 2/27/17 20/26/17
f 36/52/35 63/85/60 66/88/63
f 66/88/63 20/53/36 36/52/35
f 6/6/3 55/77/52 58/80/55
f 58/80/55 7/7/4 6/6/3
f 50/72/47 38/58/41 11/11/7
f 11/11/7 48/70/45 50/72/47
f 10/10/6 46/67/6 48/70/45
f 48/70/45 11/11/7 10/10/6
f 14/14/9 44/64/9 46/66/9
f 46/66/9 10/15/9 14/14/9
f 42/62/9 69/97/65 70/98/66
f 70/98/66 43/63/9 42/62/9
f 43/63/9 70/98/66 71/99/67
f 71/99/67 45/65/9 43/63/9
f 45/68/6 71/100/6 72/101/68
f 72/101/68 47/69/44 45/68/6
f 73/102/69 49/71/46 47/69/44
f 47/69/44 72/101/68 73/102/69
f 56/78/53 74/103/70 75/104/71
f 75/104/71 57/79/54 56/78/53
f 64/86/61 76/105/72 77/106/73
f 77/106/73 65/87/62 64/86/61
f 65/90/64 77/107/74 78/108/74
f 78/108/74 67/91/64 65/90/64
f 67/94/1 78/109/1 69/110/1
f 69/110/1 42/95/1 67/94/1
f 69/97/65 79/111/75 80/112/76
f 80/112/76 70/98/66 69/97/65
f 70/98/66 80/112/76 81/113/77
f 81/113/77 71/99/67 70/98/66
f 71/100/6 81/114/6 82/115/78
f 82/115/78 72/101/68 71/100/6
f 83/116/79 73/102/69 72/101/68
f 72/101/68 82/115/78 83/116/79
f 84/117/80 85/118/81 86/119/82
f 86/119/82 87/120/83 84/117/80
f 74/103/70 88/121/84 89/122/85
f 89/122/85 75/104/71 74/103/70
f 90/123/86 91/124/87 92/125/88
f 92/125/88 93/126/89 90/123/86
f 76/105/72 94/127/90 95/128/91
f 95/128/91 77/106/73 76/105/72
f 77/107/74 95/129/92 96/130/92
f 96/130/92 78/108/74 77/107/74
f 78/109/1 96/131/1 79/132/1
f 79/132/1 69/110/1 78/109/1
f 79/111/75 97/133/9 98/134/9
f 98/134/9 80/112/76 79/111/75
f 80/112/76 98/134/9 99/135/9
f 99/135/9 81/113/77 80/112/76
f 81/114/6 99/136/6 100/137/93
f 100/137/93 82/115/78 81/114/6
f 101/138/94 83/116/79 82/115/78
f 82/115/78 100/137/93 101/138/94
f 88/121/84 102/139/95 103/140/96
f 103/140/96 89/122/85 88/121/84
f 94/127/90 104/141/97 105/142/98
f 105/142/98 95/128/91 94/127/90
f 95/129/92 105/143/92 106/144/92
f 106/144/92 96/130/92 95/129/92
f 96/131/1 106/145/1 97/146/1
f 97/146/1 79/132/1 96/131/1
f 97/133/9 107/147/9 108/148/9
f 108/148/9 98/134/9 97/133/9
f 98/134/9 108/148/9 109/149/9
f 109/149/9 99/135/9 98/134/9
f 99/136/6 109/150/6 110/151/99
f 110/151/99 100/137/93 99/136/6
f 111/152/100 101/138/94 100/137/93
f 100/137/93 110/151/99 111/152/100
f 112/153/101 113/154/102 114/155/103
f 114/155/103 115/156/101 112/153/101
f 102/139/95 116/157/104 117/158/104
f 117/158/104 103/140/96 102/139/95
f 118/159/105 119/160/106 120/161/107
f 120/161/107 121/162/105 118/159/105
f 104/141/97 122/163/108 123/164/109
f 123/164/109 105/142/98 104/141/97
f 105/143/92 123/165/110 124/166/110
f 124/166/110 106/144/92 105/143/92
f 106/145/1 124/167/1 107/168/1
f 107/168/1 97/146/1 106/145/1
f 107/147/9 125/169/9 126/170/9
f 126/170/9 108/148/9 107/147/9
f 108/148/9 126/170/9 127/171/9
f 127/171/9 109/149/9 108/148/9
f 109/150/6 127/172/6 128/173/111
f 128/173/111 110/151/99 109/150/6
f 129/174/112 111/152/100 110/151/99
f 110/151/99 128/173/111 129/174/112
f 116/157/104 130/175/113 131/176/114
f 131/176/114 117/158/104 116/157/104
f 122/163/108 132/177/115 133/178/116
f 133/178/116 123/164/109 122/163/108
f 123/165/110 133/179/74 134/180/74
f 134/180/74 124/166/110 123/165/110
f 124/167/1 134/181/1 125/182/1
f 125/182/1 107/168/1 124/167/1
f 125/169/9 135/183/9 136/184/9
f 136/184/9 126/170/9 125/169/9
f 126/170/9 136/184/9 137/185/9
f 137/185/9 127/171/9 126/170/9
f 127/172/6 137/186/6 138/187/117
f 138/187/117 128/173/111 127/172/6
f 139/188/118 129/174/112 128/173/111
f 128/173/111 138/187/117 139/188/118
f 140/189/119 141/190/120 142/191/121
f 142/191/121 143/192/122 140/189/119
f 130/175/113 144/193/123 145/194/124
f 145/194/124 131/176/114 130/175/113
f 146/195/125 147/196/126 148/197/127
f 148/197/127 149/198/128 146/195/125
f 132/177/115 150/199/129 151/200/130
f 151/200/130 133/178/116 132/177/115
f 133/179/74 151/201/131 152/202/131
f 152/202/131 134/180/74 133/179/74
f 134/181/1 152/203/1 135/204/1
f 135/204/1 125/182/1 134/181/1
f 135/183/9 153/205/9 154/206/9
f 154/206/9 136/184/9 135/183/9
f 136/184/9 154/206/9 155/207/9
f 155/207/9 137/185/9 136/184/9
f 137/186/6 155/208/6 156/209/132
f 156/209/132 138/187/117 137/186/6
f 157/210/133 139/188/118 138/187/117
f 138/187/117 156/209/132 157/210/133
f 144/193/123 158/211/134 159/212/135
f 159/212/135 145/194/124 144/193/123
f 150/199/129 160/213/136 161/214/137
f 161/214/137 151/200/130 150/199/129
f 151/201/131 161/215/138 162/216/138
f 162/216/138 152/202/131 151/201/131
f 152/203/1 162/217/1 153/218/1
f 153/218/1 135/204/1 152/203/1
f 153/205/9 163/219/9 164/220/9
f 164/220/9 154/206/9 153/205/9
f 154/206/9 164/220/9 165/221/9
f 165/221/9 155/207/9 154/206/9
f 155/208/6 165/222/6 166/223/139
f 166/223/139 156/209/132 155/208/6
f 167/224/140 157/210/133 156/209/132
f 156/209/132 166/223/139 167/224/140
f 168/225/141 169/226/142 170/227/143
f 170/227/143 171/228/144 168/225/141
f 158/211/134 172/229/145 173/230/146
f 173/230/146 159/212/135 158/211/134
f 174/231/147 175/232/148 176/233/149
f 176/233/149 177/234/150 174/231/147
f 160/213/136 178/235/151 179/236/152
f 179/236/152 161/214/137 160/213/136
f 161/215/138 179/237/153 180/238/153
f 180/238/153 162/216/138 161/215/138
f 162/217/1 180/239/1 163/240/1
f 163/240/1 153/218/1 162/217/1
f 163/219/9 181/241/9 182/242/9
f 182/242/9 164/220/9 163/219/9
f 164/220/9 182/242/9 183/243/9
f 183/243/9 165/221/9 164/220/9
f 165/222/6 183/244/6 184/245/154
f 184/245/154 166/223/139 165/222/6
f 185/246/155 167/224/140 166/223/139
f 166/223/139 184/245/154 185/246/155
f 172/229/145 186/247/156 187/248/157
f 187/248/157 173/230/146 172/229/145
f 178/235/151 188/249/158 189/250/159
f 189/250/159 179/236/152 178/235/151
f 179/237/153 189/251/153 190/252/153
f 190/252/153 180/238/153 179/237/153
f 180/239/1 190/253/1 181/254/1
f 181/254/1 163/240/1 180/239/1
f 22/255/9 18/256/9 182/242/9
f 182/242/9 181/241/9 22/255/9
f 17/257/9 183/243/9 182/242/9
f 182/242/9 18/256/9 17/257/9
f 16/258/160 184/245/154 183/244/6
f 183/244/6 17/259/6 16/258/160
f 16/258/160 39/260/161 185/246/155
f 185/246/155 184/245/154 16/258/160
f 32/261/162 31/262/163 191/263/164
f 191/263/164 192/264/165 32/261/162
f 193/265/166 187/248/157 186/247/156
f 186/247/156 194/266/167 193/265/166
f 34/267/168 33/268/169 195/269/170
f 195/269/170 196/270/171 34/267/168
f 19/271/172 189/250/159 188/249/158
f 188/249/158 40/272/173 19/271/172
f 21/273/110 190/252/153 189/251/153
f 189/251/153 19/274/110 21/273/110
f 21/275/1 22/276/1 181/254/1
f 181/254/1 190/253/1 21/275/1
f 194/277/14 31/47/30 34/50/33
f 34/50/33 193/278/14 194/277/14
f 194/279/174 186/280/175 191/263/164
f 191/263/164 31/262/163 194/279/174
f 186/280/175 172/281/176 169/226/142
f 169/226/142 191/263/164 186/280/175
f 172/281/176 158/282/177 170/227/143
f 170/227/143 169/226/142 172/281/176
f 158/282/177 144/283/178 141/190/120
f 141/190/120 170/227/143 158/282/177
f 144/283/178 130/284/179 142/191/121
f 142/191/121 141/190/120 144/283/178
f 130/284/179 116/285/180 113/154/102
f 113/154/102 142/191/121 130/284/179
f 116/285/180 102/286/181 114/155/103
f 114/155/103 113/154/102 116/285/180
f 102/286/181 88/287/182 85/118/81
f 85/118/81 114/155/103 102/286/181
f 88/287/182 74/288/183 86/119/82
f 86/119/82 85/118/81 88/287/182
f 74/288/183 56/289/184 52/74/49
f 52/74/49 86/119/82 74/288/183
f 56/289/184 55/290/185 53/75/50
f 53/75/50 52/74/49 56/289/184
f 55/290/185 6/291/186 30/46/29
f 30/46/29 53/75/50 55/290/185
f 5/292/187 28/43/26 30/46/29
f 30/46/29 6/291/186 5/292/187
f 8/293/188 24/39/22 28/42/25
f 28/42/25 5/294/188 8/293/188
f 8/295/189 7/296/190 25/37/20
f 25/37/20 24/36/19 8/295/189
f 7/296/190 58/297/191 60/82/57
f 60/82/57 25/37/20 7/296/190
f 58/297/191 57/298/192 61/83/58
f 61/83/58 60/82/57 58/297/191
f 57/298/192 75/299/193 91/124/87
f 91/124/87 61/83/58 57/298/192
f 75/299/193 89/300/194 92/125/88
f 92/125/88 91/124/87 75/299/193
f 89/300/194 103/301/195 119/160/106
f 119/160/106 92/125/88 89/300/194
f 103/301/195 117/302/196 120/161/107
f 120/161/107 119/160/106 103/301/195
f 117/302/196 131/303/197 147/196/126
f 147/196/126 120/161/107 117/302/196
f 131/303/197 145/304/198 148/197/127
f 148/197/127 147/196/126 131/303/197
f 145/304/198 159/305/199 175/232/148
f 175/232/148 148/197/127 145/304/198
f 159/305/199 173/306/200 176/233/149
f 176/233/149 175/232/148 159/305/199
f 173/306/200 187/307/201 196/270/171
f 196/270/171 176/233/149 173/306/200
f 193/308/202 34/267/168 196/270/171
f 196/270/171 187/307/201 193/308/202
f 33/268/169 197/309/203 198/310/204
f 198/310/204 195/269/170 33/268/169
f 199/311/205 174/231/147 177/234/150
f 177/234/150 200/312/206 199/311/205
f 201/313/207 146/195/125 149/198/128
f 149/198/128 202/314/208 201/313/207
f 203/315/209 118/159/105 121/162/105
f 121/162/105 204/316/209 203/315/209
f 205/317/210 90/123/86 93/126/89
f 93/126/89 206/318/211 205/317/210
f 207/319/212 59/81/56 62/84/59
f 62/84/59 208/320/213 207/319/212
f 209/321/214 23/35/18 26/38/21
f 26/38/21 210/322/215 209/321/214
f 23/40/23 209/323/216 211/324/217
f 211/324/217 27/41/24 23/40/23
f 27/44/27 211/325/218 212/326/219
f 212/326/219 29/45/28 27/44/27
f 213/327/220 51/73/48 54/76/51
f 54/76/51 214/328/221 213/327/220
f 215/329/222 84/117/80 87/120/83
f 87/120/83 216/330/223 215/329/222
f 217/331/224 112/153/101 115/156/101
f 115/156/101 218/332/224 217/331/224
f 219/333/225 140/189/119 143/192/122
f 143/192/122 220/334/226 219/333/225
f 221/335/227 168/225/141 171/228/144
f 171/228/144 222/336/228 221/335/227
f 223/337/229 32/261/162 192/264/165
f 192/264/165 224/338/230 223/337/229
f 32/48/31 223/339/231 197/340/232
f 197/340/232 33/49/32 32/48/31
f 197/309/203 225/341/233 226/342/234
f 226/342/234 198/310/204 197/309/203
f 227/343/235 199/311/205 200/312/206
f 200/312/206 228/344/236 227/343/235
f 229/345/237 201/313/207 202/314/208
f 202/314/208 230/346/238 229/345/237
f 231/347/239 203/315/209 204/316/209
f 204/316/209 232/348/239 231/347/239
f 233/349/240 205/317/210 206/318/211
f 206/318/211 234/350/241 233/349/240
f 235/351/242 207/319/212 208/320/213
f 208/320/213 236/352/243 235/351/242
f 237/353/244 209/321/214 210/322/215
f 210/322/215 238/354/245 237/353/244
f 209/323/216 237/355/246 239/356/247
f 239/356/247 211/324/217 209/323/216
f 211/325/218 239/357/248 240/358/249
f 240/358/249 212/326/219 211/325/218
f 241/359/250 213/327/220 214/328/221
f 214/328/221 242/360/251 241/359/250
f 243/361/252 215/329/222 216/330/223
f 216/330/223 244/362/253 243/361/252
f 245/363/254 217/331/224 218/332/224
f 218/332/224 246/364/254 245/363/254
f 247/365/255 219/333/225 220/334/226
f 220/334/226 248/366/256 247/365/255
f 249/367/257 221/335/227 222/336/228
f 222/336/228 250/368/258 249/367/257
f 251/369/259 223/337/229 224/338/230
f 224/338/230 252/370/260 251/369/259
f 223/339/231 251/371/261 225/372/262
f 225/372/262 197/340/232 223/339/231
f 225/341/233 253/373/263 254/374/264
f 254/374/264 226/342/234 225/341/233
f 255/375/265 227/343/235 228/344/236
f 228/344/236 256/376/266 255/375/265
f 257/377/267 229/345/237 230/346/238
f 230/346/238 258/378/268 257/377/267
f 259/379/269 231/347/239 232/348/239
f 232/348/239 260/380/269 259/379/269
f 261/381/270 233/349/240 234/350/241
f 234/350/241 262/382/271 261/381/270
f 263/383/272 235/351/242 236/352/243
f 236/352/243 264/384/273 263/383/272
f 265/385/274 237/353/244 238/354/245
f 238/354/245 266/386/275 265/385/274
f 237/355/246 265/387/276 267/388/277
f 267/388/277 239/356/247 237/355/246
f 239/357/248 267/389/278 268/390/279
f 268/390/279 240/358/249 239/357/248
f 269/391/280 241/359/250 242/360/251
f 242/360/251 270/392/281 269/391/280
f 271/393/282 243/361/252 244/362/253
f 244/362/253 272/394/283 271/393/282
f 273/395/284 245/363/254 246/364/254
f 246/364/254 274/396/285 273/395/284
f 275/397/286 247/365/255 248/366/256
f 248/366/256 276/398/287 275/397/286
f 277/399/288 249/367/257 250/368/258
f 250/368/258 278/400/289 277/399/288
f 279/401/290 251/369/259 252/370/260
f 252/370/260 280/402/291 279/401/290
f 251/371/261 279/403/292 253/404/293
f 253/404/293 225/372/262 251/371/261
f 40/272/173 188/249/158 254/374/264
f 254/374/264 253/373/263 40/272/173
f 160/213/136 255/375/265 256/376/266
f 256/376/266 178/235/151 160/213/136
f 132/177/115 257/377/267 258/378/268
f 258/378/268 150/199/129 132/177/115
f 104/141/97 259/379/269 260/380/269
f 260/380/269 122/163/108 104/141/97
f 76/105/72 261/381/270 262/382/271
f 262/382/271 94/127/90 76/105/72
f 63/85/60 263/383/272 264/384/273
f 264/384/273 64/86/61 63/85/60
f 35/51/34 265/385/274 266/386/275
f 266/386/275 36/52/35 35/51/34
f 265/387/276 35/55/38 37/56/39
f 37/56/39 267/388/277 265/387/276
f 267/389/278 37/57/40 38/58/41
f 38/58/41 268/390/279 267/389/278
f 49/71/46 269/391/280 270/392/281
f 270/392/281 50/72/47 49/71/46
f 83/116/79 271/393/282 272/394/283
f 272/394/283 73/102/69 83/116/79
f 111/152/100 273/395/284 274/396/285
f 274/396/285 101/138/94 111/152/100
f 139/188/118 275/397/286 276/398/287
f 276/398/287 129/174/112 139/188/118
f 167/224/140 277/399/288 278/400/289
f 278/400/289 157/210/133 167/224/140
f 39/260/161 279/401/290 280/402/291
f 280/402/291 185/246/155 39/260/161
f 279/403/292 39/59/42 40/60/43
f 40/60/43 253/404/293 279/403/292
f 76/405/294 73/406/295 272/407/295
f 272/407/295 261/408/295 76/405/294
f 261/408/295 272/407/295 244/409/296
f 244/409/296 233/410/297 261/408/295
f 233/410/297 244/409/296 216/411/298
f 216/411/298 205/412/298 233/410/297
f 205/412/298 216/411/298 87/413/299
f 87/413/299 90/414/300 205/412/298
f 90/414/300 87/413/299 86/415/301
f 86/415/301 91/416/301 90/414/300
f 91/417/302 86/418/303 52/419/303
f 52/419/303 61/420/302 91/417/302
f 61/421/304 52/422/304 51/423/305
f 51/423/305 62/424/304 61/421/304
f 62/424/304 51/423/305 213/425/306
f 213/425/306 208/426/306 62/424/304
f 208/426/306 213/425/306 241/427/307
f 241/427/307 236/428/307 208/426/306
f 236/428/307 241/427/307 269/429/308
f 269/429/308 264/430/308 236/428/307
f 264/430/308 269/429/308 49/431/309
f 49/431/309 64/432/310 264/430/308
f 64/433/311 49/434/312 73/435/311
f 73/435/311 76/436/313 64/433/311
f 63/437/314 50/438/314 270/439/315
f 270/439/315 263/440/314 63/437/314
f 263/440/314 270/439/315 242/441/316
f 242/441/316 235/442/317 263/440/314
f 235/442/317 242/441/316 214/443/318
f 214/443/318 207/444/318 235/442/317
f 207/444/318 214/443/318 54/445/319
f 54/445/319 59/446/319 207/444/318
f 59/446/319 54/445/319 53/447/320
f 53/447/320 60/448/321 59/446/319
f 60/449/322 53/450/323 30/451/324
f 30/451/324 25/452/325 60/449/322
f 25/453/14 30/454/14 29/455/14
f 29/455/14 26/456/14 25/453/14
f 26/456/14 29/455/14 212/457/14
f 212/457/14 210/458/14 26/456/14
f 210/458/14 212/457/14 240/459/14
f 240/459/14 238/460/14 210/458/14
f 238/460/14 240/459/14 268/461/326
f 268/461/326 266/462/327 238/460/14
f 266/462/327 268/461/326 38/463/14
f 38/463/14 36/464/14 266/462/327
f 36/465/328 38/466/328 50/467/328
f 50/467/328 63/468/328 36/465/328
f 104/469/12 101/470/12 274/471/12
f 274/471/12 259/472/12 104/469/12
f 259/472/12 274/471/12 246/473/12
f 246/473/12 231/474/12 259/472/12
f 231/474/12 246/473/12 218/475/12
f 218/475/12 203/476/12 231/474/12
f 203/476/12 218/475/12 115/477/329
f 115/477/329 118/478/329 203/476/12
f 118/478/329 115/477/329 114/479/12
f 114/479/12 119/480/12 118/478/329
f 119/481/330 114/482/330 85/483/330
f 85/483/330 92/484/330 119/481/330
f 92/485/14 85/486/14 84/487/14
f 84/487/14 93/488/14 92/485/14
f 93/488/14 84/487/14 215/489/14
f 215/489/14 206/490/14 93/488/14
f 206/490/14 215/489/14 243/491/14
f 243/491/14 234/492/14 206/490/14
f 234/492/14 243/491/14 271/493/14
f 271/493/14 262/494/14 234/492/14
f 262/494/14 271/493/14 83/495/331
f 83/495/331 94/496/331 262/494/14
f 94/497/328 83/498/328 101/499/328
f 101/499/328 104/500/328 94/497/328
f 132/501/332 129/502/332 276/503/333
f 276/503/333 257/504/334 132/501/332
f 257/504/334 276/503/333 248/505/335
f 248/505/335 229/506/335 257/504/334
f 229/506/335 248/505/335 220/507/336
f 220/507/336 201/508/337 229/506/335
f 201/508/337 220/507/336 143/509/12
f 143/509/12 146/510/12 201/508/337
f 146/510/12 143/509/12 142/511/12
f 142/511/12 147/512/12 146/510/12
f 147/513/338 142/514/338 113/515/338
f 113/515/338 120/516/338 147/513/338
f 120/517/14 113/518/14 112/519/14
f 112/519/14 121/520/14 120/517/14
f 121/520/14 112/519/14 217/521/14
f 217/521/14 204/522/14 121/520/14
f 204/522/14 217/521/14 245/523/14
f 245/523/14 232/524/14 204/522/14
f 232/524/14 245/523/14 273/525/14
f 273/525/14 260/526/14 232/524/14
f 260/526/14 273/525/14 111/527/339
f 111/527/339 122/528/339 260/526/14
f 122/529/328 111/530/328 129/531/328
f 129/531/328 132/532/328 122/529/328
f 160/533/12 157/534/12 278/535/12
f 278/535/12 255/536/12 160/533/12
f 255/536/12 278/535/12 250/537/12
f 250/537/12 227/538/12 255/536/12
f 227/538/12 250/537/12 222/539/12
f 222/539/12 199/540/12 227/538/12
f 199/540/12 222/539/12 171/541/12
f 171/541/12 174/542/12 199/540/12
f 174/542/12 171/541/12 170/543/12
f 170/543/12 175/544/12 174/542/12
f 175/545/340 170/546/341 141/547/342
f 141/547/342 148/548/343 175/545/340
f 148/549/344 141/550/345 140/551/345
f 140/551/345 149/552/345 148/549/344
f 149/552/345 140/551/345 219/553/346
f 219/553/346 202/554/347 149/552/345
f 202/554/347 219/553/346 247/555/348
f 247/555/348 230/556/348 202/554/347
f 230/556/348 247/555/348 275/557/349
f 275/557/349 258/558/350 230/556/348
f 258/558/350 275/557/349 139/559/351
f 139/559/351 150/560/351 258/558/350
f 150/561/352 139/562/353 157/563/354
f 157/563/354 160/564/353 150/561/352
f 188/565/355 185/566/356 280/567/355
f 280/567/355 254/568/355 188/565/355
f 254/568/355 280/567/355 252/569/357
f 252/569/357 226/570/357 254/568/355
f 226/570/357 252/569/357 224/571/358
f 224/571/358 198/572/358 226/570/357
f 198/572/358 224/571/358 192/573/359
f 192/573/359 195/574/360 198/572/358
f 195/574/360 192/573/359 191/575/361
f 191/575/361 196/576/362 195/574/360
f 196/577/363 191/578/364 169/579/363
f 169/579/363 176/580/365 196/577/363
f 176/581/366 169/582/367 168/583/367
f 168/583/367 177/584/366 176/581/366
f 177/584/366 168/583/367 221/585/368
f 221/585/368 200/586/369 177/584/366
f 200/586/369 221/585/368 249/587/370
f 249/587/370 228/588/371 200/586/369
f 228/588/371 249/587/370 277/589/372
f 277/589/372 256/590/372 228/588/371
f 256/590/372 277/589/372 167/591/373
f 167/591/373 178/592/373 256/590/372
f 178/593/374 167/594/375 185/595/374
f 185/595/374 188/596/376 178/593/374

