# File produced by Open Asset Import Library (http://www.assimp.sf.net)
# (assimp v3.1.206520482)

mtllib ChunkSmol.mtl

# 522 vertex positions
v 0.505149 1.68299 -8.74016
v 0.503574 1.67865 -8.74293
v 0.508072 1.67713 -8.74942
v 0.510154 1.68233 -8.74615
v 0.50876 1.67557 -8.75567
v 0.511485 1.68097 -8.75308
v 0.508618 1.68905 -8.74156
v 0.511288 1.68772 -8.7501
v 0.503459 1.69002 -8.73522
v 0.507344 1.67398 -8.76227
v 0.511482 1.67973 -8.76046
v 0.507236 1.67181 -8.76923
v 0.51238 1.67802 -8.76817
v 0.513967 1.68641 -8.75864
v 0.516871 1.68499 -8.76727
v 0.51185 1.66853 -8.77654
v 0.516411 1.67521 -8.77608
v 0.516786 1.66606 -8.78488
v 0.520654 1.67288 -8.78465
v 0.520216 1.68329 -8.77605
v 0.523271 1.68171 -8.7851
v 0.517645 1.66637 -8.7949
v 0.522186 1.67256 -8.79437
v 0.517674 1.66717 -8.80462
v 0.523167 1.67265 -8.8039
v 0.525304 1.68064 -8.79455
v 0.526983 1.67968 -8.80393
v 0.520119 1.66618 -8.81206
v 0.525759 1.67154 -8.8119
v 0.521449 1.6659 -8.81701
v 0.525972 1.66985 -8.81843
v 0.52897 1.67845 -8.81274
v 0.528106 1.67728 -8.82032
v 0.502842 1.69891 -8.73341
v 0.508372 1.69769 -8.74088
v 0.511946 1.69636 -8.74981
v 0.509458 1.70728 -8.74193
v 0.513889 1.70595 -8.75059
v 0.503054 1.70866 -8.73348
v 0.516891 1.69504 -8.7583
v 0.521836 1.69371 -8.7668
v 0.520035 1.70463 -8.7587
v 0.525851 1.7033 -8.76692
v 0.52541 1.69238 -8.77573
v 0.527611 1.69105 -8.78509
v 0.529293 1.70197 -8.77589
v 0.530663 1.70064 -8.78552
v 0.52844 1.68972 -8.79488
v 0.528396 1.68845 -8.80455
v 0.530265 1.69931 -8.7957
v 0.528716 1.69807 -8.80563
v 0.527978 1.68728 -8.81351
v 0.52575 1.68629 -8.82177
v 0.526632 1.69698 -8.81452
v 0.523709 1.69596 -8.82321
v 0.503848 1.71831 -8.73421
v 0.511916 1.71687 -8.74254
v 0.517547 1.71554 -8.75082
v 0.514374 1.72646 -8.74316
v 0.52091 1.72513 -8.75115
v 0.504762 1.7279 -8.73531
v 0.523179 1.71422 -8.7591
v 0.527491 1.71289 -8.7678
v 0.525141 1.72381 -8.75987
v 0.527346 1.72248 -8.76924
v 0.529168 1.71156 -8.77732
v 0.529418 1.71023 -8.7873
v 0.527807 1.72115 -8.77915
v 0.527797 1.71982 -8.78921
v 0.529454 1.7089 -8.79735
v 0.529249 1.70763 -8.80706
v 0.528589 1.71849 -8.79901
v 0.529805 1.71719 -8.80849
v 0.528778 1.70646 -8.81605
v 0.526787 1.70536 -8.82506
v 0.531066 1.71594 -8.81756
v 0.53006 1.71476 -8.82683
v 0.505334 1.73749 -8.73652
v 0.515459 1.73605 -8.74421
v 0.521967 1.73472 -8.75221
v 0.51516 1.74532 -8.74565
v 0.520921 1.74438 -8.75394
v 0.505663 1.74657 -8.73816
v 0.524739 1.7334 -8.76139
v 0.526003 1.73207 -8.77105
v 0.522804 1.74366 -8.7635
v 0.524068 1.74288 -8.77323
v 0.527984 1.73074 -8.78048
v 0.529722 1.72941 -8.78999
v 0.527976 1.74173 -8.78208
v 0.531569 1.74021 -8.79097
v 0.530253 1.72809 -8.79988
v 0.530191 1.72681 -8.80958
v 0.531889 1.73828 -8.80084
v 0.530529 1.73643 -8.81068
v 0.530148 1.72563 -8.81852
v 0.528605 1.72444 -8.82802
v 0.529079 1.73513 -8.81947
v 0.526828 1.73398 -8.82889
v 0.505851 1.75462 -8.74055
v 0.513461 1.75395 -8.74744
v 0.517975 1.75416 -8.75629
v 0.508504 1.76112 -8.75054
v 0.511772 1.7626 -8.76033
v 0.504137 1.75958 -8.74497
v 0.520163 1.75529 -8.76602
v 0.52215 1.75614 -8.77576
v 0.514862 1.76512 -8.77002
v 0.517931 1.76708 -8.77941
v 0.526059 1.75554 -8.78469
v 0.529714 1.75341 -8.79348
v 0.521134 1.76689 -8.7883
v 0.524086 1.7644 -8.79695
v 0.530939 1.74969 -8.8028
v 0.530938 1.74602 -8.81213
v 0.526405 1.7595 -8.80566
v 0.528437 1.7544 -8.81443
v 0.530915 1.74405 -8.82095
v 0.529135 1.74297 -8.8297
v 0.530531 1.75132 -8.82328
v 0.528761 1.74842 -8.82911
v 0.496518 1.76233 -8.74512
v 0.498428 1.76599 -8.75593
v 0.500953 1.7682 -8.7671
v 0.486412 1.76958 -8.76124
v 0.488702 1.77179 -8.77326
v 0.484579 1.76532 -8.74829
v 0.504945 1.77002 -8.77657
v 0.509097 1.77096 -8.78496
v 0.493196 1.77259 -8.78273
v 0.497925 1.77242 -8.79056
v 0.512102 1.77053 -8.79289
v 0.514615 1.76856 -8.80085
v 0.50092 1.77171 -8.79767
v 0.503223 1.77028 -8.80496
v 0.517288 1.7649 -8.80932
v 0.520043 1.76038 -8.81804
v 0.505875 1.76795 -8.81336
v 0.508667 1.76433 -8.82221
v 0.522797 1.75587 -8.82677
v 0.524441 1.75014 -8.83414
v 0.51139 1.75905 -8.83083
v 0.513783 1.75177 -8.83895
v 0.473237 1.76926 -8.75177
v 0.475634 1.77289 -8.76413
v 0.478199 1.77418 -8.77543
v 0.465072 1.77386 -8.7661
v 0.468009 1.77397 -8.7762
v 0.462105 1.77131 -8.75551
v 0.4824 1.77543 -8.78556
v 0.486696 1.77611 -8.7944
v 0.471613 1.77563 -8.78682
v 0.475147 1.7772 -8.79683
v 0.489546 1.77568 -8.80184
v 0.491836 1.77395 -8.80909
v 0.477869 1.77701 -8.80505
v 0.480286 1.77489 -8.81271
v 0.494451 1.77073 -8.81737
v 0.497222 1.76662 -8.82615
v 0.482907 1.77065 -8.82101
v 0.485662 1.76615 -8.82973
v 0.499982 1.76224 -8.83489
v 0.50256 1.75556 -8.84306
v 0.488483 1.76323 -8.83867
v 0.490964 1.75799 -8.84653
v 0.450794 1.76861 -8.75949
v 0.453702 1.77044 -8.7687
v 0.456693 1.76973 -8.77817
v 0.44139 1.76573 -8.77217
v 0.44326 1.76493 -8.78158
v 0.439592 1.76392 -8.76385
v 0.459891 1.77029 -8.78831
v 0.463014 1.77087 -8.79819
v 0.445878 1.7642 -8.79103
v 0.449192 1.76335 -8.80025
v 0.465776 1.77027 -8.80694
v 0.468407 1.76839 -8.81528
v 0.453154 1.7622 -8.80895
v 0.457083 1.76074 -8.81754
v 0.471135 1.76512 -8.82392
v 0.47394 1.7618 -8.8328
v 0.4603 1.75892 -8.82644
v 0.463133 1.75696 -8.83535
v 0.4768 1.75982 -8.84186
v 0.479186 1.75556 -8.84942
v 0.465914 1.75506 -8.84397
v 0.46808 1.75103 -8.85077
v 0.428782 1.75999 -8.76874
v 0.428003 1.76282 -8.77677
v 0.426719 1.76299 -8.78665
v 0.416467 1.75893 -8.78064
v 0.412799 1.76022 -8.79084
v 0.420104 1.75666 -8.77388
v 0.428216 1.76217 -8.79604
v 0.432578 1.76084 -8.80472
v 0.413502 1.75977 -8.80034
v 0.418601 1.75844 -8.80879
v 0.439889 1.75951 -8.81247
v 0.4472 1.75818 -8.82022
v 0.428124 1.75711 -8.81584
v 0.437896 1.75579 -8.82281
v 0.451562 1.75686 -8.8289
v 0.454316 1.75498 -8.83737
v 0.44374 1.75446 -8.83102
v 0.44724 1.75223 -8.83878
v 0.456805 1.75203 -8.8445
v 0.458505 1.74714 -8.84963
v 0.44998 1.74819 -8.84439
v 0.452878 1.7446 -8.84769
v 0.415854 1.7503 -8.77274
v 0.409706 1.75124 -8.78192
v 0.407231 1.75291 -8.7916
v 0.406923 1.74215 -8.78121
v 0.406235 1.74344 -8.79048
v 0.411813 1.74149 -8.77211
v 0.40833 1.75258 -8.80093
v 0.412692 1.75125 -8.80961
v 0.407931 1.74299 -8.79966
v 0.411187 1.74166 -8.80869
v 0.420004 1.74992 -8.81736
v 0.428308 1.74859 -8.82479
v 0.41518 1.74033 -8.81749
v 0.420911 1.739 -8.82574
v 0.435649 1.74727 -8.83253
v 0.441653 1.74504 -8.83949
v 0.429381 1.73768 -8.83312
v 0.437855 1.73568 -8.8396
v 0.445945 1.74101 -8.8446
v 0.450901 1.73817 -8.84857
v 0.443596 1.73234 -8.84513
v 0.449539 1.72988 -8.84993
v 0.412672 1.73411 -8.76981
v 0.407318 1.73405 -8.77912
v 0.406034 1.73422 -8.78901
v 0.409699 1.72596 -8.7764
v 0.407571 1.72501 -8.78698
v 0.415182 1.72678 -8.76669
v 0.407531 1.7334 -8.7984
v 0.410418 1.73207 -8.80754
v 0.408125 1.72381 -8.79682
v 0.410515 1.72248 -8.80612
v 0.413305 1.73074 -8.81669
v 0.418179 1.72941 -8.82521
v 0.413899 1.72115 -8.81511
v 0.419269 1.71982 -8.82347
v 0.427025 1.72809 -8.83247
v 0.436142 1.7264 -8.83917
v 0.427619 1.71849 -8.83089
v 0.435859 1.71709 -8.8381
v 0.441826 1.72401 -8.84598
v 0.44793 1.72206 -8.85241
v 0.440902 1.71555 -8.84584
v 0.446919 1.71409 -8.85339
v 0.416095 1.71809 -8.76358
v 0.412875 1.71687 -8.77381
v 0.41179 1.71554 -8.78421
v 0.415455 1.70728 -8.77161
v 0.416108 1.70595 -8.78146
v 0.416193 1.70843 -8.7613
v 0.410704 1.71422 -8.79461
v 0.411605 1.71289 -8.80438
v 0.414277 1.70463 -8.79209
v 0.414185 1.7033 -8.80218
v 0.416479 1.71156 -8.8129
v 0.423339 1.71023 -8.82079
v 0.420052 1.70197 -8.81038
v 0.427656 1.70064 -8.81804
v 0.430199 1.7089 -8.82868
v 0.436351 1.70764 -8.83631
v 0.432778 1.69931 -8.82648
v 0.436911 1.6981 -8.83437
v 0.44109 1.70651 -8.84339
v 0.447351 1.70535 -8.8502
v 0.441549 1.69711 -8.84038
v 0.448058 1.69614 -8.84574
v 0.416258 1.69818 -8.76064
v 0.416048 1.69769 -8.77003
v 0.417942 1.69636 -8.77948
v 0.417353 1.68919 -8.76898
v 0.419761 1.68814 -8.77787
v 0.417936 1.68876 -8.76108
v 0.41785 1.69504 -8.78957
v 0.418751 1.69371 -8.79934
v 0.421827 1.68691 -8.78714
v 0.424047 1.68551 -8.79648
v 0.423625 1.69238 -8.80786
v 0.429491 1.69105 -8.81607
v 0.426921 1.68396 -8.8056
v 0.430213 1.68248 -8.81459
v 0.433372 1.68972 -8.8249
v 0.436831 1.68853 -8.83288
v 0.433689 1.6813 -8.82357
v 0.4374 1.68027 -8.83156
v 0.441436 1.68759 -8.83853
v 0.447869 1.68674 -8.84291
v 0.441401 1.67925 -8.83758
v 0.446965 1.67819 -8.84169
v 0.422872 1.68157 -8.76206
v 0.422068 1.68287 -8.76838
v 0.424032 1.68267 -8.77618
v 0.42826 1.67778 -8.76749
v 0.429614 1.6782 -8.77422
v 0.427634 1.67772 -8.76339
v 0.426611 1.68172 -8.78487
v 0.428818 1.68009 -8.79419
v 0.43199 1.67746 -8.78255
v 0.433852 1.67555 -8.79194
v 0.429664 1.67786 -8.80385
v 0.43119 1.67594 -8.81334
v 0.433661 1.6725 -8.80181
v 0.434492 1.66989 -8.81142
v 0.435438 1.67521 -8.82214
v 0.439907 1.67469 -8.83015
v 0.439415 1.66934 -8.82003
v 0.444322 1.66928 -8.82822
v 0.442095 1.6734 -8.83727
v 0.445528 1.6715 -8.84209
v 0.445103 1.66814 -8.83656
v 0.447157 1.66759 -8.84052
v 0.432209 1.67399 -8.76102
v 0.433995 1.67297 -8.76559
v 0.435369 1.673 -8.7718
v 0.440626 1.66963 -8.76174
v 0.442534 1.66874 -8.7686
v 0.43899 1.67137 -8.7566
v 0.437752 1.67213 -8.77996
v 0.439938 1.67 -8.78921
v 0.445081 1.66723 -8.77694
v 0.447756 1.66482 -8.78599
v 0.440721 1.66626 -8.79867
v 0.442184 1.66282 -8.80796
v 0.450049 1.66125 -8.795
v 0.452517 1.65788 -8.80398
v 0.446411 1.66159 -8.8167
v 0.450615 1.66151 -8.82536
v 0.455718 1.65607 -8.81296
v 0.458961 1.65569 -8.82206
v 0.452007 1.66154 -8.83442
v 0.452431 1.66348 -8.84126
v 0.461553 1.65659 -8.83144
v 0.463437 1.66001 -8.83878
v 0.44743 1.67164 -8.74828
v 0.449508 1.66895 -8.75504
v 0.452346 1.6671 -8.76431
v 0.459898 1.66944 -8.74804
v 0.463583 1.66684 -8.75978
v 0.457268 1.67292 -8.73966
v 0.455161 1.66425 -8.77332
v 0.457985 1.66141 -8.78227
v 0.466639 1.66274 -8.76948
v 0.469447 1.65952 -8.77837
v 0.460852 1.65958 -8.79135
v 0.463739 1.65825 -8.80049
v 0.472392 1.65958 -8.7877
v 0.475374 1.66052 -8.79715
v 0.466626 1.65692 -8.80964
v 0.469534 1.6561 -8.81885
v 0.478293 1.65995 -8.80639
v 0.481185 1.65874 -8.81555
v 0.472485 1.65628 -8.82819
v 0.474813 1.6592 -8.83557
v 0.484088 1.6578 -8.82475
v 0.486369 1.65957 -8.83197
v 0.468241 1.67335 -8.73436
v 0.471055 1.66961 -8.74327
v 0.475023 1.66676 -8.75584
v 0.483428 1.67048 -8.74217
v 0.486871 1.66781 -8.75376
v 0.480766 1.67406 -8.73369
v 0.478158 1.66223 -8.76577
v 0.480961 1.65889 -8.77465
v 0.489253 1.66371 -8.76315
v 0.49157 1.66052 -8.7717
v 0.483933 1.65958 -8.78406
v 0.486946 1.66127 -8.7936
v 0.494817 1.66059 -8.78077
v 0.498153 1.66165 -8.79012
v 0.489875 1.66095 -8.80288
v 0.492762 1.65963 -8.81203
v 0.500738 1.66146 -8.79953
v 0.503149 1.66048 -8.80877
v 0.49565 1.6583 -8.82117
v 0.497915 1.6597 -8.82835
v 0.505962 1.65921 -8.81763
v 0.508461 1.66044 -8.82449
v 0.495259 1.67622 -8.73898
v 0.497465 1.67308 -8.74615
v 0.499336 1.67096 -8.7548
v 0.499458 1.66813 -8.76258
v 0.500314 1.6654 -8.77015
v 0.504387 1.66361 -8.77819
v 0.508693 1.66279 -8.78696
v 0.510246 1.66297 -8.79674
v 0.511227 1.66306 -8.80627
v 0.513819 1.66195 -8.81428
v 0.517017 1.66266 -8.82022
v 0.464554 1.66721 -8.84178
v 0.453729 1.66914 -8.84323
v 0.455367 1.67708 -8.84395
v 0.465619 1.67622 -8.84404
v 0.487396 1.66656 -8.83523
v 0.475856 1.66656 -8.83887
v 0.47673 1.67593 -8.84164
v 0.48827 1.67593 -8.838
v 0.509927 1.66697 -8.82775
v 0.498937 1.66656 -8.83158
v 0.499811 1.67593 -8.83435
v 0.510936 1.67608 -8.83044
v 0.519817 1.6682 -8.82354
v 0.521231 1.67651 -8.82599
v 0.467348 1.68511 -8.84914
v 0.456813 1.68582 -8.84704
v 0.457801 1.69495 -8.85166
v 0.469167 1.694 -8.85528
v 0.490094 1.68487 -8.84377
v 0.478553 1.68487 -8.84741
v 0.48054 1.69373 -8.85371
v 0.491958 1.69379 -8.84968
v 0.512065 1.68503 -8.8356
v 0.501634 1.68487 -8.84013
v 0.503458 1.6938 -8.8459
v 0.513273 1.69408 -8.84075
v 0.520274 1.68552 -8.82931
v 0.51964 1.69489 -8.83257
v 0.470502 1.70301 -8.86062
v 0.45807 1.70401 -8.85698
v 0.458083 1.71295 -8.86006
v 0.471057 1.71232 -8.86314
v 0.492955 1.7031 -8.85283
v 0.481904 1.70288 -8.85803
v 0.482506 1.71237 -8.85993
v 0.493446 1.71265 -8.85439
v 0.514525 1.70345 -8.8434
v 0.504332 1.70318 -8.84867
v 0.504895 1.71269 -8.85046
v 0.515642 1.7129 -8.8455
v 0.522023 1.70426 -8.83485
v 0.524474 1.71367 -8.83688
v 0.470536 1.72211 -8.86079
v 0.458305 1.72173 -8.85798
v 0.458617 1.73052 -8.85419
v 0.46964 1.73227 -8.85676
v 0.493793 1.72226 -8.85549
v 0.482204 1.72229 -8.85898
v 0.481419 1.73314 -8.85649
v 0.493657 1.73315 -8.85506
v 0.516447 1.72217 -8.84902
v 0.505785 1.72206 -8.85327
v 0.506062 1.73232 -8.85415
v 0.516556 1.73176 -8.85045
v 0.524046 1.72313 -8.83939
v 0.523066 1.73259 -8.84062
v 0.469072 1.74267 -8.85423
v 0.458897 1.73948 -8.85214
v 0.492702 1.74651 -8.85203
v 0.480569 1.74545 -8.8538
v 0.515587 1.74215 -8.84629
v 0.504787 1.74454 -8.85011
v 0.523864 1.74198 -8.83882
v 0.428592 1.67805 -8.75778
v 0.437258 1.67545 -8.7534
v 0.424843 1.68557 -8.75474
v 0.43523 1.68327 -8.74954
v 0.446899 1.67696 -8.74678
v 0.45738 1.67964 -8.74006
v 0.446251 1.68552 -8.74501
v 0.457641 1.68891 -8.74095
v 0.468568 1.68053 -8.73539
v 0.480729 1.68093 -8.73362
v 0.469131 1.69004 -8.73717
v 0.480946 1.69009 -8.73438
v 0.494132 1.68213 -8.7356
v 0.493312 1.69022 -8.73328
v 0.422662 1.69699 -8.75078
v 0.432704 1.6962 -8.74239
v 0.422194 1.7092 -8.74929
v 0.431441 1.70989 -8.73839
v 0.443825 1.69788 -8.73742
v 0.455457 1.70006 -8.73406
v 0.441918 1.71075 -8.73138
v 0.453122 1.71146 -8.72666
v 0.467027 1.70078 -8.73051
v 0.479047 1.70056 -8.72839
v 0.46455 1.7117 -8.72267
v 0.47693 1.71131 -8.72168
v 0.492026 1.6999 -8.7293
v 0.490988 1.71015 -8.72601
v 0.423583 1.71908 -8.75369
v 0.433205 1.71996 -8.74398
v 0.424692 1.72757 -8.75948
v 0.435414 1.72853 -8.75154
v 0.442828 1.72084 -8.73426
v 0.45293 1.72151 -8.72606
v 0.444533 1.72983 -8.73966
v 0.453656 1.73095 -8.72836
v 0.463991 1.72173 -8.72089
v 0.47649 1.72129 -8.72029
v 0.46439 1.73132 -8.72216
v 0.47689 1.73088 -8.72155
v 0.490908 1.71996 -8.72576
v 0.491307 1.72955 -8.72702
v 0.423384 1.73563 -8.76214
v 0.435487 1.73769 -8.75347
v 0.422722 1.74384 -8.76339
v 0.435415 1.74721 -8.75408
v 0.445012 1.73939 -8.74118
v 0.454075 1.74053 -8.72969
v 0.445655 1.74958 -8.74321
v 0.455291 1.75081 -8.73354
v 0.46479 1.74091 -8.72343
v 0.477289 1.74047 -8.72282
v 0.466177 1.75073 -8.72782
v 0.478531 1.74973 -8.72675
v 0.491707 1.73914 -8.72829
v 0.492573 1.74819 -8.73103
v 0.425772 1.75281 -8.76494
v 0.437192 1.75685 -8.75768
v 0.447847 1.76049 -8.75015
v 0.458406 1.76235 -8.7434
v 0.469538 1.76103 -8.73847
v 0.481456 1.75836 -8.73602
v 0.494371 1.75616 -8.73673

# 660 UV coordinates
vt 0.664396 0.740349 0
vt 0.65086 0.731725 0
vt 0.646127 0.71148 0
vt 0.662338 0.721676 0
vt 0.64126 0.691992 0
vt 0.65811 0.700067 0
vt 0.68332 0.735974 0
vt 0.679157 0.709351 0
vt 0.686335 0.755739 0
vt 0.636302 0.671392 0
vt 0.654254 0.677031 0
vt 0.62955 0.649687 0
vt 0.648897 0.652985 0
vt 0.675088 0.682709 0
vt 0.670644 0.655814 0
vt 0.619301 0.626881 0
vt 0.640161 0.628344 0
vt 0.611626 0.600892 0
vt 0.632878 0.601614 0
vt 0.665354 0.628432 0
vt 0.660429 0.600191 0
vt 0.612592 0.569634 0
vt 0.63188 0.571304 0
vt 0.615081 0.539311 0
vt 0.63216 0.541582 0
vt 0.657074 0.570717 0
vt 0.65408 0.541493 0
vt 0.611976 0.516127 0
vt 0.628709 0.51662 0
vt 0.611105 0.500683 0
vt 0.623445 0.496253 0
vt 0.650238 0.514 0
vt 0.646592 0.490355 0
vt 0.714045 0.761394 0
vt 0.710252 0.738108 0
vt 0.706112 0.710264 0
vt 0.740159 0.734836 0
vt 0.736019 0.707835 0
vt 0.744468 0.761168 0
vt 0.701971 0.68377 0
vt 0.697831 0.657277 0
vt 0.731879 0.682524 0
vt 0.727739 0.656888 0
vt 0.693691 0.629432 0
vt 0.68955 0.600237 0
vt 0.723598 0.628914 0
vt 0.719458 0.598901 0
vt 0.68541 0.569691 0
vt 0.681437 0.539554 0
vt 0.715318 0.567146 0
vt 0.711429 0.536162 0
vt 0.6778 0.511588 0
vt 0.674689 0.485833 0
vt 0.708042 0.508459 0
vt 0.704844 0.481356 0
vt 0.774548 0.75891 0
vt 0.770067 0.732914 0
vt 0.765927 0.707096 0
vt 0.799975 0.730992 0
vt 0.795834 0.706065 0
vt 0.804455 0.755468 0
vt 0.761786 0.681277 0
vt 0.757646 0.654161 0
vt 0.791694 0.678867 0
vt 0.787554 0.649676 0
vt 0.753506 0.624449 0
vt 0.749366 0.593333 0
vt 0.783413 0.618767 0
vt 0.779273 0.587395 0
vt 0.745225 0.562005 0
vt 0.741252 0.531711 0
vt 0.775133 0.556812 0
vt 0.771073 0.527257 0
vt 0.737615 0.503692 0
vt 0.734164 0.475593 0
vt 0.767175 0.498969 0
vt 0.763491 0.470079 0
vt 0.834363 0.751689 0
vt 0.829882 0.727719 0
vt 0.825742 0.702764 0
vt 0.858791 0.723227 0
vt 0.855851 0.697363 0
vt 0.862677 0.746575 0
vt 0.821601 0.67413 0
vt 0.817461 0.644012 0
vt 0.853621 0.667576 0
vt 0.85118 0.637212 0
vt 0.813321 0.6146 0
vt 0.80918 0.584948 0
vt 0.847606 0.609615 0
vt 0.842844 0.58188 0
vt 0.80504 0.554109 0
vt 0.801055 0.523859 0
vt 0.83684 0.551103 0
vt 0.831068 0.520432 0
vt 0.797379 0.495974 0
vt 0.793669 0.466351 0
vt 0.827003 0.493013 0
vt 0.823416 0.463624 0
vt 0.887807 0.739131 0
vt 0.885704 0.717648 0
vt 0.886364 0.690032 0
vt 0.908048 0.707967 0
vt 0.912666 0.677458 0
vt 0.903248 0.725345 0
vt 0.889865 0.659715 0
vt 0.892521 0.629322 0
vt 0.920533 0.647228 0
vt 0.926657 0.617935 0
vt 0.890647 0.601479 0
vt 0.884021 0.574076 0
vt 0.926047 0.590231 0
vt 0.918301 0.563243 0
vt 0.872424 0.545002 0
vt 0.860982 0.515895 0
vt 0.903016 0.536097 0
vt 0.887108 0.508742 0
vt 0.854821 0.488391 0
vt 0.851451 0.461112 0
vt 0.877492 0.481133 0
vt 0.86846 0.462966 0
vt 0.614453 0.0592554 0
vt 0.638213 0.0588067 0
vt 0.651833 0.0761847 0
vt 0.62041 0.0929805 0
vt 0.662023 0.106694 0
vt 0.628285 0.127829 0
vt 0.582936 0.109548 0
vt 0.590077 0.147025 0
vt 0.57722 0.0691588 0
vt 0.671662 0.136924 0
vt 0.640733 0.157354 0
vt 0.681233 0.166217 0
vt 0.65368 0.183507 0
vt 0.604093 0.17656 0
vt 0.618841 0.200989 0
vt 0.69122 0.193921 0
vt 0.663053 0.208241 0
vt 0.700427 0.220909 0
vt 0.670889 0.233062 0
vt 0.628182 0.223149 0
vt 0.635364 0.245897 0
vt 0.931276 0.55109 0
vt 0.919842 0.524678 0
vt 0.90576 0.497471 0
vt 0.643635 0.272093 0
vt 0.679228 0.259474 0
vt 0.687818 0.286682 0
vt 0.652341 0.299671 0
vt 0.891677 0.470263 0
vt 0.873812 0.447264 0
vt 0.660832 0.326564 0
vt 0.696407 0.313889 0
vt 0.701534 0.336888 0
vt 0.668295 0.351894 0
vt 0.54185 0.0800065 0
vt 0.549326 0.118544 0
vt 0.557325 0.153785 0
vt 0.516387 0.124715 0
vt 0.525545 0.156196 0
vt 0.507133 0.0916866 0
vt 0.570426 0.185376 0
vt 0.583823 0.212955 0
vt 0.536787 0.18933 0
vt 0.547806 0.220518 0
vt 0.592712 0.236157 0
vt 0.599852 0.258774 0
vt 0.556295 0.246165 0
vt 0.563833 0.270045 0
vt 0.608006 0.284601 0
vt 0.616649 0.311976 0
vt 0.572006 0.295929 0
vt 0.580597 0.323142 0
vt 0.625256 0.339239 0
vt 0.633297 0.364708 0
vt 0.589395 0.351008 0
vt 0.597134 0.375524 0
vt 0.471861 0.104087 0
vt 0.480928 0.132805 0
vt 0.490256 0.162351 0
vt 0.442532 0.143621 0
vt 0.448365 0.172974 0
vt 0.436926 0.117682 0
vt 0.500231 0.193947 0
vt 0.509969 0.22479 0
vt 0.456528 0.202455 0
vt 0.466865 0.231193 0
vt 0.518583 0.252075 0
vt 0.526788 0.278064 0
vt 0.479221 0.258315 0
vt 0.491474 0.285113 0
vt 0.535296 0.305014 0
vt 0.544043 0.332717 0
vt 0.501504 0.312878 0
vt 0.510341 0.340669 0
vt 0.552961 0.360965 0
vt 0.560401 0.384533 0
vt 0.519012 0.367546 0
vt 0.525769 0.388754 0
vt 0.403215 0.132943 0
vt 0.400784 0.157965 0
vt 0.396781 0.188792 0
vt 0.364808 0.170037 0
vt 0.353371 0.201862 0
vt 0.37615 0.148945 0
vt 0.401449 0.218081 0
vt 0.415052 0.245149 0
vt 0.355561 0.231483 0
vt 0.371464 0.257825 0
vt 0.437852 0.269313 0
vt 0.460653 0.293477 0
vt 0.401162 0.279811 0
vt 0.431636 0.301553 0
vt 0.474256 0.320545 0
vt 0.482845 0.346967 0
vt 0.449861 0.327162 0
vt 0.460776 0.351357 0
vt 0.490605 0.36919 0
vt 0.495909 0.385207 0
vt 0.469321 0.368858 0
vt 0.478358 0.379129 0
vt 0.290061 0.159738 0
vt 0.309917 0.163269 0
vt 0.316981 0.184361 0
vt 0.292993 0.18836 0
vt 0.321015 0.216185 0
vt 0.298195 0.218561 0
vt 0.264642 0.186159 0
vt 0.268676 0.21505 0
vt 0.262585 0.157752 0
vt 0.319599 0.245806 0
vt 0.297168 0.247641 0
vt 0.315459 0.272148 0
vt 0.293028 0.274709 0
vt 0.267261 0.243693 0
vt 0.263121 0.27185 0
vt 0.353037 0.260386 0
vt 0.375838 0.28455 0
vt 0.401736 0.307737 0
vt 0.25898 0.299281 0
vt 0.288888 0.298874 0
vt 0.284747 0.32206 0
vt 0.25484 0.325001 0
vt 0.42463 0.331871 0
vt 0.280607 0.346194 0
vt 0.303038 0.341485 0
vt 0.296077 0.36568 0
vt 0.273661 0.367909 0
vt 0.2507 0.348024 0
vt 0.24447 0.368226 0
vt 0.283476 0.383181 0
vt 0.261105 0.383836 0
vt 0.272308 0.393452 0
vt 0.252228 0.396227 0
vt 0.234063 0.385484 0
vt 0.226394 0.400438 0
vt 0.239588 0.150589 0
vt 0.239406 0.179629 0
vt 0.239937 0.210456 0
vt 0.214169 0.171143 0
vt 0.211197 0.204151 0
vt 0.216716 0.140859 0
vt 0.237353 0.239745 0
vt 0.233213 0.268265 0
vt 0.207446 0.234819 0
vt 0.203305 0.263828 0
vt 0.229073 0.296785 0
vt 0.224932 0.323349 0
vt 0.199165 0.291859 0
vt 0.195025 0.317934 0
vt 0.220792 0.346002 0
vt 0.215542 0.366882 0
vt 0.190885 0.341076 0
vt 0.186517 0.363565 0
vt 0.208071 0.388128 0
vt 0.20201 0.408199 0
vt 0.181696 0.387684 0
vt 0.17715 0.411238 0
vt 0.189612 0.131174 0
vt 0.185819 0.163075 0
vt 0.181679 0.195506 0
vt 0.155911 0.156193 0
vt 0.151771 0.186913 0
vt 0.159482 0.124049 0
vt 0.177538 0.227937 0
vt 0.173398 0.258413 0
vt 0.147631 0.220077 0
vt 0.143491 0.251531 0
vt 0.169258 0.284977 0
vt 0.165117 0.309585 0
vt 0.13935 0.277117 0
vt 0.13521 0.300992 0
vt 0.160977 0.334194 0
vt 0.157039 0.357966 0
vt 0.13107 0.327312 0
vt 0.127283 0.351924 0
vt 0.153506 0.380066 0
vt 0.14989 0.401288 0
vt 0.124205 0.370675 0
vt 0.121154 0.38738 0
vt 0.127531 0.122 0
vt 0.126004 0.151267 0
vt 0.121864 0.180764 0
vt 0.0994942 0.148011 0
vt 0.0962343 0.175722 0
vt 0.098154 0.12335 0
vt 0.117723 0.212218 0
vt 0.113583 0.242694 0
vt 0.0923875 0.204625 0
vt 0.0880133 0.233767 0
vt 0.109443 0.269258 0
vt 0.105302 0.294844 0
vt 0.0831714 0.262198 0
vt 0.0785634 0.290252 0
vt 0.101162 0.322386 0
vt 0.0974262 0.347278 0
vt 0.0748908 0.318261 0
vt 0.0716868 0.343176 0
vt 0.0944997 0.364913 0
vt 0.0918634 0.378549 0
vt 0.068485 0.361953 0
vt 0.065193 0.37477 0
vt 0.0757434 0.126421 0
vt 0.0797804 0.146138 0
vt 0.0791615 0.170447 0
vt 0.0639022 0.14337 0
vt 0.0652265 0.164336 0
vt 0.0637275 0.130583 0
vt 0.0761949 0.197563 0
vt 0.0711192 0.226617 0
vt 0.0629077 0.190338 0
vt 0.0569714 0.219607 0
vt 0.0641726 0.25674 0
vt 0.0581616 0.286328 0
vt 0.0474435 0.250375 0
vt 0.0393186 0.280342 0
vt 0.0558919 0.31378 0
vt 0.0542837 0.338769 0
vt 0.0375917 0.307208 0
vt 0.0373893 0.332751 0
vt 0.050256 0.360969 0
vt 0.0443163 0.376017 0
vt 0.0338375 0.35875 0
vt 0.0321494 0.371118 0
vt 0.0520969 0.123182 0
vt 0.0489001 0.137423 0
vt 0.0490108 0.156785 0
vt 0.345173 0.683725 0
vt 0.324492 0.671736 0
vt 0.328778 0.652373 0
vt 0.351123 0.662343 0
vt 0.34007 0.699763 0
vt 0.318924 0.685977 0
vt 0.0462875 0.182253 0
vt 0.0396406 0.211099 0
vt 0.0310013 0.172818 0
vt 0.0234849 0.201057 0
vt 0.0357288 0.146816 0
vt 0.0279807 0.240599 0
vt 0.0172562 0.269565 0
vt 0.0123586 0.229147 0
vt 0.00185883 0.257157 0
vt 0.0134156 0.29681 0
vt 0.0131761 0.32382 0
vt 0.392239 0.524009 0
vt 0.363215 0.512349 0
vt 0.376323 0.485338 0
vt 0.402351 0.495607 0
vt 0.382256 0.552002 0
vt 0.350032 0.539593 0
vt 0.0132548 0.352085 0
vt 0.0193031 0.373398 0
vt 0.410435 0.466373 0
vt 0.380666 0.457073 0
vt 0.381988 0.435761 0
vt 0.41631 0.443484 0
vt 0.366393 0.725721 0
vt 0.372871 0.704621 0
vt 0.381723 0.675711 0
vt 0.405274 0.726473 0
vt 0.416767 0.689851 0
vt 0.397073 0.752594 0
vt 0.359065 0.636341 0
vt 0.390502 0.647614 0
vt 0.367408 0.608102 0
vt 0.39931 0.619716 0
vt 0.426295 0.659599 0
vt 0.435054 0.631856 0
vt 0.374558 0.580011 0
vt 0.408248 0.591404 0
vt 0.417252 0.562884 0
vt 0.444238 0.602766 0
vt 0.453537 0.573313 0
vt 0.426256 0.534364 0
vt 0.435326 0.505636 0
vt 0.462639 0.544482 0
vt 0.47166 0.51591 0
vt 0.444527 0.476494 0
vt 0.451788 0.453495 0
vt 0.480713 0.487235 0
vt 0.487826 0.464702 0
vt 0.431293 0.769127 0
vt 0.440068 0.741332 0
vt 0.452442 0.70214 0
vt 0.478653 0.744764 0
vt 0.489392 0.708634 0
vt 0.470352 0.771204 0
vt 0.46222 0.671168 0
vt 0.470962 0.643478 0
vt 0.496821 0.67934 0
vt 0.504045 0.652664 0
vt 0.480228 0.614129 0
vt 0.489625 0.584364 0
vt 0.51417 0.624388 0
vt 0.524575 0.595227 0
vt 0.49876 0.555429 0
vt 0.507764 0.52691 0
vt 0.532637 0.565897 0
vt 0.540155 0.537076 0
vt 0.516768 0.49839 0
vt 0.523833 0.476013 0
vt 0.548929 0.509446 0
vt 0.556721 0.488035 0
vt 0.515549 0.754711 0
vt 0.52243 0.732336 0
vt 0.528265 0.705391 0
vt 0.555508 0.722163 0
vt 0.557653 0.702675 0
vt 0.541482 0.742408 0
vt 0.528645 0.68113 0
vt 0.531313 0.657498 0
vt 0.618062 0.670446 0
vt 0.609562 0.646815 0
vt 0.626899 0.694708 0
vt 0.544016 0.632443 0
vt 0.557443 0.605091 0
vt 0.56729 0.637564 0
vt 0.582683 0.611575 0
vt 0.552902 0.66037 0
vt 0.562286 0.574573 0
vt 0.565348 0.544851 0
vt 0.585364 0.580317 0
vt 0.585454 0.549995 0
vt 0.573431 0.519889 0
vt 0.583404 0.501375 0
vt 0.598802 0.509205 0
vt 0.601014 0.490692 0
vt 0.593077 0.526811 0
vt 0.136445 0.718866 0
vt 0.132962 0.741294 0
vt 0.0986399 0.7305 0
vt 0.102688 0.712831 0
vt 0.0821923 0.717654 0
vt 0.0771105 0.705487 0
vt 0.107797 0.688085 0
vt 0.0815927 0.684611 0
vt 0.139767 0.690759 0
vt 0.207681 0.720877 0
vt 0.204478 0.742666 0
vt 0.168439 0.743844 0
vt 0.171691 0.720877 0
vt 0.174417 0.69165 0
vt 0.210407 0.691651 0
vt 0.277945 0.7196 0
vt 0.273373 0.739964 0
vt 0.240485 0.742273 0
vt 0.243671 0.720877 0
vt 0.246397 0.69165 0
vt 0.281092 0.691204 0
vt 0.618284 0.480318 0
vt 0.592135 0.491002 0
vt 0.561293 0.477873 0
vt 0.313199 0.689865 0
vt 0.308787 0.715768 0
vt 0.644186 0.47267 0
vt 0.145159 0.66304 0
vt 0.112304 0.660805 0
vt 0.0844112 0.65794 0
vt 0.115387 0.632355 0
vt 0.0850008 0.62865 0
vt 0.150831 0.63532 0
vt 0.216094 0.663785 0
vt 0.180104 0.663785 0
vt 0.186299 0.636153 0
vt 0.221907 0.635977 0
vt 0.284611 0.663277 0
vt 0.252083 0.663785 0
vt 0.25777 0.635919 0
vt 0.288381 0.635072 0
vt 0.672298 0.46233 0
vt 0.310213 0.661753 0
vt 0.70152 0.45217 0
vt 0.670775 0.442707 0
vt 0.69898 0.426659 0
vt 0.154995 0.607214 0
vt 0.116224 0.604097 0
vt 0.145707 0.422426 0
vt 0.117449 0.405852 0
vt 0.173608 0.432036 0
vt 0.156726 0.578169 0
vt 0.116264 0.576196 0
vt 0.225016 0.606926 0
vt 0.190554 0.607628 0
vt 0.192429 0.57801 0
vt 0.226547 0.577149 0
vt 0.292284 0.605844 0
vt 0.260496 0.606692 0
vt 0.262252 0.577018 0
vt 0.295766 0.576374 0
vt 0.730752 0.445058 0
vt 0.728208 0.418404 0
vt 0.760078 0.438722 0
vt 0.757677 0.411842 0
vt 0.155101 0.547637 0
vt 0.116959 0.548815 0
vt 0.0814493 0.572654 0
vt 0.0846015 0.547794 0
vt 0.117931 0.521423 0
vt 0.0896197 0.52341 0
vt 0.152308 0.515974 0
vt 0.227628 0.547166 0
vt 0.191488 0.547097 0
vt 0.18904 0.513259 0
vt 0.227207 0.513221 0
vt 0.298277 0.547446 0
vt 0.265026 0.547813 0
vt 0.26589 0.515801 0
vt 0.298619 0.51754 0
vt 0.78958 0.430888 0
vt 0.786606 0.400874 0
vt 0.819076 0.427045 0
vt 0.816511 0.396411 0
vt 0.150536 0.483541 0
vt 0.118803 0.493484 0
vt 0.0938683 0.497576 0
vt 0.117583 0.469594 0
vt 0.100032 0.477496 0
vt 0.147443 0.457468 0
vt 0.224227 0.471558 0
vt 0.18639 0.474868 0
vt 0.182076 0.443331 0
vt 0.218809 0.435761 0
vt 0.295595 0.485137 0
vt 0.261915 0.477708 0
vt 0.640241 0.386702 0
vt 0.602553 0.392687 0
vt 0.67392 0.374783 0
vt 0.848383 0.432681 0
vt 0.848914 0.409369 0
vt 0.878916 0.432258 0
vt 0.0647426 0.113078 0
vt 0.0439185 0.109396 0
vt 0.0566574 0.0994235 0
vt 0.0413098 0.998008 0
vt 0.0178522 0.986318 0
vt 0.00976702 0.959292 0
vt 0.0341405 0.965617 0
vt 0.0882001 0.103602 0
vt 0.0447485 0.0834379 0
vt 0.0613675 0.0787702 0
vt 0.0487492 0.0565648 0
vt 0.0696984 0.0578149 0
vt 0.0411537 0.931246 0
vt 0.0144772 0.929226 0
vt 0.022808 0.89654 0
vt 0.051732 0.895728 0
vt 0.00185883 0.896889 0
vt 0.00319227 0.862669 0
vt 0.025585 0.861651 0
vt 0.00543633 0.82361 0
vt 0.0268388 0.823725 0
vt 0.0552583 0.859895 0
vt 0.0553998 0.823047 0
vt 0.0121682 0.778413 0
vt 0.0306001 0.781927 0
vt 0.0197212 0.75248 0
vt 0.0332576 0.747569 0
vt 0.0558244 0.784484 0
vt 0.0551967 0.75284 0
vt 0.123833 0.0912413 0
vt 0.0810308 0.0873659 0
vt 0.121365 0.0650705 0
vt 0.161912 0.0866133 0
vt 0.164046 0.052602 0
vt 0.0744743 0.973495 0
vt 0.0796929 0.938812 0
vt 0.0864895 0.902539 0
vt 0.119835 0.944759 0
vt 0.12205 0.90982 0
vt 0.117155 0.977432 0
vt 0.0887551 0.866454 0
vt 0.0880674 0.828969 0
vt 0.122788 0.87418 0
vt 0.121585 0.835574 0
vt 0.0860044 0.788493 0
vt 0.0829065 0.754763 0
vt 0.117975 0.791733 0
vt 0.11333 0.754104 0
vt 0.19271 0.100334 0
vt 0.19546 0.0700248 0
vt 0.219188 0.118363 0
vt 0.222171 0.0936115 0
vt 0.166726 0.0307315 0
vt 0.198211 0.0397155 0
vt 0.16894 0.0160409 0
vt 0.200274 0.014143 0
vt 0.226247 0.0565583 0
vt 0.229713 0.0213148 0
vt 0.153384 0.910419 0
vt 0.154071 0.875925 0
vt 0.152696 0.836944 0
vt 0.183979 0.874678 0
vt 0.182603 0.835698 0
vt 0.182823 0.908155 0
vt 0.14857 0.791982 0
vt 0.779708 0.785263 0
vt 0.749113 0.784474 0
vt 0.809616 0.781315 0
vt 0.178478 0.790735 0
vt 0.24431 0.126662 0
vt 0.250738 0.0996348 0
vt 0.269929 0.130561 0
vt 0.280426 0.101538 0
vt 0.256039 0.0612967 0
vt 0.259592 0.0254606 0
vt 0.28783 0.0676394 0
vt 0.291656 0.0374711 0
vt 0.230869 0.00199203 0
vt 0.260777 0.00594025 0
vt 0.213886 0.873432 0
vt 0.212511 0.834451 0
vt 0.244531 0.869106 0
vt 0.241417 0.830579 0
vt 0.244766 0.903054 0
vt 0.212702 0.906846 0
vt 0.208385 0.789489 0
vt 0.839523 0.777366 0
vt 0.867745 0.768813 0
vt 0.236607 0.786788 0
vt 0.297897 0.135393 0
vt 0.310498 0.112766 0
vt 0.320277 0.147266 0
vt 0.332549 0.132005 0
vt 0.321859 0.0892957 0
vt 0.32765 0.0682375 0
vt 0.46267 0.0749725 0
vt 0.495598 0.0539143 0
vt 0.347185 0.11841 0
vt 0.485885 0.0231479 0
vt 0.519833 0.00531747 0
vt 0.530316 0.0385224 0
vt 0.55836 0.00199203 0
vt 0.567483 0.0308878 0
vt 0.602151 0.0153388 0
vt 0.607759 0.0331018 0
vt 0.281111 0.783368 0
vt 0.256261 0.788976 0
vt 0.251194 0.748155 0
vt 0.276323 0.747569 0
vt 0.643558 0.0450215 0

# 522 vertex normals
vn 0.517566 -0.410675 0.750647
vn 0.4801 -0.642763 0.596959
vn 0.570129 -0.739402 0.358103
vn 0.850666 -0.302816 0.429733
vn 0.626972 -0.753971 0.196045
vn 0.925725 -0.323965 0.195141
vn 0.858496 -0.110833 0.500701
vn 0.935932 -0.116095 0.332494
vn 0.477173 -0.254932 0.84102
vn 0.646423 -0.733474 0.210127
vn 0.853372 -0.484478 0.192454
vn 0.600484 -0.679149 0.422108
vn 0.748453 -0.527541 0.401893
vn 0.875194 -0.325015 0.35833
vn 0.800913 -0.447171 0.398217
vn 0.546397 -0.676267 0.494078
vn 0.748603 -0.441619 0.494536
vn 0.609984 -0.744609 0.271067
vn 0.852275 -0.415093 0.318317
vn 0.817263 -0.42201 0.392415
vn 0.889507 -0.362538 0.278108
vn 0.626413 -0.77882 0.0323376
vn 0.870636 -0.4774 0.118671
vn 0.600032 -0.789667 0.128016
vn 0.814887 -0.54955 0.184264
vn 0.929983 -0.331125 0.159652
vn 0.950656 -0.268188 0.155972
vn 0.574209 -0.777849 0.255412
vn 0.819458 -0.529354 0.219713
vn 0.630387 -0.775644 -0.0314441
vn 0.805289 -0.502345 -0.314895
vn 0.989903 -0.134962 0.0433288
vn 0.887595 -0.12885 -0.442236
vn 0.551516 -0.133105 0.823476
vn 0.858251 -0.0538033 0.510402
vn 0.88537 -0.129782 0.446404
vn 0.820015 -0.10982 0.561707
vn 0.825266 -0.194579 0.530165
vn 0.618543 -0.0579524 0.783611
vn 0.823986 -0.261834 0.502483
vn 0.815146 -0.370519 0.445256
vn 0.797288 -0.224237 0.560402
vn 0.870859 -0.215954 0.441553
vn 0.857642 -0.39648 0.327498
vn 0.918238 -0.346416 0.191924
vn 0.955708 -0.164307 0.244183
vn 0.991572 -0.100193 0.0821371
vn 0.967072 -0.244753 0.0697722
vn 0.995978 -0.0894182 -0.00558748
vn 0.997353 -0.0657484 -0.0310481
vn 0.992859 -0.0593739 -0.10347
vn 0.986636 0.0751324 -0.144585
vn 0.89359 0.0552507 -0.445471
vn 0.97653 -0.076101 -0.20149
vn 0.922446 -0.140114 -0.359807
vn 0.616005 -0.00808866 0.7877
vn 0.752879 -0.139215 0.643267
vn 0.795385 -0.224364 0.563049
vn 0.709695 -0.0554822 0.702321
vn 0.836031 -0.103048 0.538919
vn 0.58516 0.0391742 0.809971
vn 0.848052 -0.172346 0.501104
vn 0.94753 -0.0439403 0.316631
vn 0.935159 -0.0307743 0.352889
vn 0.981729 0.0614637 0.180083
vn 0.991559 0.0730657 0.107113
vn 0.992955 0.117861 0.0122101
vn 0.995491 0.0589066 0.0743538
vn 0.99866 0.00367599 0.0516252
vn 0.997756 0.0657291 -0.0127293
vn 0.997557 -0.06522 -0.0250186
vn 0.99782 -0.0291348 0.0592145
vn 0.997082 -0.0446938 0.0618922
vn 0.96881 -0.226222 -0.101145
vn 0.901545 -0.321565 -0.289504
vn 0.99625 -0.0765494 -0.0403202
vn 0.946109 -0.136001 -0.293907
vn 0.564055 0.106804 0.818801
vn 0.704273 0.0764306 0.705804
vn 0.88461 0.0869516 0.458154
vn 0.72698 0.20793 0.65442
vn 0.897076 0.239103 0.371598
vn 0.541506 0.226945 0.809486
vn 0.968475 0.133505 0.210316
vn 0.976306 0.135542 0.168686
vn 0.959646 0.223668 0.170448
vn 0.95188 0.189124 0.241158
vn 0.978932 0.0189807 0.203302
vn 0.983247 -0.119285 0.137831
vn 0.935518 0.130623 0.328243
vn 0.980549 0.0433425 0.191429
vn 0.989875 -0.135211 0.0431963
vn 0.999252 -0.0386319 -0.00189621
vn 0.999672 -0.0256222 0.000372892
vn 0.996459 -0.0481513 -0.068924
vn 0.992372 0.0749577 -0.0978687
vn 0.951134 0.0793513 -0.298408
vn 0.989087 -0.0509464 -0.138244
vn 0.95471 -0.028375 -0.296182
vn 0.488147 0.464842 0.73867
vn 0.709336 0.449976 0.542553
vn 0.821304 0.464464 0.331259
vn 0.464485 0.805375 0.368273
vn 0.501429 0.809429 0.305605
vn 0.351859 0.773132 0.527694
vn 0.882752 0.401518 0.243993
vn 0.892043 0.340959 0.296657
vn 0.542252 0.780526 0.311034
vn 0.606606 0.748392 0.268213
vn 0.891113 0.330018 0.311457
vn 0.938843 0.309983 0.149945
vn 0.675981 0.722294 0.146088
vn 0.728523 0.684045 -0.0365613
vn 0.972857 0.230245 -0.0231496
vn 0.99361 0.104776 -0.0419644
vn 0.771827 0.617031 -0.153481
vn 0.810126 0.57232 -0.127064
vn 0.994415 -0.0526882 -0.091448
vn 0.936112 -0.0722539 -0.344199
vn 0.842208 0.508295 -0.179782
vn 0.833238 0.346091 -0.431202
vn 0.180272 0.860391 0.476686
vn 0.216546 0.932932 0.287655
vn 0.21987 0.944585 0.243755
vn 0.186904 0.945415 0.266942
vn 0.182263 0.963023 0.198412
vn 0.138474 0.885341 0.443843
vn 0.196796 0.955711 0.218831
vn 0.214547 0.970085 0.113597
vn 0.173772 0.970882 0.164901
vn 0.192927 0.978425 0.0739158
vn 0.273666 0.960523 -0.0500274
vn 0.356724 0.91388 -0.193832
vn 0.241586 0.968549 -0.0595763
vn 0.289419 0.94049 -0.17809
vn 0.443131 0.85679 -0.263716
vn 0.485225 0.828374 -0.279918
vn 0.323779 0.909595 -0.260393
vn 0.353494 0.87528 -0.330041
vn 0.481663 0.789403 -0.380582
vn 0.556166 0.580913 -0.594323
vn 0.386391 0.807039 -0.44653
vn 0.431374 0.64806 -0.627642
vn 0.0680981 0.896605 0.437564
vn 0.133873 0.965707 0.222457
vn 0.104622 0.983362 0.148502
vn -0.125821 0.987488 0.0950615
vn -0.186267 0.982453 0.00947597
vn -0.184491 0.902377 0.38946
vn 0.113184 0.981583 0.153899
vn 0.172574 0.981261 0.0857083
vn -0.22827 0.972771 0.0401159
vn -0.216656 0.97569 -0.032993
vn 0.230829 0.97089 -0.0639526
vn 0.246962 0.94293 -0.223369
vn -0.180516 0.963479 -0.197794
vn -0.126564 0.922892 -0.363666
vn 0.224621 0.91938 -0.322934
vn 0.222589 0.90642 -0.358967
vn -0.0884668 0.894934 -0.43734
vn -0.0638461 0.917436 -0.392727
vn 0.297469 0.846339 -0.44184
vn 0.353615 0.658959 -0.663875
vn 0.0317476 0.899409 -0.435954
vn 0.165074 0.667232 -0.726328
vn -0.415952 0.847787 0.329
vn -0.322293 0.946485 -0.01712
vn -0.332231 0.937406 -0.104371
vn -0.300625 0.953526 0.0203072
vn -0.215774 0.971427 -0.0988496
vn -0.475249 0.799983 0.366286
vn -0.393303 0.9152 -0.0878699
vn -0.440248 0.883394 -0.160612
vn -0.223173 0.965871 -0.13148
vn -0.260979 0.945091 -0.196703
vn -0.448589 0.847976 -0.282319
vn -0.405029 0.82879 -0.38608
vn -0.306482 0.911294 -0.274977
vn -0.328464 0.888734 -0.319787
vn -0.335126 0.843028 -0.420706
vn -0.286703 0.886089 -0.364208
vn -0.298847 0.896643 -0.326684
vn -0.27548 0.905092 -0.323912
vn -0.216127 0.877629 -0.427851
vn -0.04712 0.629218 -0.7758
vn -0.278614 0.845114 -0.456243
vn -0.196743 0.562882 -0.80278
vn -0.486449 0.7434 0.459047
vn -0.287044 0.946687 0.14625
vn -0.168977 0.98541 -0.0203323
vn -0.528045 0.787866 0.316916
vn -0.493549 0.867471 0.0624855
vn -0.574356 0.633254 0.518753
vn -0.106662 0.984656 -0.138112
vn -0.0970784 0.97188 -0.214534
vn -0.42105 0.878442 -0.225957
vn -0.33413 0.843019 -0.421516
vn -0.117328 0.957112 -0.264896
vn -0.157634 0.950015 -0.269487
vn -0.274879 0.833058 -0.480058
vn -0.30512 0.844676 -0.4398
vn -0.185479 0.944982 -0.269456
vn -0.221811 0.905945 -0.360644
vn -0.381537 0.819939 -0.426766
vn -0.438429 0.721978 -0.535282
vn -0.289234 0.782172 -0.551861
vn -0.325786 0.468994 -0.820919
vn -0.466392 0.537589 -0.702479
vn -0.447313 0.350866 -0.822681
vn -0.680922 0.412727 0.604981
vn -0.825913 0.416562 0.379927
vn -0.921053 0.384026 0.0646909
vn -0.931377 0.168565 0.322681
vn -0.996644 0.0816509 -0.0058545
vn -0.747528 0.218039 0.627424
vn -0.896472 0.326617 -0.299433
vn -0.753222 0.366829 -0.545979
vn -0.963779 0.0314825 -0.264838
vn -0.900347 0.100441 -0.423423
vn -0.586032 0.493305 -0.64282
vn -0.520558 0.572021 -0.633886
vn -0.800926 0.241801 -0.547768
vn -0.671087 0.303908 -0.676227
vn -0.553102 0.545789 -0.629439
vn -0.590163 0.425976 -0.685749
vn -0.600608 0.268813 -0.753
vn -0.615931 0.20911 -0.759541
vn -0.577036 0.285493 -0.765195
vn -0.478131 0.231732 -0.847167
vn -0.62258 0.213056 -0.752995
vn -0.495014 0.281686 -0.821958
vn -0.747636 0.055382 0.661795
vn -0.94853 -0.0550683 0.311862
vn -0.99746 -0.0711523 -0.00328331
vn -0.931773 -0.180325 0.31509
vn -0.966774 -0.241808 0.0829313
vn -0.77872 0.0952455 0.6201
vn -0.975616 -0.0449283 -0.214835
vn -0.947839 -0.0130286 -0.318483
vn -0.976255 -0.18895 -0.105946
vn -0.948035 -0.157514 -0.276439
vn -0.899108 0.00196193 -0.437723
vn -0.757429 -0.0164215 -0.652711
vn -0.872573 -0.227224 -0.432418
vn -0.7466 -0.287493 -0.599947
vn -0.633098 -0.0236794 -0.773709
vn -0.672768 0.0257802 -0.739404
vn -0.676576 -0.242896 -0.695159
vn -0.748175 -0.134352 -0.649757
vn -0.718066 0.136885 -0.682381
vn -0.554861 0.239368 -0.796764
vn -0.792466 -0.0665277 -0.606276
vn -0.622079 -0.0705576 -0.779768
vn -0.874759 0.128686 0.467158
vn -0.953992 -0.206717 0.217182
vn -0.937083 -0.32536 0.126553
vn -0.987314 -0.148417 0.0564236
vn -0.961596 -0.266495 0.0656839
vn -0.933765 0.0341418 0.356255
vn -0.95417 -0.297839 0.0291926
vn -0.923696 -0.290836 -0.249401
vn -0.942804 -0.323425 0.0807246
vn -0.893464 -0.3883 -0.225708
vn -0.791583 -0.370254 -0.486117
vn -0.723639 -0.410861 -0.554562
vn -0.756081 -0.409284 -0.510714
vn -0.775348 -0.352136 -0.524248
vn -0.750457 -0.330414 -0.5724
vn -0.797873 -0.213078 -0.563912
vn -0.849436 -0.241524 -0.469175
vn -0.838989 -0.160448 -0.519955
vn -0.77485 -0.220239 -0.592539
vn -0.611241 -0.321005 -0.723423
vn -0.728197 -0.200689 -0.655327
vn -0.567258 -0.316544 -0.760275
vn -0.93106 -0.115698 0.346037
vn -0.990375 -0.129313 -0.0493477
vn -0.970096 -0.237107 -0.0519086
vn -0.929937 -0.359621 -0.0767444
vn -0.883421 -0.450269 -0.129711
vn -0.869769 -0.349742 0.348114
vn -0.928352 -0.371528 0.0114139
vn -0.862265 -0.467068 -0.195822
vn -0.837 -0.542614 -0.0707179
vn -0.818978 -0.560317 -0.123774
vn -0.804127 -0.406622 -0.433634
vn -0.856882 -0.243319 -0.454476
vn -0.869038 -0.427199 -0.249548
vn -0.907672 -0.246646 -0.339555
vn -0.905555 -0.130018 -0.403813
vn -0.863313 -0.101371 -0.494383
vn -0.901697 -0.208776 -0.378623
vn -0.870626 -0.216352 -0.441817
vn -0.703524 -0.118742 -0.700681
vn -0.503232 -0.199509 -0.840805
vn -0.756731 -0.11784 -0.643018
vn -0.436969 -0.0652325 -0.897108
vn -0.736069 -0.634025 0.237099
vn -0.732989 -0.673702 -0.0940918
vn -0.685934 -0.716408 -0.12749
vn -0.614303 -0.778472 -0.128894
vn -0.615491 -0.778132 -0.125226
vn -0.632271 -0.774692 0.00924516
vn -0.681791 -0.728676 -0.0647475
vn -0.746815 -0.664934 0.0114347
vn -0.64538 -0.762567 -0.0444559
vn -0.700939 -0.705701 0.103296
vn -0.853354 -0.521109 -0.0152276
vn -0.870544 -0.439626 -0.221095
vn -0.747023 -0.650322 0.13798
vn -0.736244 -0.668233 -0.10681
vn -0.794403 -0.481583 -0.370139
vn -0.804055 -0.507624 -0.309538
vn -0.666345 -0.672821 -0.321398
vn -0.71115 -0.668108 -0.218855
vn -0.85442 -0.345435 -0.388124
vn -0.480767 -0.140429 -0.865531
vn -0.748567 -0.648764 -0.136942
vn -0.578452 -0.591529 -0.561682
vn -0.54599 -0.807954 0.221596
vn -0.525819 -0.848924 -0.0533108
vn -0.565794 -0.82001 -0.0863763
vn -0.303391 -0.946431 0.110557
vn -0.351613 -0.934198 0.060348
vn -0.424916 -0.812807 0.398487
vn -0.605375 -0.795809 -0.0144647
vn -0.629771 -0.765072 0.134365
vn -0.426019 -0.89987 0.0934959
vn -0.442824 -0.88132 0.164868
vn -0.616263 -0.762704 0.196221
vn -0.584397 -0.811409 0.0097937
vn -0.376354 -0.901888 0.212026
vn -0.28472 -0.948516 0.13875
vn -0.55446 -0.808209 -0.198424
vn -0.574191 -0.796982 -0.187413
vn -0.232163 -0.972615 0.0109903
vn -0.219275 -0.972909 -0.0732627
vn -0.511312 -0.833877 -0.207868
vn -0.23888 -0.680587 -0.692631
vn -0.163959 -0.958788 -0.232041
vn 0.0235856 -0.728416 -0.684729
vn -0.391532 -0.73201 0.557551
vn -0.157344 -0.963246 0.217717
vn -0.177656 -0.964933 0.193241
vn -0.111818 -0.959889 0.257118
vn -0.117525 -0.959814 0.254842
vn -0.368827 -0.621316 0.691326
vn -0.255893 -0.941459 0.219483
vn -0.240884 -0.955631 0.169543
vn -0.172619 -0.937266 0.302879
vn -0.122217 -0.981833 0.145145
vn -0.108193 -0.985664 0.129463
vn 0.0368673 -0.988445 0.147026
vn 0.00962989 -0.999866 -0.0132596
vn 0.0969628 -0.994576 0.0376441
vn 0.103959 -0.984049 0.14436
vn 0.10234 -0.992071 0.0729455
vn 0.115086 -0.984205 0.134516
vn 0.0997657 -0.986047 0.133259
vn 0.0998534 -0.985768 -0.135243
vn 0.190929 -0.745379 -0.638715
vn 0.103585 -0.993756 -0.0414644
vn 0.218114 -0.772376 -0.596542
vn -0.180614 -0.594638 0.783444
vn -0.0311799 -0.95597 0.291802
vn -0.0363658 -0.955692 0.292114
vn 0.151844 -0.92654 0.344191
vn 0.149197 -0.933614 0.325738
vn 0.124074 -0.612981 0.780295
vn -0.061542 -0.930448 0.361219
vn -0.00300162 -0.987467 0.157795
vn 0.168243 -0.903619 0.393913
vn 0.204548 -0.948546 0.241702
vn 0.0672744 -0.995343 -0.0690377
vn 0.0629635 -0.997481 -0.0326618
vn 0.182191 -0.98249 0.0389936
vn 0.107881 -0.994161 0.00255805
vn 0.0361908 -0.994826 0.0949317
vn 0.0280369 -0.989731 0.140165
vn 0.0893242 -0.993665 0.068204
vn 0.112458 -0.983198 0.143791
vn 0.0626475 -0.998031 0.00294827
vn 0.223618 -0.794203 -0.565011
vn 0.157961 -0.98577 0.057499
vn 0.318238 -0.80845 -0.495109
vn 0.349416 -0.656046 0.668963
vn 0.330794 -0.87092 0.36342
vn 0.359559 -0.882306 0.303733
vn 0.426176 -0.83946 0.337167
vn 0.430626 -0.829895 0.354732
vn 0.338627 -0.897262 0.283288
vn 0.269986 -0.954813 0.124253
vn 0.28942 -0.956755 0.0292732
vn 0.334662 -0.932986 0.132436
vn 0.352151 -0.922488 0.158132
vn 0.474152 -0.812184 -0.339908
vn 0.141911 -0.31245 -0.939274
vn -0.0489056 -0.216641 -0.975026
vn -0.153743 -0.210561 -0.965415
vn 0.0717487 -0.365222 -0.928151
vn 0.282333 -0.359344 -0.889472
vn 0.248651 -0.351114 -0.902714
vn 0.225085 -0.429944 -0.874348
vn 0.270414 -0.439609 -0.856516
vn 0.366685 -0.392343 -0.843569
vn 0.301364 -0.365911 -0.880505
vn 0.295265 -0.431943 -0.852199
vn 0.378997 -0.386649 -0.840752
vn 0.511056 -0.438646 -0.739196
vn 0.568475 -0.267525 -0.777989
vn -0.0333456 -0.511513 -0.858628
vn -0.307379 -0.355029 -0.882878
vn -0.3866 -0.423687 -0.819164
vn -0.0767438 -0.512917 -0.855001
vn 0.252585 -0.568066 -0.783264
vn 0.190545 -0.569196 -0.799818
vn 0.219889 -0.515237 -0.828359
vn 0.295299 -0.473237 -0.829967
vn 0.46403 -0.453046 -0.7612
vn 0.297103 -0.547932 -0.781984
vn 0.347172 -0.434692 -0.830972
vn 0.562578 -0.377532 -0.73551
vn 0.70362 -0.206125 -0.680023
vn 0.799373 -0.260469 -0.541442
vn -0.0476436 -0.376474 -0.925201
vn -0.398078 -0.36835 -0.84015
vn -0.373325 -0.0504325 -0.926329
vn -0.0108591 -0.0346292 -0.999341
vn 0.359529 -0.270739 -0.892995
vn 0.299037 -0.328004 -0.896097
vn 0.319243 -0.0641904 -0.945497
vn 0.348155 -0.146755 -0.925879
vn 0.593764 -0.276521 -0.755633
vn 0.380046 -0.252861 -0.889734
vn 0.347214 -0.235554 -0.907721
vn 0.583874 -0.264862 -0.767424
vn 0.799698 -0.314743 -0.511292
vn 0.819317 -0.205047 -0.535421
vn -0.0450864 0.268926 -0.962105
vn -0.33328 0.284158 -0.898987
vn -0.330186 0.300917 -0.894665
vn -0.102316 0.28098 -0.954244
vn 0.235095 -0.0204804 -0.971757
vn 0.212201 0.154901 -0.964871
vn 0.0961573 0.222797 -0.970111
vn 0.145996 0.169264 -0.974697
vn 0.590515 -0.184704 -0.785606
vn 0.272741 -0.166822 -0.947514
vn 0.242212 0.143498 -0.959553
vn 0.571342 0.10838 -0.813524
vn 0.857574 -0.04652 -0.512252
vn 0.856741 0.0479065 -0.513517
vn -0.12537 0.283507 -0.95074
vn -0.325413 0.247678 -0.912558
vn 0.169765 0.367567 -0.914371
vn 0.0516323 0.315089 -0.947657
vn 0.507108 0.415224 -0.755269
vn 0.29525 0.431139 -0.852612
vn 0.75964 0.222984 -0.610921
vn -0.572349 -0.606346 0.552052
vn -0.482112 -0.502343 0.717788
vn -0.62476 -0.432757 0.64992
vn -0.419901 -0.462819 0.780693
vn -0.483376 -0.233224 0.843774
vn -0.43638 0.0334761 0.899139
vn -0.294299 -0.404992 0.865661
vn -0.26687 -0.330368 0.905338
vn -0.266512 0.120604 0.956256
vn 0.0014228 -0.02431 0.999704
vn -0.240722 -0.274121 0.93108
vn -0.0901424 -0.276994 0.956634
vn 0.231678 -0.268671 0.934955
vn 0.125068 -0.299221 0.945952
vn -0.724017 -0.243362 0.645426
vn -0.486352 -0.388153 0.782815
vn -0.785919 0.0916608 0.611497
vn -0.635827 0.0182829 0.771616
vn -0.266444 -0.482231 0.834542
vn -0.205121 -0.541245 0.815462
vn -0.46653 -0.143122 0.872849
vn -0.342897 -0.322873 0.882142
vn -0.184375 -0.558808 0.808541
vn -0.0352413 -0.492643 0.869518
vn -0.202007 -0.392246 0.897405
vn 0.0729379 -0.323629 0.943369
vn 0.201978 -0.324741 0.923985
vn 0.354264 -0.170988 0.91938
vn -0.700684 0.406058 0.58665
vn -0.644979 0.474488 0.599052
vn -0.623201 0.321902 0.712741
vn -0.676062 0.365383 0.639871
vn -0.635153 0.357604 0.684617
vn -0.526055 0.141884 0.838531
vn -0.742547 0.303901 0.596882
vn -0.6293 0.210749 0.748042
vn -0.241803 0.0106391 0.970267
vn 0.157738 0.00358999 0.987475
vn -0.267082 0.151889 0.951629
vn 0.184192 0.12109 0.975403
vn 0.439162 0.0257998 0.898038
vn 0.450383 0.0912163 0.888164
vn -0.599877 0.119743 0.791081
vn -0.695955 0.115673 0.708707
vn -0.616656 0.217657 0.756546
vn -0.672254 0.255889 0.694691
vn -0.770627 0.155313 0.618071
vn -0.637064 0.232688 0.734851
vn -0.686967 0.37122 0.624718
vn -0.513856 0.513746 0.687035
vn -0.268988 0.278336 0.922049
vn 0.167273 0.238674 0.956585
vn -0.194738 0.589302 0.784092
vn 0.1343 0.53336 0.835159
vn 0.433367 0.164086 0.886154
vn 0.369934 0.38174 0.847009
vn -0.597003 0.443578 0.668451
vn -0.597379 0.526675 0.604775
vn -0.543776 0.630555 0.553812
vn -0.3339 0.739783 0.58415
vn -0.0667389 0.786435 0.614057
vn 0.113123 0.758554 0.641715
vn 0.255279 0.651162 0.714718

# Mesh 'polySurface17_polySurface17' with 1040 faces
g polySurface17_polySurface17
usemtl lambert1
f 1/1/1 2/2/2 3/3/3
f 3/3/3 4/4/4 1/1/1
f 4/4/4 3/3/3 5/5/5
f 5/5/5 6/6/6 4/4/4
f 7/7/7 4/4/4 6/6/6
f 6/6/6 8/8/8 7/7/7
f 9/9/9 1/1/1 4/4/4
f 4/4/4 7/7/7 9/9/9
f 6/6/6 5/5/5 10/10/10
f 10/10/10 11/11/11 6/6/6
f 11/11/11 10/10/10 12/12/12
f 12/12/12 13/13/13 11/11/11
f 14/14/14 11/11/11 13/13/13
f 13/13/13 15/15/15 14/14/14
f 8/8/8 6/6/6 11/11/11
f 11/11/11 14/14/14 8/8/8
f 13/13/13 12/12/12 16/16/16
f 16/16/16 17/17/17 13/13/13
f 17/17/17 16/16/16 18/18/18
f 18/18/18 19/19/19 17/17/17
f 20/20/20 17/17/17 19/19/19
f 19/19/19 21/21/21 20/20/20
f 15/15/15 13/13/13 17/17/17
f 17/17/17 20/20/20 15/15/15
f 19/19/19 18/18/18 22/22/22
f 22/22/22 23/23/23 19/19/19
f 23/23/23 22/22/22 24/24/24
f 24/24/24 25/25/25 23/23/23
f 26/26/26 23/23/23 25/25/25
f 25/25/25 27/27/27 26/26/26
f 21/21/21 19/19/19 23/23/23
f 23/23/23 26/26/26 21/21/21
f 25/25/25 24/24/24 28/28/28
f 28/28/28 29/29/29 25/25/25
f 29/29/29 28/28/28 30/30/30
f 30/30/30 31/31/31 29/29/29
f 32/32/32 29/29/29 31/31/31
f 31/31/31 33/33/33 32/32/32
f 27/27/27 25/25/25 29/29/29
f 29/29/29 32/32/32 27/27/27
f 34/34/34 9/9/9 7/7/7
f 7/7/7 35/35/35 34/34/34
f 35/35/35 7/7/7 8/8/8
f 8/8/8 36/36/36 35/35/35
f 37/37/37 35/35/35 36/36/36
f 36/36/36 38/38/38 37/37/37
f 39/39/39 34/34/34 35/35/35
f 35/35/35 37/37/37 39/39/39
f 36/36/36 8/8/8 14/14/14
f 14/14/14 40/40/40 36/36/36
f 40/40/40 14/14/14 15/15/15
f 15/15/15 41/41/41 40/40/40
f 42/42/42 40/40/40 41/41/41
f 41/41/41 43/43/43 42/42/42
f 38/38/38 36/36/36 40/40/40
f 40/40/40 42/42/42 38/38/38
f 41/41/41 15/15/15 20/20/20
f 20/20/20 44/44/44 41/41/41
f 44/44/44 20/20/20 21/21/21
f 21/21/21 45/45/45 44/44/44
f 46/46/46 44/44/44 45/45/45
f 45/45/45 47/47/47 46/46/46
f 43/43/43 41/41/41 44/44/44
f 44/44/44 46/46/46 43/43/43
f 45/45/45 21/21/21 26/26/26
f 26/26/26 48/48/48 45/45/45
f 48/48/48 26/26/26 27/27/27
f 27/27/27 49/49/49 48/48/48
f 50/50/50 48/48/48 49/49/49
f 49/49/49 51/51/51 50/50/50
f 47/47/47 45/45/45 48/48/48
f 48/48/48 50/50/50 47/47/47
f 49/49/49 27/27/27 32/32/32
f 32/32/32 52/52/52 49/49/49
f 52/52/52 32/32/32 33/33/33
f 33/33/33 53/53/53 52/52/52
f 54/54/54 52/52/52 53/53/53
f 53/53/53 55/55/55 54/54/54
f 51/51/51 49/49/49 52/52/52
f 52/52/52 54/54/54 51/51/51
f 56/56/56 39/39/39 37/37/37
f 37/37/37 57/57/57 56/56/56
f 57/57/57 37/37/37 38/38/38
f 38/38/38 58/58/58 57/57/57
f 59/59/59 57/57/57 58/58/58
f 58/58/58 60/60/60 59/59/59
f 61/61/61 56/56/56 57/57/57
f 57/57/57 59/59/59 61/61/61
f 58/58/58 38/38/38 42/42/42
f 42/42/42 62/62/62 58/58/58
f 62/62/62 42/42/42 43/43/43
f 43/43/43 63/63/63 62/62/62
f 64/64/64 62/62/62 63/63/63
f 63/63/63 65/65/65 64/64/64
f 60/60/60 58/58/58 62/62/62
f 62/62/62 64/64/64 60/60/60
f 63/63/63 43/43/43 46/46/46
f 46/46/46 66/66/66 63/63/63
f 66/66/66 46/46/46 47/47/47
f 47/47/47 67/67/67 66/66/66
f 68/68/68 66/66/66 67/67/67
f 67/67/67 69/69/69 68/68/68
f 65/65/65 63/63/63 66/66/66
f 66/66/66 68/68/68 65/65/65
f 67/67/67 47/47/47 50/50/50
f 50/50/50 70/70/70 67/67/67
f 70/70/70 50/50/50 51/51/51
f 51/51/51 71/71/71 70/70/70
f 72/72/72 70/70/70 71/71/71
f 71/71/71 73/73/73 72/72/72
f 69/69/69 67/67/67 70/70/70
f 70/70/70 72/72/72 69/69/69
f 71/71/71 51/51/51 54/54/54
f 54/54/54 74/74/74 71/71/71
f 74/74/74 54/54/54 55/55/55
f 55/55/55 75/75/75 74/74/74
f 76/76/76 74/74/74 75/75/75
f 75/75/75 77/77/77 76/76/76
f 73/73/73 71/71/71 74/74/74
f 74/74/74 76/76/76 73/73/73
f 78/78/78 61/61/61 59/59/59
f 59/59/59 79/79/79 78/78/78
f 79/79/79 59/59/59 60/60/60
f 60/60/60 80/80/80 79/79/79
f 81/81/81 79/79/79 80/80/80
f 80/80/80 82/82/82 81/81/81
f 83/83/83 78/78/78 79/79/79
f 79/79/79 81/81/81 83/83/83
f 80/80/80 60/60/60 64/64/64
f 64/64/64 84/84/84 80/80/80
f 84/84/84 64/64/64 65/65/65
f 65/65/65 85/85/85 84/84/84
f 86/86/86 84/84/84 85/85/85
f 85/85/85 87/87/87 86/86/86
f 82/82/82 80/80/80 84/84/84
f 84/84/84 86/86/86 82/82/82
f 85/85/85 65/65/65 68/68/68
f 68/68/68 88/88/88 85/85/85
f 88/88/88 68/68/68 69/69/69
f 69/69/69 89/89/89 88/88/88
f 90/90/90 88/88/88 89/89/89
f 89/89/89 91/91/91 90/90/90
f 87/87/87 85/85/85 88/88/88
f 88/88/88 90/90/90 87/87/87
f 89/89/89 69/69/69 72/72/72
f 72/72/72 92/92/92 89/89/89
f 92/92/92 72/72/72 73/73/73
f 73/73/73 93/93/93 92/92/92
f 94/94/94 92/92/92 93/93/93
f 93/93/93 95/95/95 94/94/94
f 91/91/91 89/89/89 92/92/92
f 92/92/92 94/94/94 91/91/91
f 93/93/93 73/73/73 76/76/76
f 76/76/76 96/96/96 93/93/93
f 96/96/96 76/76/76 77/77/77
f 77/77/77 97/97/97 96/96/96
f 98/98/98 96/96/96 97/97/97
f 97/97/97 99/99/99 98/98/98
f 95/95/95 93/93/93 96/96/96
f 96/96/96 98/98/98 95/95/95
f 100/100/100 83/83/83 81/81/81
f 81/81/81 101/101/101 100/100/100
f 101/101/101 81/81/81 82/82/82
f 82/82/82 102/102/102 101/101/101
f 103/103/103 101/101/101 102/102/102
f 102/102/102 104/104/104 103/103/103
f 105/105/105 100/100/100 101/101/101
f 101/101/101 103/103/103 105/105/105
f 102/102/102 82/82/82 86/86/86
f 86/86/86 106/106/106 102/102/102
f 106/106/106 86/86/86 87/87/87
f 87/87/87 107/107/107 106/106/106
f 108/108/108 106/106/106 107/107/107
f 107/107/107 109/109/109 108/108/108
f 104/104/104 102/102/102 106/106/106
f 106/106/106 108/108/108 104/104/104
f 107/107/107 87/87/87 90/90/90
f 90/90/90 110/110/110 107/107/107
f 110/110/110 90/90/90 91/91/91
f 91/91/91 111/111/111 110/110/110
f 112/112/112 110/110/110 111/111/111
f 111/111/111 113/113/113 112/112/112
f 109/109/109 107/107/107 110/110/110
f 110/110/110 112/112/112 109/109/109
f 111/111/111 91/91/91 94/94/94
f 94/94/94 114/114/114 111/111/111
f 114/114/114 94/94/94 95/95/95
f 95/95/95 115/115/115 114/114/114
f 116/116/116 114/114/114 115/115/115
f 115/115/115 117/117/117 116/116/116
f 113/113/113 111/111/111 114/114/114
f 114/114/114 116/116/116 113/113/113
f 115/115/115 95/95/95 98/98/98
f 98/98/98 118/118/118 115/115/115
f 118/118/118 98/98/98 99/99/99
f 99/99/99 119/119/119 118/118/118
f 120/120/120 118/118/118 119/119/119
f 119/119/119 121/121/121 120/120/120
f 117/117/117 115/115/115 118/118/118
f 118/118/118 120/120/120 117/117/117
f 122/122/122 105/123/105 103/124/103
f 103/124/103 123/125/123 122/122/122
f 123/125/123 103/124/103 104/126/104
f 104/126/104 124/127/124 123/125/123
f 125/128/125 123/125/123 124/127/124
f 124/127/124 126/129/126 125/128/125
f 127/130/127 122/122/122 123/125/123
f 123/125/123 125/128/125 127/130/127
f 124/127/124 104/126/104 108/131/108
f 108/131/108 128/132/128 124/127/124
f 128/132/128 108/131/108 109/133/109
f 109/133/109 129/134/129 128/132/128
f 130/135/130 128/132/128 129/134/129
f 129/134/129 131/136/131 130/135/130
f 126/129/126 124/127/124 128/132/128
f 128/132/128 130/135/130 126/129/126
f 129/134/129 109/133/109 112/137/112
f 112/137/112 132/138/132 129/134/129
f 132/138/132 112/137/112 113/139/113
f 113/139/113 133/140/133 132/138/132
f 134/141/134 132/138/132 133/140/133
f 133/140/133 135/142/135 134/141/134
f 131/136/131 129/134/129 132/138/132
f 132/138/132 134/141/134 131/136/131
f 133/143/133 113/113/113 116/116/116
f 116/116/116 136/144/136 133/143/133
f 136/144/136 116/116/116 117/117/117
f 117/117/117 137/145/137 136/144/136
f 138/146/138 136/147/136 137/148/137
f 137/148/137 139/149/139 138/146/138
f 135/142/135 133/140/133 136/147/136
f 136/147/136 138/146/138 135/142/135
f 137/145/137 117/117/117 120/120/120
f 120/120/120 140/150/140 137/145/137
f 140/150/140 120/120/120 121/121/121
f 121/121/121 141/151/141 140/150/140
f 142/152/142 140/153/140 141/154/141
f 141/154/141 143/155/143 142/152/142
f 139/149/139 137/148/137 140/153/140
f 140/153/140 142/152/142 139/149/139
f 144/156/144 127/130/127 125/128/125
f 125/128/125 145/157/145 144/156/144
f 145/157/145 125/128/125 126/129/126
f 126/129/126 146/158/146 145/157/145
f 147/159/147 145/157/145 146/158/146
f 146/158/146 148/160/148 147/159/147
f 149/161/149 144/156/144 145/157/145
f 145/157/145 147/159/147 149/161/149
f 146/158/146 126/129/126 130/135/130
f 130/135/130 150/162/150 146/158/146
f 150/162/150 130/135/130 131/136/131
f 131/136/131 151/163/151 150/162/150
f 152/164/152 150/162/150 151/163/151
f 151/163/151 153/165/153 152/164/152
f 148/160/148 146/158/146 150/162/150
f 150/162/150 152/164/152 148/160/148
f 151/163/151 131/136/131 134/141/134
f 134/141/134 154/166/154 151/163/151
f 154/166/154 134/141/134 135/142/135
f 135/142/135 155/167/155 154/166/154
f 156/168/156 154/166/154 155/167/155
f 155/167/155 157/169/157 156/168/156
f 153/165/153 151/163/151 154/166/154
f 154/166/154 156/168/156 153/165/153
f 155/167/155 135/142/135 138/146/138
f 138/146/138 158/170/158 155/167/155
f 158/170/158 138/146/138 139/149/139
f 139/149/139 159/171/159 158/170/158
f 160/172/160 158/170/158 159/171/159
f 159/171/159 161/173/161 160/172/160
f 157/169/157 155/167/155 158/170/158
f 158/170/158 160/172/160 157/169/157
f 159/171/159 139/149/139 142/152/142
f 142/152/142 162/174/162 159/171/159
f 162/174/162 142/152/142 143/155/143
f 143/155/143 163/175/163 162/174/162
f 164/176/164 162/174/162 163/175/163
f 163/175/163 165/177/165 164/176/164
f 161/173/161 159/171/159 162/174/162
f 162/174/162 164/176/164 161/173/161
f 166/178/166 149/161/149 147/159/147
f 147/159/147 167/179/167 166/178/166
f 167/179/167 147/159/147 148/160/148
f 148/160/148 168/180/168 167/179/167
f 169/181/169 167/179/167 168/180/168
f 168/180/168 170/182/170 169/181/169
f 171/183/171 166/178/166 167/179/167
f 167/179/167 169/181/169 171/183/171
f 168/180/168 148/160/148 152/164/152
f 152/164/152 172/184/172 168/180/168
f 172/184/172 152/164/152 153/165/153
f 153/165/153 173/185/173 172/184/172
f 174/186/174 172/184/172 173/185/173
f 173/185/173 175/187/175 174/186/174
f 170/182/170 168/180/168 172/184/172
f 172/184/172 174/186/174 170/182/170
f 173/185/173 153/165/153 156/168/156
f 156/168/156 176/188/176 173/185/173
f 176/188/176 156/168/156 157/169/157
f 157/169/157 177/189/177 176/188/176
f 178/190/178 176/188/176 177/189/177
f 177/189/177 179/191/179 178/190/178
f 175/187/175 173/185/173 176/188/176
f 176/188/176 178/190/178 175/187/175
f 177/189/177 157/169/157 160/172/160
f 160/172/160 180/192/180 177/189/177
f 180/192/180 160/172/160 161/173/161
f 161/173/161 181/193/181 180/192/180
f 182/194/182 180/192/180 181/193/181
f 181/193/181 183/195/183 182/194/182
f 179/191/179 177/189/177 180/192/180
f 180/192/180 182/194/182 179/191/179
f 181/193/181 161/173/161 164/176/164
f 164/176/164 184/196/184 181/193/181
f 184/196/184 164/176/164 165/177/165
f 165/177/165 185/197/185 184/196/184
f 186/198/186 184/196/184 185/197/185
f 185/197/185 187/199/187 186/198/186
f 183/195/183 181/193/181 184/196/184
f 184/196/184 186/198/186 183/195/183
f 188/200/188 171/183/171 169/181/169
f 169/181/169 189/201/189 188/200/188
f 189/201/189 169/181/169 170/182/170
f 170/182/170 190/202/190 189/201/189
f 191/203/191 189/201/189 190/202/190
f 190/202/190 192/204/192 191/203/191
f 193/205/193 188/200/188 189/201/189
f 189/201/189 191/203/191 193/205/193
f 190/202/190 170/182/170 174/186/174
f 174/186/174 194/206/194 190/202/190
f 194/206/194 174/186/174 175/187/175
f 175/187/175 195/207/195 194/206/194
f 196/208/196 194/206/194 195/207/195
f 195/207/195 197/209/197 196/208/196
f 192/204/192 190/202/190 194/206/194
f 194/206/194 196/208/196 192/204/192
f 195/207/195 175/187/175 178/190/178
f 178/190/178 198/210/198 195/207/195
f 198/210/198 178/190/178 179/191/179
f 179/191/179 199/211/199 198/210/198
f 200/212/200 198/210/198 199/211/199
f 199/211/199 201/213/201 200/212/200
f 197/209/197 195/207/195 198/210/198
f 198/210/198 200/212/200 197/209/197
f 199/211/199 179/191/179 182/194/182
f 182/194/182 202/214/202 199/211/199
f 202/214/202 182/194/182 183/195/183
f 183/195/183 203/215/203 202/214/202
f 204/216/204 202/214/202 203/215/203
f 203/215/203 205/217/205 204/216/204
f 201/213/201 199/211/199 202/214/202
f 202/214/202 204/216/204 201/213/201
f 203/215/203 183/195/183 186/198/186
f 186/198/186 206/218/206 203/215/203
f 206/218/206 186/198/186 187/199/187
f 187/199/187 207/219/207 206/218/206
f 208/220/208 206/218/206 207/219/207
f 207/219/207 209/221/209 208/220/208
f 205/217/205 203/215/203 206/218/206
f 206/218/206 208/220/208 205/217/205
f 210/222/210 193/223/193 191/224/191
f 191/224/191 211/225/211 210/222/210
f 211/225/211 191/224/191 192/226/192
f 192/226/192 212/227/212 211/225/211
f 213/228/213 211/225/211 212/227/212
f 212/227/212 214/229/214 213/228/213
f 215/230/215 210/222/210 211/225/211
f 211/225/211 213/228/213 215/230/215
f 212/227/212 192/226/192 196/231/196
f 196/231/196 216/232/216 212/227/212
f 216/232/216 196/231/196 197/233/197
f 197/233/197 217/234/217 216/232/216
f 218/235/218 216/232/216 217/234/217
f 217/234/217 219/236/219 218/235/218
f 214/229/214 212/227/212 216/232/216
f 216/232/216 218/235/218 214/229/214
f 217/237/217 197/209/197 200/212/200
f 200/212/200 220/238/220 217/237/217
f 220/238/220 200/212/200 201/213/201
f 201/213/201 221/239/221 220/238/220
f 222/240/222 220/241/220 221/242/221
f 221/242/221 223/243/223 222/240/222
f 219/236/219 217/234/217 220/241/220
f 220/241/220 222/240/222 219/236/219
f 221/239/221 201/213/201 204/216/204
f 204/216/204 224/244/224 221/239/221
f 224/245/224 204/246/204 205/247/205
f 205/247/205 225/248/225 224/245/224
f 226/249/226 224/245/224 225/248/225
f 225/248/225 227/250/227 226/249/226
f 223/243/223 221/242/221 224/245/224
f 224/245/224 226/249/226 223/243/223
f 225/248/225 205/247/205 208/251/208
f 208/251/208 228/252/228 225/248/225
f 228/252/228 208/251/208 209/253/209
f 209/253/209 229/254/229 228/252/228
f 230/255/230 228/252/228 229/254/229
f 229/254/229 231/256/231 230/255/230
f 227/250/227 225/248/225 228/252/228
f 228/252/228 230/255/230 227/250/227
f 232/257/232 215/230/215 213/228/213
f 213/228/213 233/258/233 232/257/232
f 233/258/233 213/228/213 214/229/214
f 214/229/214 234/259/234 233/258/233
f 235/260/235 233/258/233 234/259/234
f 234/259/234 236/261/236 235/260/235
f 237/262/237 232/257/232 233/258/233
f 233/258/233 235/260/235 237/262/237
f 234/259/234 214/229/214 218/235/218
f 218/235/218 238/263/238 234/259/234
f 238/263/238 218/235/218 219/236/219
f 219/236/219 239/264/239 238/263/238
f 240/265/240 238/263/238 239/264/239
f 239/264/239 241/266/241 240/265/240
f 236/261/236 234/259/234 238/263/238
f 238/263/238 240/265/240 236/261/236
f 239/264/239 219/236/219 222/240/222
f 222/240/222 242/267/242 239/264/239
f 242/267/242 222/240/222 223/243/223
f 223/243/223 243/268/243 242/267/242
f 244/269/244 242/267/242 243/268/243
f 243/268/243 245/270/245 244/269/244
f 241/266/241 239/264/239 242/267/242
f 242/267/242 244/269/244 241/266/241
f 243/268/243 223/243/223 226/249/226
f 226/249/226 246/271/246 243/268/243
f 246/271/246 226/249/226 227/250/227
f 227/250/227 247/272/247 246/271/246
f 248/273/248 246/271/246 247/272/247
f 247/272/247 249/274/249 248/273/248
f 245/270/245 243/268/243 246/271/246
f 246/271/246 248/273/248 245/270/245
f 247/272/247 227/250/227 230/255/230
f 230/255/230 250/275/250 247/272/247
f 250/275/250 230/255/230 231/256/231
f 231/256/231 251/276/251 250/275/250
f 252/277/252 250/275/250 251/276/251
f 251/276/251 253/278/253 252/277/252
f 249/274/249 247/272/247 250/275/250
f 250/275/250 252/277/252 249/274/249
f 254/279/254 237/262/237 235/260/235
f 235/260/235 255/280/255 254/279/254
f 255/280/255 235/260/235 236/261/236
f 236/261/236 256/281/256 255/280/255
f 257/282/257 255/280/255 256/281/256
f 256/281/256 258/283/258 257/282/257
f 259/284/259 254/279/254 255/280/255
f 255/280/255 257/282/257 259/284/259
f 256/281/256 236/261/236 240/265/240
f 240/265/240 260/285/260 256/281/256
f 260/285/260 240/265/240 241/266/241
f 241/266/241 261/286/261 260/285/260
f 262/287/262 260/285/260 261/286/261
f 261/286/261 263/288/263 262/287/262
f 258/283/258 256/281/256 260/285/260
f 260/285/260 262/287/262 258/283/258
f 261/286/261 241/266/241 244/269/244
f 244/269/244 264/289/264 261/286/261
f 264/289/264 244/269/244 245/270/245
f 245/270/245 265/290/265 264/289/264
f 266/291/266 264/289/264 265/290/265
f 265/290/265 267/292/267 266/291/266
f 263/288/263 261/286/261 264/289/264
f 264/289/264 266/291/266 263/288/263
f 265/290/265 245/270/245 248/273/248
f 248/273/248 268/293/268 265/290/265
f 268/293/268 248/273/248 249/274/249
f 249/274/249 269/294/269 268/293/268
f 270/295/270 268/293/268 269/294/269
f 269/294/269 271/296/271 270/295/270
f 267/292/267 265/290/265 268/293/268
f 268/293/268 270/295/270 267/292/267
f 269/294/269 249/274/249 252/277/252
f 252/277/252 272/297/272 269/294/269
f 272/297/272 252/277/252 253/278/253
f 253/278/253 273/298/273 272/297/272
f 274/299/274 272/297/272 273/298/273
f 273/298/273 275/300/275 274/299/274
f 271/296/271 269/294/269 272/297/272
f 272/297/272 274/299/274 271/296/271
f 276/301/276 259/284/259 257/282/257
f 257/282/257 277/302/277 276/301/276
f 277/302/277 257/282/257 258/283/258
f 258/283/258 278/303/278 277/302/277
f 279/304/279 277/302/277 278/303/278
f 278/303/278 280/305/280 279/304/279
f 281/306/281 276/301/276 277/302/277
f 277/302/277 279/304/279 281/306/281
f 278/303/278 258/283/258 262/287/262
f 262/287/262 282/307/282 278/303/278
f 282/307/282 262/287/262 263/288/263
f 263/288/263 283/308/283 282/307/282
f 284/309/284 282/307/282 283/308/283
f 283/308/283 285/310/285 284/309/284
f 280/305/280 278/303/278 282/307/282
f 282/307/282 284/309/284 280/305/280
f 283/308/283 263/288/263 266/291/266
f 266/291/266 286/311/286 283/308/283
f 286/311/286 266/291/266 267/292/267
f 267/292/267 287/312/287 286/311/286
f 288/313/288 286/311/286 287/312/287
f 287/312/287 289/314/289 288/313/288
f 285/310/285 283/308/283 286/311/286
f 286/311/286 288/313/288 285/310/285
f 287/312/287 267/292/267 270/295/270
f 270/295/270 290/315/290 287/312/287
f 290/315/290 270/295/270 271/296/271
f 271/296/271 291/316/291 290/315/290
f 292/317/292 290/315/290 291/316/291
f 291/316/291 293/318/293 292/317/292
f 289/314/289 287/312/287 290/315/290
f 290/315/290 292/317/292 289/314/289
f 291/316/291 271/296/271 274/299/274
f 274/299/274 294/319/294 291/316/291
f 294/319/294 274/299/274 275/300/275
f 275/300/275 295/320/295 294/319/294
f 296/321/296 294/319/294 295/320/295
f 295/320/295 297/322/297 296/321/296
f 293/318/293 291/316/291 294/319/294
f 294/319/294 296/321/296 293/318/293
f 298/323/298 281/306/281 279/304/279
f 279/304/279 299/324/299 298/323/298
f 299/324/299 279/304/279 280/305/280
f 280/305/280 300/325/300 299/324/299
f 301/326/301 299/324/299 300/325/300
f 300/325/300 302/327/302 301/326/301
f 303/328/303 298/323/298 299/324/299
f 299/324/299 301/326/301 303/328/303
f 300/325/300 280/305/280 284/309/284
f 284/309/284 304/329/304 300/325/300
f 304/329/304 284/309/284 285/310/285
f 285/310/285 305/330/305 304/329/304
f 306/331/306 304/329/304 305/330/305
f 305/330/305 307/332/307 306/331/306
f 302/327/302 300/325/300 304/329/304
f 304/329/304 306/331/306 302/327/302
f 305/330/305 285/310/285 288/313/288
f 288/313/288 308/333/308 305/330/305
f 308/333/308 288/313/288 289/314/289
f 289/314/289 309/334/309 308/333/308
f 310/335/310 308/333/308 309/334/309
f 309/334/309 311/336/311 310/335/310
f 307/332/307 305/330/305 308/333/308
f 308/333/308 310/335/310 307/332/307
f 309/334/309 289/314/289 292/317/292
f 292/317/292 312/337/312 309/334/309
f 312/337/312 292/317/292 293/318/293
f 293/318/293 313/338/313 312/337/312
f 314/339/314 312/337/312 313/338/313
f 313/338/313 315/340/315 314/339/314
f 311/336/311 309/334/309 312/337/312
f 312/337/312 314/339/314 311/336/311
f 313/338/313 293/318/293 296/321/296
f 296/321/296 316/341/316 313/338/313
f 316/341/316 296/321/296 297/322/297
f 297/322/297 317/342/317 316/341/316
f 318/343/318 316/341/316 317/342/317
f 317/342/317 319/344/319 318/343/318
f 315/340/315 313/338/313 316/341/316
f 316/341/316 318/343/318 315/340/315
f 320/345/320 303/328/303 301/326/301
f 301/326/301 321/346/321 320/345/320
f 321/346/321 301/326/301 302/327/302
f 302/327/302 322/347/322 321/346/321
f 323/348/323 321/349/321 322/350/322
f 322/350/322 324/351/324 323/348/323
f 325/352/325 320/353/320 321/349/321
f 321/349/321 323/348/323 325/352/325
f 322/347/322 302/327/302 306/331/306
f 306/331/306 326/354/326 322/347/322
f 326/354/326 306/331/306 307/332/307
f 307/332/307 327/355/327 326/354/326
f 328/356/328 326/354/326 327/355/327
f 327/355/327 329/357/329 328/356/328
f 324/358/324 322/347/322 326/354/326
f 326/354/326 328/356/328 324/358/324
f 327/355/327 307/332/307 310/335/310
f 310/335/310 330/359/330 327/355/327
f 330/359/330 310/335/310 311/336/311
f 311/336/311 331/360/331 330/359/330
f 332/361/332 330/359/330 331/360/331
f 331/360/331 333/362/333 332/361/332
f 329/357/329 327/355/327 330/359/330
f 330/359/330 332/361/332 329/357/329
f 331/360/331 311/336/311 314/339/314
f 314/339/314 334/363/334 331/360/331
f 334/363/334 314/339/314 315/340/315
f 315/340/315 335/364/335 334/363/334
f 336/365/336 334/366/334 335/367/335
f 335/367/335 337/368/337 336/365/336
f 333/369/333 331/370/331 334/366/334
f 334/366/334 336/365/336 333/369/333
f 335/364/335 315/340/315 318/343/318
f 318/343/318 338/371/338 335/364/335
f 338/371/338 318/343/318 319/344/319
f 319/344/319 339/372/339 338/371/338
f 340/373/340 338/374/338 339/375/339
f 339/375/339 341/376/341 340/373/340
f 337/368/337 335/367/335 338/374/338
f 338/374/338 340/373/340 337/368/337
f 342/377/342 325/352/325 323/348/323
f 323/348/323 343/378/343 342/377/342
f 343/378/343 323/348/323 324/351/324
f 324/351/324 344/379/344 343/378/343
f 345/380/345 343/378/343 344/379/344
f 344/379/344 346/381/346 345/380/345
f 347/382/347 342/377/342 343/378/343
f 343/378/343 345/380/345 347/382/347
f 344/379/344 324/351/324 328/383/328
f 328/383/328 348/384/348 344/379/344
f 348/384/348 328/383/328 329/385/329
f 329/385/329 349/386/349 348/384/348
f 350/387/350 348/384/348 349/386/349
f 349/386/349 351/388/351 350/387/350
f 346/381/346 344/379/344 348/384/348
f 348/384/348 350/387/350 346/381/346
f 349/386/349 329/385/329 332/389/332
f 332/389/332 352/390/352 349/386/349
f 352/390/352 332/389/332 333/369/333
f 333/369/333 353/391/353 352/390/352
f 354/392/354 352/390/352 353/391/353
f 353/391/353 355/393/355 354/392/354
f 351/388/351 349/386/349 352/390/352
f 352/390/352 354/392/354 351/388/351
f 353/391/353 333/369/333 336/365/336
f 336/365/336 356/394/356 353/391/353
f 356/394/356 336/365/336 337/368/337
f 337/368/337 357/395/357 356/394/356
f 358/396/358 356/394/356 357/395/357
f 357/395/357 359/397/359 358/396/358
f 355/393/355 353/391/353 356/394/356
f 356/394/356 358/396/358 355/393/355
f 357/395/357 337/368/337 340/373/340
f 340/373/340 360/398/360 357/395/357
f 360/398/360 340/373/340 341/376/341
f 341/376/341 361/399/361 360/398/360
f 362/400/362 360/398/360 361/399/361
f 361/399/361 363/401/363 362/400/362
f 359/397/359 357/395/357 360/398/360
f 360/398/360 362/400/362 359/397/359
f 364/402/364 347/382/347 345/380/345
f 345/380/345 365/403/365 364/402/364
f 365/403/365 345/380/345 346/381/346
f 346/381/346 366/404/366 365/403/365
f 367/405/367 365/403/365 366/404/366
f 366/404/366 368/406/368 367/405/367
f 369/407/369 364/402/364 365/403/365
f 365/403/365 367/405/367 369/407/369
f 366/404/366 346/381/346 350/387/350
f 350/387/350 370/408/370 366/404/366
f 370/408/370 350/387/350 351/388/351
f 351/388/351 371/409/371 370/408/370
f 372/410/372 370/408/370 371/409/371
f 371/409/371 373/411/373 372/410/372
f 368/406/368 366/404/366 370/408/370
f 370/408/370 372/410/372 368/406/368
f 371/409/371 351/388/351 354/392/354
f 354/392/354 374/412/374 371/409/371
f 374/412/374 354/392/354 355/393/355
f 355/393/355 375/413/375 374/412/374
f 376/414/376 374/412/374 375/413/375
f 375/413/375 377/415/377 376/414/376
f 373/411/373 371/409/371 374/412/374
f 374/412/374 376/414/376 373/411/373
f 375/413/375 355/393/355 358/396/358
f 358/396/358 378/416/378 375/413/375
f 378/416/378 358/396/358 359/397/359
f 359/397/359 379/417/379 378/416/378
f 380/418/380 378/416/378 379/417/379
f 379/417/379 381/419/381 380/418/380
f 377/415/377 375/413/375 378/416/378
f 378/416/378 380/418/380 377/415/377
f 379/417/379 359/397/359 362/400/362
f 362/400/362 382/420/382 379/417/379
f 382/420/382 362/400/362 363/401/363
f 363/401/363 383/421/383 382/420/382
f 384/422/384 382/420/382 383/421/383
f 383/421/383 385/423/385 384/422/384
f 381/419/381 379/417/379 382/420/382
f 382/420/382 384/422/384 381/419/381
f 386/424/386 369/407/369 367/405/367
f 367/405/367 387/425/387 386/424/386
f 387/425/387 367/405/367 368/406/368
f 368/406/368 388/426/388 387/425/387
f 3/427/3 387/425/387 388/426/388
f 388/426/388 5/428/5 3/427/3
f 2/429/2 386/424/386 387/425/387
f 387/425/387 3/427/3 2/429/2
f 388/426/388 368/406/368 372/410/372
f 372/410/372 389/430/389 388/426/388
f 389/430/389 372/410/372 373/411/373
f 373/411/373 390/431/390 389/430/389
f 10/10/10 389/432/389 390/433/390
f 390/433/390 12/12/12 10/10/10
f 5/5/5 388/434/388 389/432/389
f 389/432/389 10/10/10 5/5/5
f 390/431/390 373/411/373 376/414/376
f 376/414/376 391/435/391 390/431/390
f 391/435/391 376/414/376 377/415/377
f 377/415/377 392/436/392 391/435/391
f 16/437/16 391/435/391 392/436/392
f 392/436/392 18/438/18 16/437/16
f 12/439/12 390/431/390 391/435/391
f 391/435/391 16/437/16 12/439/12
f 392/436/392 377/415/377 380/418/380
f 380/418/380 393/440/393 392/436/392
f 393/440/393 380/418/380 381/419/381
f 381/419/381 394/441/394 393/440/393
f 22/442/22 393/440/393 394/441/394
f 394/441/394 24/443/24 22/442/22
f 18/438/18 392/436/392 393/440/393
f 393/440/393 22/442/22 18/438/18
f 394/441/394 381/419/381 384/422/384
f 384/422/384 395/444/395 394/441/394
f 395/444/395 384/422/384 385/423/385
f 385/423/385 396/445/396 395/444/395
f 28/28/28 395/446/395 396/447/396
f 396/447/396 30/30/30 28/28/28
f 24/443/24 394/441/394 395/444/395
f 395/444/395 28/448/28 24/443/24
f 397/449/397 341/450/341 339/451/339
f 339/451/339 398/452/398 397/449/397
f 398/452/398 339/451/339 319/453/319
f 319/453/319 317/454/317 398/452/398
f 399/455/399 398/452/398 317/454/317
f 317/454/317 297/456/297 399/455/399
f 400/457/400 397/449/397 398/452/398
f 398/452/398 399/455/399 400/457/400
f 401/458/401 363/459/363 361/460/361
f 361/460/361 402/461/402 401/458/401
f 402/461/402 361/460/361 341/450/341
f 341/450/341 397/449/397 402/461/402
f 403/462/403 402/461/402 397/449/397
f 397/449/397 400/457/400 403/462/403
f 404/463/404 401/458/401 402/461/402
f 402/461/402 403/462/403 404/463/404
f 405/464/405 385/465/385 383/466/383
f 383/466/383 406/467/406 405/464/405
f 406/467/406 383/466/383 363/459/363
f 363/459/363 401/458/401 406/467/406
f 407/468/407 406/467/406 401/458/401
f 401/458/401 404/463/404 407/468/407
f 408/469/408 405/464/405 406/467/406
f 406/467/406 407/468/407 408/469/408
f 31/31/31 30/30/30 396/447/396
f 396/447/396 409/470/409 31/31/31
f 409/471/409 396/445/396 385/423/385
f 385/423/385 405/472/405 409/471/409
f 410/473/410 409/474/409 405/464/405
f 405/464/405 408/469/408 410/473/410
f 33/33/33 31/31/31 409/470/409
f 409/470/409 410/475/410 33/33/33
f 411/476/411 400/457/400 399/455/399
f 399/455/399 412/477/412 411/476/411
f 412/477/412 399/455/399 297/456/297
f 297/456/297 295/478/295 412/477/412
f 413/479/413 412/477/412 295/478/295
f 295/478/295 275/480/275 413/479/413
f 414/481/414 411/476/411 412/477/412
f 412/477/412 413/479/413 414/481/414
f 415/482/415 404/463/404 403/462/403
f 403/462/403 416/483/416 415/482/415
f 416/483/416 403/462/403 400/457/400
f 400/457/400 411/476/411 416/483/416
f 417/484/417 416/483/416 411/476/411
f 411/476/411 414/481/414 417/484/417
f 418/485/418 415/482/415 416/483/416
f 416/483/416 417/484/417 418/485/418
f 419/486/419 408/469/408 407/468/407
f 407/468/407 420/487/420 419/486/419
f 420/487/420 407/468/407 404/463/404
f 404/463/404 415/482/415 420/487/420
f 421/488/421 420/487/420 415/482/415
f 415/482/415 418/485/418 421/488/421
f 422/489/422 419/486/419 420/487/420
f 420/487/420 421/488/421 422/489/422
f 53/53/53 33/33/33 410/475/410
f 410/475/410 423/490/423 53/53/53
f 423/491/423 410/473/410 408/469/408
f 408/469/408 419/486/419 423/491/423
f 424/492/424 423/490/423 419/493/419
f 419/493/419 422/494/422 424/492/424
f 55/55/55 53/53/53 423/490/423
f 423/490/423 424/492/424 55/55/55
f 425/495/425 414/481/414 413/479/413
f 413/479/413 426/496/426 425/495/425
f 426/497/426 413/498/413 275/300/275
f 275/300/275 273/298/273 426/497/426
f 427/499/427 426/497/426 273/298/273
f 273/298/273 253/278/253 427/499/427
f 428/500/428 425/495/425 426/496/426
f 426/496/426 427/501/427 428/500/428
f 429/502/429 418/485/418 417/484/417
f 417/484/417 430/503/430 429/502/429
f 430/503/430 417/484/417 414/481/414
f 414/481/414 425/495/425 430/503/430
f 431/504/431 430/503/430 425/495/425
f 425/495/425 428/500/428 431/504/431
f 432/505/432 429/502/429 430/503/430
f 430/503/430 431/504/431 432/505/432
f 433/506/433 422/489/422 421/488/421
f 421/488/421 434/507/434 433/506/433
f 434/507/434 421/488/421 418/485/418
f 418/485/418 429/502/429 434/507/434
f 435/508/435 434/507/434 429/502/429
f 429/502/429 432/505/432 435/508/435
f 436/509/436 433/506/433 434/507/434
f 434/507/434 435/508/435 436/509/436
f 75/75/75 55/55/55 424/492/424
f 424/492/424 437/510/437 75/75/75
f 437/510/437 424/492/424 422/494/422
f 422/494/422 433/511/433 437/510/437
f 438/512/438 437/510/437 433/511/433
f 433/511/433 436/513/436 438/512/438
f 77/77/77 75/75/75 437/510/437
f 437/510/437 438/512/438 77/77/77
f 439/514/439 428/500/428 427/501/427
f 427/501/427 440/515/440 439/514/439
f 440/515/440 427/501/427 253/516/253
f 253/516/253 251/517/251 440/515/440
f 441/518/441 440/515/440 251/517/251
f 251/517/251 231/519/231 441/518/441
f 442/520/442 439/514/439 440/515/440
f 440/515/440 441/518/441 442/520/442
f 443/521/443 432/505/432 431/504/431
f 431/504/431 444/522/444 443/521/443
f 444/522/444 431/504/431 428/500/428
f 428/500/428 439/514/439 444/522/444
f 445/523/445 444/522/444 439/514/439
f 439/514/439 442/520/442 445/523/445
f 446/524/446 443/521/443 444/522/444
f 444/522/444 445/523/445 446/524/446
f 447/525/447 436/509/436 435/508/435
f 435/508/435 448/526/448 447/525/447
f 448/526/448 435/508/435 432/505/432
f 432/505/432 443/521/443 448/526/448
f 449/527/449 448/526/448 443/521/443
f 443/521/443 446/524/446 449/527/449
f 450/528/450 447/525/447 448/526/448
f 448/526/448 449/527/449 450/528/450
f 97/97/97 77/77/77 438/512/438
f 438/512/438 451/529/451 97/97/97
f 451/529/451 438/512/438 436/513/436
f 436/513/436 447/530/447 451/529/451
f 452/531/452 451/529/451 447/530/447
f 447/530/447 450/532/450 452/531/452
f 99/99/99 97/97/97 451/529/451
f 451/529/451 452/531/452 99/99/99
f 453/533/453 442/520/442 441/518/441
f 441/518/441 454/534/454 453/533/453
f 454/534/454 441/518/441 231/519/231
f 231/519/231 229/535/229 454/534/454
f 207/536/207 454/534/454 229/535/229
f 229/535/229 209/537/209 207/536/207
f 187/538/187 453/533/453 454/534/454
f 454/534/454 207/536/207 187/538/187
f 455/539/455 446/524/446 445/523/445
f 445/523/445 456/540/456 455/539/455
f 456/540/456 445/523/445 442/520/442
f 442/520/442 453/533/453 456/540/456
f 185/541/185 456/540/456 453/533/453
f 453/533/453 187/538/187 185/541/185
f 165/542/165 455/539/455 456/540/456
f 456/540/456 185/541/185 165/542/165
f 457/543/457 450/528/450 449/527/449
f 449/527/449 458/544/458 457/543/457
f 458/544/458 449/527/449 446/524/446
f 446/524/446 455/539/455 458/544/458
f 163/175/163 458/545/458 455/546/455
f 455/546/455 165/177/165 163/175/163
f 143/155/143 457/547/457 458/545/458
f 458/545/458 163/175/163 143/155/143
f 119/119/119 99/99/99 452/531/452
f 452/531/452 459/548/459 119/119/119
f 459/548/459 452/531/452 450/532/450
f 450/532/450 457/549/457 459/548/459
f 141/151/141 459/548/459 457/549/457
f 457/549/457 143/550/143 141/151/141
f 121/121/121 119/119/119 459/548/459
f 459/548/459 141/151/141 121/121/121
f 298/323/298 303/328/303 320/345/320
f 320/345/320 460/551/460 298/323/298
f 460/551/460 320/345/320 325/552/325
f 325/552/325 461/553/461 460/551/460
f 462/554/462 460/555/460 461/556/461
f 461/556/461 463/557/463 462/554/462
f 281/306/281 298/323/298 460/551/460
f 460/551/460 462/558/462 281/306/281
f 461/553/461 325/552/325 342/559/342
f 342/559/342 464/560/464 461/553/461
f 464/560/464 342/559/342 347/561/347
f 347/561/347 465/562/465 464/560/464
f 466/563/466 464/564/464 465/565/465
f 465/565/465 467/566/467 466/563/466
f 463/557/463 461/556/461 464/564/464
f 464/564/464 466/563/466 463/557/463
f 465/565/465 347/567/347 364/568/364
f 364/568/364 468/569/468 465/565/465
f 468/569/468 364/568/364 369/570/369
f 369/570/369 469/571/469 468/569/468
f 470/572/470 468/569/468 469/571/469
f 469/571/469 471/573/471 470/572/470
f 467/566/467 465/565/465 468/569/468
f 468/569/468 470/572/470 467/566/467
f 469/571/469 369/570/369 386/574/386
f 386/574/386 472/575/472 469/571/469
f 472/575/472 386/574/386 2/576/2
f 2/576/2 1/577/1 472/575/472
f 473/578/473 472/575/472 1/577/1
f 1/577/1 9/579/9 473/578/473
f 471/573/471 469/571/469 472/575/472
f 472/575/472 473/578/473 471/573/471
f 276/301/276 281/306/281 462/558/462
f 462/558/462 474/580/474 276/301/276
f 474/580/474 462/558/462 463/581/463
f 463/581/463 475/582/475 474/580/474
f 476/583/476 474/580/474 475/582/475
f 475/582/475 477/584/477 476/583/476
f 259/284/259 276/301/276 474/580/474
f 474/580/474 476/583/476 259/284/259
f 475/585/475 463/557/463 466/563/466
f 466/563/466 478/586/478 475/585/475
f 478/586/478 466/563/466 467/566/467
f 467/566/467 479/587/479 478/586/478
f 480/588/480 478/586/478 479/587/479
f 479/587/479 481/589/481 480/588/480
f 477/590/477 475/585/475 478/586/478
f 478/586/478 480/588/480 477/590/477
f 479/587/479 467/566/467 470/572/470
f 470/572/470 482/591/482 479/587/479
f 482/591/482 470/572/470 471/573/471
f 471/573/471 483/592/483 482/591/482
f 484/593/484 482/591/482 483/592/483
f 483/592/483 485/594/485 484/593/484
f 481/589/481 479/587/479 482/591/482
f 482/591/482 484/593/484 481/589/481
f 483/592/483 471/573/471 473/578/473
f 473/578/473 486/595/486 483/592/483
f 486/595/486 473/578/473 9/579/9
f 9/579/9 34/596/34 486/595/486
f 487/597/487 486/595/486 34/596/34
f 34/596/34 39/598/39 487/597/487
f 485/594/485 483/592/483 486/595/486
f 486/595/486 487/597/487 485/594/485
f 254/279/254 259/284/259 476/583/476
f 476/583/476 488/599/488 254/279/254
f 488/599/488 476/583/476 477/584/477
f 477/584/477 489/600/489 488/599/488
f 490/601/490 488/599/488 489/600/489
f 489/600/489 491/602/491 490/601/490
f 237/262/237 254/279/254 488/599/488
f 488/599/488 490/601/490 237/262/237
f 489/600/489 477/584/477 480/603/480
f 480/603/480 492/604/492 489/600/489
f 492/604/492 480/603/480 481/605/481
f 481/605/481 493/606/493 492/604/492
f 494/607/494 492/604/492 493/606/493
f 493/606/493 495/608/495 494/607/494
f 491/602/491 489/600/489 492/604/492
f 492/604/492 494/607/494 491/602/491
f 493/609/493 481/589/481 484/593/484
f 484/593/484 496/610/496 493/609/493
f 496/610/496 484/593/484 485/594/485
f 485/594/485 497/611/497 496/610/496
f 498/612/498 496/610/496 497/611/497
f 497/611/497 499/613/499 498/612/498
f 495/614/495 493/609/493 496/610/496
f 496/610/496 498/612/498 495/614/495
f 497/611/497 485/594/485 487/597/487
f 487/597/487 500/615/500 497/611/497
f 500/616/500 487/617/487 39/39/39
f 39/39/39 56/56/56 500/616/500
f 501/618/501 500/616/500 56/56/56
f 56/56/56 61/61/61 501/618/501
f 499/613/499 497/611/497 500/615/500
f 500/615/500 501/619/501 499/613/499
f 232/257/232 237/262/237 490/601/490
f 490/601/490 502/620/502 232/257/232
f 502/620/502 490/601/490 491/602/491
f 491/602/491 503/621/503 502/620/502
f 504/622/504 502/620/502 503/621/503
f 503/621/503 505/623/505 504/622/504
f 215/230/215 232/257/232 502/620/502
f 502/620/502 504/622/504 215/230/215
f 503/621/503 491/602/491 494/607/494
f 494/607/494 506/624/506 503/621/503
f 506/624/506 494/607/494 495/608/495
f 495/608/495 507/625/507 506/624/506
f 508/626/508 506/624/506 507/625/507
f 507/625/507 509/627/509 508/626/508
f 505/623/505 503/621/503 506/624/506
f 506/624/506 508/626/508 505/623/505
f 507/625/507 495/608/495 498/628/498
f 498/628/498 510/629/510 507/625/507
f 510/630/510 498/612/498 499/613/499
f 499/613/499 511/631/511 510/630/510
f 512/632/512 510/630/510 511/631/511
f 511/631/511 513/633/513 512/632/512
f 509/634/509 507/635/507 510/630/510
f 510/630/510 512/632/512 509/634/509
f 511/631/511 499/613/499 501/619/501
f 501/619/501 514/636/514 511/631/511
f 514/637/514 501/618/501 61/61/61
f 61/61/61 78/78/78 514/637/514
f 515/638/515 514/637/514 78/78/78
f 78/78/78 83/83/83 515/638/515
f 513/633/513 511/631/511 514/636/514
f 514/636/514 515/639/515 513/633/513
f 210/222/210 215/230/215 504/622/504
f 504/622/504 516/640/516 210/222/210
f 516/640/516 504/622/504 505/623/505
f 505/623/505 517/641/517 516/640/516
f 188/642/188 516/640/516 517/641/517
f 517/641/517 171/643/171 188/642/188
f 193/223/193 210/222/210 516/640/516
f 516/640/516 188/642/188 193/223/193
f 517/641/517 505/623/505 508/626/508
f 508/626/508 518/644/518 517/641/517
f 518/644/518 508/626/508 509/627/509
f 509/627/509 519/645/519 518/644/518
f 166/178/166 518/646/518 519/647/519
f 519/647/519 149/161/149 166/178/166
f 171/643/171 517/641/517 518/644/518
f 518/644/518 166/648/166 171/643/171
f 519/647/519 509/649/509 512/650/512
f 512/650/512 520/651/520 519/647/519
f 520/651/520 512/650/512 513/652/513
f 513/652/513 521/653/521 520/651/520
f 144/156/144 520/651/520 521/653/521
f 521/653/521 127/130/127 144/156/144
f 149/161/149 519/647/519 520/651/520
f 520/651/520 144/156/144 149/161/149
f 521/653/521 513/652/513 515/654/515
f 515/654/515 522/655/522 521/653/521
f 522/656/522 515/657/515 83/658/83
f 83/658/83 100/659/100 522/656/522
f 122/122/122 522/655/522 100/660/100
f 100/660/100 105/123/105 122/122/122
f 127/130/127 521/653/521 522/655/522
f 522/655/522 122/122/122 127/130/127

