# File produced by Open Asset Import Library (http://www.assimp.sf.net)
# (assimp v3.1.206520482)

mtllib HighFenceSingle.mtl

# 48 vertex positions
v 9.13299 0.201487 3.76623
v 9.13299 0.0766891 3.76623
v 9.30753 0.0766891 3.76623
v 9.30753 0.201487 3.76623
v 9.13299 2.59208 1.65871
v 9.13299 2.59208 3.61971
v 9.30753 2.59208 3.61971
v 9.30753 2.59208 1.65871
v 9.13299 0.0766891 1.53008
v 9.13299 0.201488 1.53008
v 9.30753 0.201488 1.53008
v 9.30753 0.0766891 1.53008
v 9.30753 0.0766891 1.65871
v 9.30753 0.201487 1.65871
v 9.30753 0.201488 3.61971
v 9.30753 0.0766891 3.61971
v 9.13299 0.0766891 3.61971
v 9.13299 0.201487 3.61971
v 9.13299 0.201488 1.65871
v 9.13299 0.0766891 1.65871
v 9.13299 -0.231895 3.76623
v 9.30753 -0.231895 3.76623
v 9.13299 -0.231895 1.53008
v 9.30753 -0.231895 1.53008
v 9.13299 2.59208 3.76623
v 9.30753 2.59208 3.76623
v 9.30753 -0.231895 3.61971
v 9.13299 -0.231895 3.61971
v 9.13299 -0.231895 1.65871
v 9.30753 -0.231895 1.65871
v 9.13299 2.59208 1.53008
v 9.30753 2.59208 1.53008
v 9.13299 2.41172 1.53008
v 9.30753 2.41172 1.53008
v 9.30753 2.41172 1.65871
v 9.24397 0.201487 1.65871
v 9.24397 2.41172 1.65871
v 9.24397 2.41172 3.61971
v 9.24397 0.201488 3.61971
v 9.30753 2.41172 3.76623
v 9.30753 2.41172 3.61971
v 9.13299 2.41172 3.76623
v 9.13299 2.41172 3.61971
v 9.17216 0.201487 3.61971
v 9.17216 2.41172 3.61971
v 9.17216 2.41172 1.65871
v 9.17216 0.201488 1.65871
v 9.13299 2.41172 1.65871

# 128 UV coordinates
vt 0.00199203 0.0792737 0
vt 0.00199203 0.0569664 0
vt 0.0331904 0.0569664 0
vt 0.0331904 0.0792737 0
vt 0.894807 0.378522 0
vt 0.894807 0.0279977 0
vt 0.926005 0.0279977 0
vt 0.926005 0.378522 0
vt 0.041166 0.451428 0
vt 0.041166 0.42912 0
vt 0.0723644 0.42912 0
vt 0.0723644 0.451428 0
vt 0.456859 0.0569664 0
vt 0.456859 0.0792737 0
vt 0.106335 0.0792739 0
vt 0.106335 0.0569664 0
vt 0.860992 0.0569664 0
vt 0.860992 0.0792737 0
vt 0.510467 0.0792739 0
vt 0.510467 0.0569664 0
vt 0.00199203 0.00180771 0
vt 0.0331904 0.00180771 0
vt 0.041166 0.506587 0
vt 0.0723644 0.506587 0
vt 0.894807 0.00180773 0
vt 0.926005 0.00180773 0
vt 0.0801451 0.0792737 0
vt 0.0801451 0.0569664 0
vt 0.0801451 0.00180771 0
vt 0.106335 0.00180771 0
vt 0.0501563 0.541776 0
vt 0.0239664 0.541776 0
vt 0.0239664 0.510578 0
vt 0.0501563 0.510578 0
vt 0.887182 0.0569664 0
vt 0.860992 0.00180771 0
vt 0.887182 0.00180771 0
vt 0.887182 0.0792737 0
vt 0.0249833 0.576966 0
vt 0.00199203 0.576966 0
vt 0.00199203 0.545768 0
vt 0.0249833 0.545768 0
vt 0.479851 0.0569664 0
vt 0.456859 0.00180771 0
vt 0.479851 0.00180771 0
vt 0.479851 0.0792739 0
vt 0.894807 0.401513 0
vt 0.926005 0.401513 0
vt 0.487476 0.0792739 0
vt 0.487476 0.0569664 0
vt 0.487476 0.00180771 0
vt 0.510467 0.00180771 0
vt 0.041166 0.0340468 0
vt 0.0723644 0.0340468 0
vt 0.479851 0.474348 0
vt 0.456859 0.474348 0
vt 0.998008 0.510578 0
vt 0.998008 0.905652 0
vt 0.647484 0.905652 0
vt 0.647484 0.510578 0
vt 0.0801451 0.474348 0
vt 0.106335 0.474348 0
vt 0.00199203 0.474348 0
vt 0.0331904 0.474348 0
vt 0.887182 0.474348 0
vt 0.860992 0.474348 0
vt 0.641349 0.510578 0
vt 0.641349 0.905652 0
vt 0.290824 0.905652 0
vt 0.290824 0.510578 0
vt 0.487476 0.474348 0
vt 0.510468 0.474348 0
vt 0.041166 0.00180769 0
vt 0.0723644 0.00180769 0
vt 0.479851 0.506587 0
vt 0.456859 0.506587 0
vt 0.106335 0.506587 0
vt 0.0801451 0.506587 0
vt 0.00199203 0.506587 0
vt 0.0331904 0.506587 0
vt 0.887182 0.506587 0
vt 0.860992 0.506587 0
vt 0.510468 0.506587 0
vt 0.487476 0.506587 0
vt 0.161592 0.510578 0
vt 0.172953 0.510578 0
vt 0.172953 0.861102 0
vt 0.161592 0.861102 0
vt 0.242695 0.510578 0
vt 0.254056 0.510578 0
vt 0.254056 0.905652 0
vt 0.242695 0.905652 0
vt 0.144096 0.510578 0
vt 0.155456 0.510578 0
vt 0.155456 0.861102 0
vt 0.144096 0.861102 0
vt 0.273328 0.510578 0
vt 0.284689 0.510578 0
vt 0.284689 0.905652 0
vt 0.273328 0.905652 0
vt 0.13796 0.861102 0
vt 0.130959 0.861102 0
vt 0.130959 0.510578 0
vt 0.13796 0.510578 0
vt 0.23656 0.905652 0
vt 0.229558 0.905652 0
vt 0.229558 0.510578 0
vt 0.23656 0.510578 0
vt 0.223423 0.861102 0
vt 0.216421 0.861102 0
vt 0.216421 0.510578 0
vt 0.223423 0.510578 0
vt 0.267193 0.905652 0
vt 0.260191 0.905652 0
vt 0.260191 0.510578 0
vt 0.267193 0.510578 0
vt 0.179088 0.510578 0
vt 0.210286 0.510578 0
vt 0.210286 0.861102 0
vt 0.179088 0.861102 0
vt 0.0936251 0.510578 0
vt 0.124823 0.510578 0
vt 0.124823 0.565737 0
vt 0.0936251 0.565737 0
vt 0.0562915 0.510578 0
vt 0.0874899 0.510578 0
vt 0.0874899 0.565737 0
vt 0.0562915 0.565737 0

# 28 vertex normals
vn 0 0 1
vn 0 1 0
vn 0 0 -1
vn 0 1.30695e-07 -1
vn 1 -3.25007e-07 0
vn 1 -1.54144e-08 0
vn 1 0 0
vn -1 0 0
vn -1 9.68555e-08 0
vn 0 -1 0
vn 1 -1.75187e-06 0
vn 1 -2.46037e-06 0
vn 1 -2.79746e-08 0
vn -1 1.75777e-07 0
vn 0 8.88102e-15 -1
vn 1 -2.73244e-08 0
vn 1 -1.27076e-08 0
vn -1 -1.80768e-13 0
vn -1 -2.24183e-14 0
vn 0 -1.69203e-06 -1
vn -1 -1.40077e-07 0
vn -1 -2.27567e-06 0
vn 0 -1 -9.79403e-08
vn 0 1 -3.91761e-07
vn 0 -1 1.58917e-07
vn 0 -5.52296e-07 1
vn 0 1 3.87367e-07
vn -3.62631e-06 -1.97791e-06 1

# Mesh 'HighFenceSingle_Low_HighFenceSingle_Low' with 92 faces
g HighFenceSingle_Low_HighFenceSingle_Low
usemtl lambert1
f 1/1/1 2/2/1 3/3/1
f 3/3/1 4/4/1 1/1/1
f 5/5/2 6/6/2 7/7/2
f 7/7/2 8/8/2 5/5/2
f 9/9/3 10/10/4 11/11/4
f 11/11/4 12/12/3 9/9/3
f 13/13/5 14/14/6 15/15/7
f 15/15/7 16/16/7 13/13/5
f 17/17/8 18/18/8 19/19/9
f 19/19/9 20/20/8 17/17/8
f 2/2/1 21/21/1 22/22/1
f 22/22/1 3/3/1 2/2/1
f 23/23/3 9/9/3 12/12/3
f 12/12/3 24/24/3 23/23/3
f 6/6/2 25/25/2 26/26/2
f 26/26/2 7/7/2 6/6/2
f 4/27/7 3/28/7 16/16/7
f 16/16/7 15/15/7 4/27/7
f 3/28/7 22/29/7 27/30/7
f 27/30/7 16/16/7 3/28/7
f 21/31/10 28/32/10 27/33/10
f 27/33/10 22/34/10 21/31/10
f 2/35/8 17/17/8 28/36/8
f 28/36/8 21/37/8 2/35/8
f 2/35/8 1/38/8 18/18/8
f 18/18/8 17/17/8 2/35/8
f 29/39/10 23/40/10 24/41/10
f 24/41/10 30/42/10 29/39/10
f 12/43/11 13/13/5 30/44/12
f 30/44/12 24/45/12 12/43/11
f 12/43/11 11/46/13 14/14/6
f 14/14/6 13/13/5 12/43/11
f 31/47/2 5/5/2 8/8/2
f 8/8/2 32/48/2 31/47/2
f 10/49/14 9/50/8 20/20/8
f 20/20/8 19/19/9 10/49/14
f 9/50/8 23/51/8 29/52/8
f 29/52/8 20/20/8 9/50/8
f 10/10/4 33/53/15 34/54/15
f 34/54/15 11/11/4 10/10/4
f 11/46/13 34/55/16 35/56/17
f 35/56/17 14/14/6 11/46/13
f 36/57/7 37/58/7 38/59/7
f 38/59/7 39/60/7 36/57/7
f 40/61/7 4/27/7 15/15/7
f 15/15/7 41/62/7 40/61/7
f 42/63/1 1/1/1 4/4/1
f 4/4/1 40/64/1 42/63/1
f 1/38/8 42/65/8 43/66/8
f 43/66/8 18/18/8 1/38/8
f 44/67/8 45/68/8 46/69/8
f 46/69/8 47/70/8 44/67/8
f 33/71/18 10/49/14 19/19/9
f 19/19/9 48/72/19 33/71/18
f 33/53/15 31/73/20 32/74/20
f 32/74/20 34/54/15 33/53/15
f 32/75/7 8/76/7 35/56/17
f 35/56/17 34/55/16 32/75/7
f 8/76/7 7/77/7 41/62/7
f 41/62/7 35/56/17 8/76/7
f 26/78/7 40/61/7 41/62/7
f 41/62/7 7/77/7 26/78/7
f 25/79/1 42/63/1 40/64/1
f 40/64/1 26/80/1 25/79/1
f 25/81/8 6/82/8 43/66/8
f 43/66/8 42/65/8 25/81/8
f 6/82/8 5/83/21 48/72/19
f 48/72/19 43/66/8 6/82/8
f 31/84/22 33/71/18 48/72/19
f 48/72/19 5/83/21 31/84/22
f 37/85/23 35/86/23 41/87/23
f 41/87/23 38/88/23 37/85/23
f 38/89/3 41/90/3 15/91/3
f 15/91/3 39/92/3 38/89/3
f 39/93/24 15/94/24 14/95/24
f 14/95/24 36/96/24 39/93/24
f 36/97/1 14/98/1 35/99/1
f 35/99/1 37/100/1 36/97/1
f 45/101/25 43/102/25 48/103/25
f 48/103/25 46/104/25 45/101/25
f 46/105/26 48/106/26 19/107/26
f 19/107/26 47/108/26 46/105/26
f 47/109/27 19/110/27 18/111/27
f 18/111/27 44/112/27 47/109/27
f 44/113/3 18/114/3 43/115/3
f 43/115/3 45/116/3 44/113/3
f 20/117/10 13/118/10 16/119/10
f 16/119/10 17/120/10 20/117/10
f 29/121/28 30/122/28 13/123/28
f 13/123/28 20/124/28 29/121/28
f 17/125/3 16/126/3 27/127/3
f 27/127/3 28/128/3 17/125/3

